<?xml version="1.0"?>
<VTKFile type="PolyData" version="0.1" byte_order="LittleEndian">
  <PolyData>
    <Piece NumberOfPoints="     22" NumberOfVerts="  0" NumberOfLines="     21"
           NumberOfStrips="  0" NumberOfPolys="      0">
      <Points>
        <DataArray type="Float32" NumberOfComponents="3" format="ascii">
                      -0.00000                      -0.00001                       2.19000
                      -0.00002                      -0.00010                       6.57000
                      -0.00006                      -0.00027                      10.95000
                      -0.00014                      -0.00051                      15.33000
                      -0.00026                      -0.00081                      19.71000
                      -0.00042                      -0.00116                      24.09000
                      -0.00063                      -0.00158                      28.47000
                      -0.00089                      -0.00206                      32.85000
                      -0.00121                      -0.00259                      37.23000
                      -0.00161                      -0.00319                      41.61000
                      -0.00208                      -0.00385                      45.99000
                      -0.00265                      -0.00456                      50.37000
                      -0.00331                      -0.00533                      54.75000
                      -0.00409                      -0.00616                      59.13000
                      -0.00497                      -0.00703                      63.51000
                      -0.00597                      -0.00795                      67.89000
                      -0.00708                      -0.00890                      72.27000
                      -0.00827                      -0.00989                      76.65000
                      -0.00953                      -0.01090                      81.03000
                      -0.01081                      -0.01193                      85.41000
                      -0.01143                      -0.01245                      87.60000
                       0.00000                       0.00000                       0.00000
        </DataArray>
      </Points>
      <PointData>
        <DataArray type="Float32" Name="TranslationalVelocity" NumberOfComponents="3" format="ascii">
                       0.00002                       0.00000                       0.00000
                       0.00014                       0.00002                       0.00000
                       0.00040                       0.00004                       0.00000
                       0.00079                       0.00008                       0.00000
                       0.00128                       0.00013                       0.00000
                       0.00187                       0.00019                       0.00000
                       0.00252                       0.00025                       0.00000
                       0.00321                       0.00032                       0.00000
                       0.00390                       0.00040                       0.00000
                       0.00456                       0.00049                       0.00000
                       0.00516                       0.00058                       0.00000
                       0.00568                       0.00067                       0.00000
                       0.00610                       0.00077                       0.00000
                       0.00638                       0.00088                       0.00000
                       0.00654                       0.00098                       0.00000
                       0.00654                       0.00108                       0.00000
                       0.00640                       0.00118                       0.00000
                       0.00611                       0.00129                       0.00000
                       0.00568                       0.00139                       0.00000
                       0.00513                       0.00148                       0.00000
                       0.00481                       0.00153                       0.00000
                       0.00000                      -0.00000                       0.00000
        </DataArray>
        <DataArray type="Float32" Name="RotationalVelocity" NumberOfComponents="3" format="ascii">
                      -0.00000                       0.00001                       0.00000
                      -0.00000                       0.00004                       0.00000
                      -0.00001                       0.00007                       0.00000
                      -0.00001                       0.00010                       0.00000
                      -0.00001                       0.00013                       0.00000
                      -0.00001                       0.00014                       0.00000
                      -0.00002                       0.00015                       0.00000
                      -0.00002                       0.00016                       0.00000
                      -0.00002                       0.00016                       0.00000
                      -0.00002                       0.00015                       0.00000
                      -0.00002                       0.00013                       0.00000
                      -0.00002                       0.00011                       0.00000
                      -0.00002                       0.00008                       0.00000
                      -0.00002                       0.00005                       0.00000
                      -0.00002                       0.00002                       0.00000
                      -0.00002                      -0.00002                       0.00000
                      -0.00002                      -0.00005                       0.00000
                      -0.00002                      -0.00008                       0.00000
                      -0.00002                      -0.00011                       0.00000
                      -0.00002                      -0.00014                       0.00000
                      -0.00002                      -0.00015                       0.00000
                       0.00000                      -0.00000                       0.00000
        </DataArray>
        <DataArray type="Float32" Name="TranslationalAcceleration" NumberOfComponents="3" format="ascii">
                       0.00012                       0.00003                       0.00000
                       0.00116                       0.00021                       0.00000
                       0.00328                       0.00056                       0.00000
                       0.00643                       0.00104                       0.00000
                       0.01047                       0.00164                       0.00000
                       0.01523                       0.00235                       0.00000
                       0.02047                       0.00316                       0.00000
                       0.02593                       0.00407                       0.00000
                       0.03134                       0.00507                       0.00000
                       0.03643                       0.00614                       0.00000
                       0.04095                       0.00729                       0.00000
                       0.04466                       0.00850                       0.00000
                       0.04737                       0.00975                       0.00000
                       0.04891                       0.01104                       0.00000
                       0.04916                       0.01236                       0.00000
                       0.04806                       0.01368                       0.00000
                       0.04559                       0.01500                       0.00000
                       0.04180                       0.01631                       0.00000
                       0.03678                       0.01759                       0.00000
                       0.03066                       0.01887                       0.00000
                       0.02726                       0.01950                      -0.00000
                       0.00000                      -0.00000                       0.00000
        </DataArray>
        <DataArray type="Float32" Name="RotationalAcceleration" NumberOfComponents="3" format="ascii">
                      -0.00002                       0.00012                       0.00000
                      -0.00006                       0.00036                       0.00000
                      -0.00010                       0.00060                       0.00000
                      -0.00012                       0.00083                       0.00000
                      -0.00015                       0.00101                       0.00000
                      -0.00017                       0.00115                       0.00000
                      -0.00020                       0.00123                       0.00000
                      -0.00022                       0.00125                       0.00000
                      -0.00024                       0.00121                       0.00000
                      -0.00025                       0.00111                       0.00000
                      -0.00027                       0.00095                       0.00000
                      -0.00028                       0.00074                       0.00000
                      -0.00029                       0.00049                       0.00000
                      -0.00030                       0.00021                       0.00000
                      -0.00030                      -0.00009                       0.00000
                      -0.00030                      -0.00041                       0.00000
                      -0.00030                      -0.00072                       0.00000
                      -0.00030                      -0.00101                       0.00000
                      -0.00029                      -0.00128                       0.00000
                      -0.00029                      -0.00151                       0.00000
                      -0.00029                      -0.00160                       0.00000
                       0.00000                      -0.00000                       0.00000
        </DataArray>
        <DataArray type="Float32" Name="OrientationX" NumberOfComponents="3" format="ascii">
                       1.00000                      -0.00000                       0.00000
                       1.00000                      -0.00000                       0.00001
                       1.00000                      -0.00000                       0.00001
                       1.00000                      -0.00000                       0.00002
                       1.00000                      -0.00000                       0.00003
                       1.00000                      -0.00000                       0.00004
                       1.00000                      -0.00000                       0.00005
                       1.00000                      -0.00000                       0.00007
                       1.00000                      -0.00000                       0.00008
                       1.00000                      -0.00000                       0.00010
                       1.00000                      -0.00000                       0.00012
                       1.00000                      -0.00000                       0.00014
                       1.00000                      -0.00000                       0.00016
                       1.00000                      -0.00000                       0.00019
                       1.00000                      -0.00000                       0.00022
                       1.00000                      -0.00000                       0.00024
                       1.00000                      -0.00000                       0.00026
                       1.00000                      -0.00000                       0.00028
                       1.00000                      -0.00000                       0.00029
                       1.00000                      -0.00000                       0.00029
                       1.00000                      -0.00000                       0.00028
                       1.00000                      -0.00000                       0.00000
        </DataArray>
        <DataArray type="Float32" Name="OrientationY" NumberOfComponents="3" format="ascii">
                      -0.00000                       1.00000                       0.00001
                      -0.00000                       1.00000                       0.00003
                      -0.00000                       1.00000                       0.00005
                      -0.00000                       1.00000                       0.00006
                      -0.00000                       1.00000                       0.00008
                      -0.00000                       1.00000                       0.00009
                      -0.00000                       1.00000                       0.00010
                      -0.00000                       1.00000                       0.00012
                      -0.00000                       1.00000                       0.00013
                      -0.00000                       1.00000                       0.00014
                      -0.00000                       1.00000                       0.00016
                      -0.00000                       1.00000                       0.00017
                      -0.00000                       1.00000                       0.00018
                      -0.00000                       1.00000                       0.00019
                      -0.00000                       1.00000                       0.00020
                      -0.00000                       1.00000                       0.00021
                      -0.00000                       1.00000                       0.00022
                      -0.00000                       1.00000                       0.00023
                      -0.00000                       1.00000                       0.00023
                      -0.00000                       1.00000                       0.00024
                      -0.00000                       1.00000                       0.00024
                      -0.00000                       1.00000                      -0.00000
        </DataArray>
        <DataArray type="Float32" Name="OrientationZ" NumberOfComponents="3" format="ascii">
                      -0.00000                      -0.00001                       1.00000
                      -0.00001                      -0.00003                       1.00000
                      -0.00001                      -0.00005                       1.00000
                      -0.00002                      -0.00006                       1.00000
                      -0.00003                      -0.00008                       1.00000
                      -0.00004                      -0.00009                       1.00000
                      -0.00005                      -0.00010                       1.00000
                      -0.00007                      -0.00012                       1.00000
                      -0.00008                      -0.00013                       1.00000
                      -0.00010                      -0.00014                       1.00000
                      -0.00012                      -0.00016                       1.00000
                      -0.00014                      -0.00017                       1.00000
                      -0.00016                      -0.00018                       1.00000
                      -0.00019                      -0.00019                       1.00000
                      -0.00022                      -0.00020                       1.00000
                      -0.00024                      -0.00021                       1.00000
                      -0.00026                      -0.00022                       1.00000
                      -0.00028                      -0.00023                       1.00000
                      -0.00029                      -0.00023                       1.00000
                      -0.00029                      -0.00024                       1.00000
                      -0.00028                      -0.00024                       1.00000
                       0.00000                      -0.00000                       1.00000
        </DataArray>
      </PointData>
      <Lines>
        <DataArray type="Int32" Name="connectivity" format="ascii">
      0      1
      1      2
      2      3
      3      4
      4      5
      5      6
      6      7
      7      8
      8      9
      9     10
     10     11
     11     12
     12     13
     13     14
     14     15
     15     16
     16     17
     17     18
     18     19
     19     20
     21      0
        </DataArray>
        <DataArray type="Int32" Name="offsets" format="ascii">
      2
      4
      6
      8
     10
     12
     14
     16
     18
     20
     22
     24
     26
     28
     30
     32
     34
     36
     38
     40
     42
        </DataArray>
      </Lines>
    </Piece>
  </PolyData>
</VTKFile>
