<?xml version="1.0"?>
<VTKFile type="PolyData" version="0.1" byte_order="LittleEndian">
  <PolyData>
    <Piece NumberOfPoints="     19" NumberOfVerts="  0" NumberOfLines="     18"
           NumberOfStrips="  0" NumberOfPolys="      0">
      <Points>
        <DataArray type="Float32" NumberOfComponents="3" format="ascii">
                      -5.16738                      -1.03475                      88.91544
                      -5.31441                      -1.96575                      87.92572
                      -5.63631                      -3.75734                      85.88401
                      -5.97134                      -5.51497                      83.81230
                      -6.39781                      -7.69078                      81.20395
                      -6.84819                     -10.40553                      78.16311
                      -7.26656                     -13.21365                      75.20550
                      -7.68666                     -16.02129                      72.24762
                      -8.10612                     -18.83005                      69.29058
                      -8.52604                     -21.63877                      66.33346
                      -8.94819                     -24.44504                      63.37427
                      -9.37199                     -27.25027                      60.41427
                      -9.79832                     -30.05475                      57.45385
                     -10.22814                     -32.85866                      54.49337
                     -10.65993                     -35.66210                      51.53271
                     -11.02135                     -37.99799                      49.06538
                     -11.31119                     -39.87220                      47.09684
                     -11.59967                     -41.78649                      45.16549
                     -11.74728                     -42.71283                      44.17165
        </DataArray>
      </Points>
      <PointData>
        <DataArray type="Float32" Name="TranslationalVelocity" NumberOfComponents="3" format="ascii">
                       0.00380                       0.03497                      -0.02066
                       0.00204                       0.05583                      -0.04001
                      -0.00151                       0.09885                      -0.07721
                      -0.00499                       0.14247                      -0.11366
                      -0.00912                       0.19728                      -0.15873
                      -0.01402                       0.26091                      -0.21486
                      -0.01923                       0.32249                      -0.27265
                      -0.02545                       0.38376                      -0.32998
                      -0.03385                       0.44464                      -0.38666
                      -0.04587                       0.50509                      -0.44241
                      -0.06308                       0.56514                      -0.49693
                      -0.08715                       0.62476                      -0.55002
                      -0.11974                       0.68397                      -0.60146
                      -0.16241                       0.74287                      -0.65108
                      -0.21655                       0.80158                      -0.69881
                      -0.27148                       0.85049                      -0.73708
                      -0.32187                       0.88960                      -0.76691
                      -0.37831                       0.92820                      -0.79673
                      -0.40872                       0.94814                      -0.81079
        </DataArray>
        <DataArray type="Float32" Name="RotationalVelocity" NumberOfComponents="3" format="ascii">
                       0.02081                       0.00013                      -0.00184
                       0.02080                       0.00013                      -0.00183
                       0.02078                       0.00012                      -0.00183
                       0.02075                       0.00010                      -0.00181
                       0.02071                       0.00008                      -0.00179
                       0.02063                       0.00009                      -0.00181
                       0.02052                       0.00019                      -0.00191
                       0.02037                       0.00045                      -0.00216
                       0.02017                       0.00091                      -0.00261
                       0.01993                       0.00163                      -0.00333
                       0.01963                       0.00264                      -0.00434
                       0.01930                       0.00397                      -0.00567
                       0.01894                       0.00561                      -0.00729
                       0.01858                       0.00750                      -0.00917
                       0.01823                       0.00958                      -0.01120
                       0.01799                       0.01136                      -0.01291
                       0.01784                       0.01275                      -0.01421
                       0.01775                       0.01403                      -0.01538
                       0.01774                       0.01461                      -0.01588
        </DataArray>
        <DataArray type="Float32" Name="TranslationalAcceleration" NumberOfComponents="3" format="ascii">
                      -0.01429                       0.00834                       0.00026
                      -0.00390                       0.00260                       0.00075
                      -0.00596                       0.00655                       0.00150
                      -0.00009                       0.00944                       0.00090
                       0.01917                       0.01262                      -0.00235
                       0.06032                       0.01730                      -0.01024
                       0.12185                       0.02389                      -0.02311
                       0.20583                       0.03304                      -0.04166
                       0.31478                       0.04506                      -0.06633
                       0.45256                       0.05995                      -0.09766
                       0.62475                       0.07743                      -0.13627
                       0.83879                       0.09710                      -0.18291
                       1.10434                       0.11836                      -0.23857
                       1.43359                       0.14051                      -0.30458
                       1.84149                       0.16292                      -0.38238
                       2.25621                       0.18132                      -0.45786
                       2.64282                       0.19556                      -0.52587
                       3.08287                       0.20890                      -0.60181
                       3.32866                       0.21559                      -0.64290
        </DataArray>
        <DataArray type="Float32" Name="OrientationX" NumberOfComponents="3" format="ascii">
                       0.95215                       0.13895                      -0.27221
                       0.95216                       0.13897                      -0.27219
                       0.95217                       0.13905                      -0.27211
                       0.95218                       0.13917                      -0.27200
                       0.95220                       0.13934                      -0.27183
                       0.96088                       0.11660                      -0.25124
                       0.96652                       0.10017                      -0.23621
                       0.97104                       0.08578                      -0.22301
                       0.97537                       0.07048                      -0.20903
                       0.97935                       0.05465                      -0.19463
                       0.98268                       0.03960                      -0.18101
                       0.98557                       0.02460                      -0.16749
                       0.98781                       0.01093                      -0.15526
                       0.98928                       0.00051                      -0.14604
                       0.99052                      -0.00978                      -0.13699
                       0.99142                      -0.01840                      -0.12940
                       0.99200                      -0.02481                      -0.12376
                       0.99228                      -0.02827                      -0.12079
                       0.99227                      -0.02831                      -0.12085
        </DataArray>
        <DataArray type="Float32" Name="OrientationY" NumberOfComponents="3" format="ascii">
                       0.28634                      -0.71694                       0.63562
                       0.28633                      -0.71702                       0.63553
                       0.28630                      -0.71725                       0.63529
                       0.28626                      -0.71753                       0.63499
                       0.28621                      -0.71793                       0.63456
                       0.25563                      -0.72252                       0.64235
                       0.23341                      -0.72552                       0.64741
                       0.21392                      -0.72786                       0.65150
                       0.19325                      -0.72994                       0.65562
                       0.17192                      -0.73168                       0.65962
                       0.15168                      -0.73296                       0.66315
                       0.13157                      -0.73387                       0.66643
                       0.11331                      -0.73440                       0.66919
                       0.09946                      -0.73465                       0.67112
                       0.08581                      -0.73472                       0.67293
                       0.07439                      -0.73464                       0.67437
                       0.06589                      -0.73451                       0.67539
                       0.06135                      -0.73443                       0.67591
                       0.06136                      -0.73444                       0.67589
        </DataArray>
        <DataArray type="Float32" Name="OrientationZ" NumberOfComponents="3" format="ascii">
                      -0.10684                      -0.68315                      -0.72242
                      -0.10684                      -0.68306                      -0.72251
                      -0.10683                      -0.68280                      -0.72275
                      -0.10680                      -0.68248                      -0.72306
                      -0.10673                      -0.68203                      -0.72350
                      -0.10663                      -0.68145                      -0.72406
                      -0.10652                      -0.68087                      -0.72461
                      -0.10643                      -0.68034                      -0.72513
                      -0.10637                      -0.67987                      -0.72558
                      -0.10636                      -0.67946                      -0.72596
                      -0.10641                      -0.67912                      -0.72627
                      -0.10653                      -0.67885                      -0.72651
                      -0.10671                      -0.67862                      -0.72669
                      -0.10695                      -0.67845                      -0.72682
                      -0.10722                      -0.67830                      -0.72692
                      -0.10747                      -0.67821                      -0.72697
                      -0.10766                      -0.67814                      -0.72700
                      -0.10782                      -0.67810                      -0.72702
                      -0.10789                      -0.67808                      -0.72703
        </DataArray>
        <DataArray type="Float32" Name="Force" NumberOfComponents="3" format="ascii">
                       5.26686                     -64.61015                      60.31899
                      18.58478                     -73.24020                      66.51037
                      19.41912                     -72.81430                      65.98487
                      12.38573                     -52.15172                      47.48612
                     -17.80136                     -11.49506                      13.49753
                     -52.21163                      -6.52885                      13.86961
                     -51.44788                      -5.46929                      12.74401
                     -28.31461                      -2.63105                       6.64995
                      -6.10101                      -1.12586                       1.96054
                      -0.31713                      -0.91257                       0.90943
                      -5.33756                      -0.70645                       1.45167
                     -13.13050                      -0.28750                       2.20143
                     -11.06273                      -0.28626                       1.89892
                      -9.95037                      -0.17043                       1.62881
                      -4.80820                      -0.34573                       1.03794
                       1.29965                      -0.65522                       0.42701
                       7.54909                      -0.96682                      -0.20644
                      16.91816                      -1.11287                      -1.46307
                      28.67438                      -1.13114                      -3.19648
        </DataArray>
        <DataArray type="Float32" Name="Moment" NumberOfComponents="3" format="ascii">
                       0.00000                       0.00000                       0.00000
                       0.00000                       0.00000                       0.00000
                       0.00000                       0.00000                       0.00000
                       0.00000                       0.00000                       0.00000
                       5.40702                      34.63900                      36.63113
                       8.71435                      55.90467                      59.12088
                       8.01511                      51.49271                      54.45610
                       8.27412                      53.22434                      56.28830
                       9.65908                      62.19061                      65.77152
                       8.55745                      55.12079                      58.29493
                       7.53394                      48.51856                      51.31238
                       6.44121                      41.44534                      43.83138
                       4.00281                      25.71629                      27.19626
                       3.38771                      21.71870                      22.96798
                       2.84246                      18.17731                      19.22227
                       2.44639                      15.60990                      16.50680
                       2.04762                      13.04316                      13.79227
                       0.99410                       6.32283                       6.68584
                       1.04439                       6.63858                       7.01966
        </DataArray>
      </PointData>
      <Lines>
        <DataArray type="Int32" Name="connectivity" format="ascii">
      0      1
      1      2
      2      3
      3      4
      4      5
      5      6
      6      7
      7      8
      8      9
      9     10
     10     11
     11     12
     12     13
     13     14
     14     15
     15     16
     16     17
     17     18
        </DataArray>
        <DataArray type="Int32" Name="offsets" format="ascii">
      2
      4
      6
      8
     10
     12
     14
     16
     18
     20
     22
     24
     26
     28
     30
     32
     34
     36
        </DataArray>
      </Lines>
    </Piece>
  </PolyData>
</VTKFile>
