<?xml version="1.0"?>
<VTKFile type="PolyData" version="0.1" byte_order="LittleEndian">
  <PolyData>
    <Piece NumberOfPoints="     22" NumberOfVerts="  0" NumberOfLines="     21"
           NumberOfStrips="  0" NumberOfPolys="      0">
      <Points>
        <DataArray type="Float32" NumberOfComponents="3" format="ascii">
                       0.00000                      -0.00001                       2.19000
                       0.00002                      -0.00005                       6.57000
                       0.00005                      -0.00013                      10.95000
                       0.00008                      -0.00024                      15.33000
                       0.00012                      -0.00038                      19.71000
                       0.00014                      -0.00055                      24.09000
                       0.00015                      -0.00075                      28.47000
                       0.00014                      -0.00097                      32.85000
                       0.00008                      -0.00122                      37.23000
                      -0.00003                      -0.00149                      41.61000
                      -0.00021                      -0.00178                      45.99000
                      -0.00046                      -0.00209                      50.37000
                      -0.00080                      -0.00243                      54.75000
                      -0.00124                      -0.00278                      59.13000
                      -0.00178                      -0.00315                      63.51000
                      -0.00243                      -0.00353                      67.89000
                      -0.00318                      -0.00392                      72.27000
                      -0.00402                      -0.00432                      76.65000
                      -0.00493                      -0.00472                      81.03000
                      -0.00589                      -0.00513                      85.41000
                      -0.00636                      -0.00534                      87.60000
                       0.00000                       0.00000                       0.00000
        </DataArray>
      </Points>
      <PointData>
        <DataArray type="Float32" Name="TranslationalVelocity" NumberOfComponents="3" format="ascii">
                       0.00000                       0.00001                       0.00000
                       0.00002                       0.00007                       0.00000
                       0.00006                       0.00017                       0.00000
                       0.00013                       0.00033                       0.00000
                       0.00021                       0.00052                       0.00000
                       0.00033                       0.00077                       0.00000
                       0.00046                       0.00105                       0.00000
                       0.00061                       0.00139                       0.00000
                       0.00079                       0.00177                       0.00000
                       0.00098                       0.00222                       0.00000
                       0.00119                       0.00272                       0.00000
                       0.00141                       0.00327                       0.00000
                       0.00166                       0.00390                       0.00000
                       0.00193                       0.00458                       0.00000
                       0.00222                       0.00533                       0.00000
                       0.00253                       0.00613                       0.00000
                       0.00285                       0.00700                       0.00000
                       0.00319                       0.00791                       0.00000
                       0.00353                       0.00886                       0.00000
                       0.00387                       0.00984                       0.00000
                       0.00403                       0.01035                       0.00000
                       0.00000                      -0.00000                       0.00000
        </DataArray>
        <DataArray type="Float32" Name="RotationalVelocity" NumberOfComponents="3" format="ascii">
                      -0.00001                       0.00000                       0.00000
                      -0.00002                       0.00001                       0.00000
                      -0.00003                       0.00001                       0.00000
                      -0.00004                       0.00002                       0.00000
                      -0.00005                       0.00002                       0.00000
                      -0.00006                       0.00003                       0.00000
                      -0.00007                       0.00003                       0.00000
                      -0.00008                       0.00004                       0.00000
                      -0.00009                       0.00004                       0.00000
                      -0.00011                       0.00005                       0.00000
                      -0.00012                       0.00005                       0.00000
                      -0.00013                       0.00005                       0.00000
                      -0.00015                       0.00006                       0.00000
                      -0.00016                       0.00006                       0.00000
                      -0.00018                       0.00007                       0.00000
                      -0.00019                       0.00007                       0.00000
                      -0.00020                       0.00008                       0.00000
                      -0.00021                       0.00008                       0.00000
                      -0.00022                       0.00008                       0.00000
                      -0.00023                       0.00007                       0.00000
                      -0.00023                       0.00007                       0.00000
                       0.00000                      -0.00000                       0.00000
        </DataArray>
        <DataArray type="Float32" Name="TranslationalAcceleration" NumberOfComponents="3" format="ascii">
                       0.00001                      -0.00001                      -0.00000
                       0.00006                      -0.00009                      -0.00000
                       0.00017                      -0.00022                      -0.00000
                       0.00031                      -0.00042                      -0.00000
                       0.00048                      -0.00066                      -0.00000
                       0.00066                      -0.00095                      -0.00000
                       0.00082                      -0.00129                      -0.00000
                       0.00095                      -0.00166                      -0.00000
                       0.00101                      -0.00208                      -0.00000
                       0.00098                      -0.00253                      -0.00000
                       0.00083                      -0.00302                      -0.00000
                       0.00054                      -0.00354                      -0.00000
                       0.00009                      -0.00409                      -0.00000
                      -0.00056                      -0.00466                      -0.00000
                      -0.00140                      -0.00525                      -0.00000
                      -0.00245                      -0.00586                      -0.00000
                      -0.00370                      -0.00647                      -0.00000
                      -0.00513                      -0.00708                      -0.00000
                      -0.00670                      -0.00770                      -0.00000
                      -0.00837                      -0.00832                      -0.00000
                      -0.00922                      -0.00863                      -0.00000
                       0.00000                      -0.00000                       0.00000
        </DataArray>
        <DataArray type="Float32" Name="RotationalAcceleration" NumberOfComponents="3" format="ascii">
                       0.00001                       0.00001                       0.00000
                       0.00002                       0.00002                       0.00000
                       0.00004                       0.00003                       0.00000
                       0.00005                       0.00004                       0.00000
                       0.00006                       0.00004                       0.00000
                       0.00007                       0.00004                       0.00000
                       0.00008                       0.00003                       0.00000
                       0.00009                       0.00002                       0.00000
                       0.00010                       0.00000                       0.00000
                       0.00011                      -0.00002                       0.00000
                       0.00012                      -0.00005                       0.00000
                       0.00012                      -0.00008                       0.00000
                       0.00013                      -0.00013                       0.00000
                       0.00013                      -0.00017                       0.00000
                       0.00014                      -0.00022                       0.00000
                       0.00014                      -0.00026                       0.00000
                       0.00014                      -0.00031                       0.00000
                       0.00014                      -0.00034                       0.00000
                       0.00014                      -0.00037                       0.00000
                       0.00014                      -0.00039                       0.00000
                       0.00014                      -0.00039                       0.00000
                       0.00000                      -0.00000                       0.00000
        </DataArray>
        <DataArray type="Float32" Name="OrientationX" NumberOfComponents="3" format="ascii">
                       1.00000                       0.00000                      -0.00000
                       1.00000                       0.00000                      -0.00001
                       1.00000                       0.00000                      -0.00001
                       1.00000                       0.00000                      -0.00001
                       1.00000                       0.00000                      -0.00001
                       1.00000                       0.00000                      -0.00000
                       1.00000                      -0.00000                       0.00000
                       1.00000                      -0.00000                       0.00001
                       1.00000                      -0.00000                       0.00002
                       1.00000                      -0.00000                       0.00003
                       1.00000                      -0.00000                       0.00005
                       1.00000                      -0.00000                       0.00007
                       1.00000                      -0.00000                       0.00009
                       1.00000                      -0.00000                       0.00011
                       1.00000                      -0.00000                       0.00014
                       1.00000                      -0.00000                       0.00016
                       1.00000                      -0.00000                       0.00018
                       1.00000                      -0.00000                       0.00020
                       1.00000                      -0.00000                       0.00021
                       1.00000                      -0.00000                       0.00022
                       1.00000                      -0.00000                       0.00022
                       1.00000                      -0.00000                       0.00000
        </DataArray>
        <DataArray type="Float32" Name="OrientationY" NumberOfComponents="3" format="ascii">
                       0.00000                       1.00000                       0.00001
                       0.00000                       1.00000                       0.00001
                       0.00000                       1.00000                       0.00002
                       0.00000                       1.00000                       0.00003
                       0.00000                       1.00000                       0.00004
                       0.00000                       1.00000                       0.00004
                      -0.00000                       1.00000                       0.00005
                      -0.00000                       1.00000                       0.00005
                      -0.00000                       1.00000                       0.00006
                      -0.00000                       1.00000                       0.00006
                      -0.00000                       1.00000                       0.00007
                      -0.00000                       1.00000                       0.00007
                      -0.00000                       1.00000                       0.00008
                      -0.00000                       1.00000                       0.00008
                      -0.00000                       1.00000                       0.00009
                      -0.00000                       1.00000                       0.00009
                      -0.00000                       1.00000                       0.00009
                      -0.00000                       1.00000                       0.00009
                      -0.00000                       1.00000                       0.00009
                      -0.00000                       1.00000                       0.00009
                      -0.00000                       1.00000                       0.00009
                      -0.00000                       1.00000                      -0.00000
        </DataArray>
        <DataArray type="Float32" Name="OrientationZ" NumberOfComponents="3" format="ascii">
                       0.00000                      -0.00001                       1.00000
                       0.00001                      -0.00001                       1.00000
                       0.00001                      -0.00002                       1.00000
                       0.00001                      -0.00003                       1.00000
                       0.00001                      -0.00004                       1.00000
                       0.00000                      -0.00004                       1.00000
                      -0.00000                      -0.00005                       1.00000
                      -0.00001                      -0.00005                       1.00000
                      -0.00002                      -0.00006                       1.00000
                      -0.00003                      -0.00006                       1.00000
                      -0.00005                      -0.00007                       1.00000
                      -0.00007                      -0.00007                       1.00000
                      -0.00009                      -0.00008                       1.00000
                      -0.00011                      -0.00008                       1.00000
                      -0.00014                      -0.00009                       1.00000
                      -0.00016                      -0.00009                       1.00000
                      -0.00018                      -0.00009                       1.00000
                      -0.00020                      -0.00009                       1.00000
                      -0.00021                      -0.00009                       1.00000
                      -0.00022                      -0.00009                       1.00000
                      -0.00022                      -0.00009                       1.00000
                       0.00000                      -0.00000                       1.00000
        </DataArray>
      </PointData>
      <Lines>
        <DataArray type="Int32" Name="connectivity" format="ascii">
      0      1
      1      2
      2      3
      3      4
      4      5
      5      6
      6      7
      7      8
      8      9
      9     10
     10     11
     11     12
     12     13
     13     14
     14     15
     15     16
     16     17
     17     18
     18     19
     19     20
     21      0
        </DataArray>
        <DataArray type="Int32" Name="offsets" format="ascii">
      2
      4
      6
      8
     10
     12
     14
     16
     18
     20
     22
     24
     26
     28
     30
     32
     34
     36
     38
     40
     42
        </DataArray>
      </Lines>
    </Piece>
  </PolyData>
</VTKFile>
