<?xml version="1.0"?>
<VTKFile type="PolyData" version="0.1" byte_order="LittleEndian">
  <PolyData>
    <Piece NumberOfPoints="     19" NumberOfVerts="  0" NumberOfLines="     18"
           NumberOfStrips="  0" NumberOfPolys="      0">
      <Points>
        <DataArray type="Float32" NumberOfComponents="3" format="ascii">
                      -5.13355                      -1.29770                      89.25469
                      -5.25376                      -2.47611                      88.57292
                      -5.52347                      -4.78386                      87.12951
                      -5.80689                      -7.06779                      85.64739
                      -6.16898                      -9.90758                      83.77028
                      -6.53923                     -13.38727                      81.63181
                      -6.87456                     -16.93135                      79.59863
                      -7.21045                     -20.47461                      77.56398
                      -7.54425                     -24.01823                      75.52942
                      -7.87683                     -27.56144                      73.49374
                      -8.20977                     -31.10258                      71.45443
                      -8.54229                     -34.64272                      69.41318
                      -8.87515                     -38.18209                      67.37055
                      -9.20925                     -41.72087                      65.32703
                      -9.54315                     -45.25919                      63.28264
                      -9.82139                     -48.20752                      61.57841
                     -10.04372                     -50.56995                      60.22150
                     -10.26317                     -52.96022                      58.91145
                     -10.37671                     -54.13389                      58.22064
        </DataArray>
      </Points>
      <PointData>
        <DataArray type="Float32" Name="TranslationalVelocity" NumberOfComponents="3" format="ascii">
                       0.01112                       0.01251                       0.00004
                       0.01046                       0.01410                      -0.00259
                       0.00890                       0.01741                      -0.00759
                       0.00701                       0.02074                      -0.01236
                       0.00408                       0.02483                      -0.01799
                      -0.00031                       0.02932                      -0.02453
                      -0.00585                       0.03347                      -0.03083
                      -0.01283                       0.03761                      -0.03684
                      -0.02153                       0.04184                      -0.04269
                      -0.03229                       0.04628                      -0.04852
                      -0.04555                       0.05105                      -0.05446
                      -0.06187                       0.05623                      -0.06061
                      -0.08193                       0.06192                      -0.06700
                      -0.10657                       0.06814                      -0.07359
                      -0.13681                       0.07491                      -0.08022
                      -0.16729                       0.08094                      -0.08559
                      -0.19554                       0.08595                      -0.08963
                      -0.22765                       0.09097                      -0.09337
                      -0.24545                       0.09362                      -0.09495
        </DataArray>
        <DataArray type="Float32" Name="RotationalVelocity" NumberOfComponents="3" format="ascii">
                       0.00231                       0.00059                      -0.00022
                       0.00229                       0.00060                      -0.00023
                       0.00224                       0.00065                      -0.00030
                       0.00217                       0.00073                      -0.00040
                       0.00208                       0.00085                      -0.00055
                       0.00198                       0.00103                      -0.00076
                       0.00191                       0.00125                      -0.00101
                       0.00187                       0.00151                      -0.00128
                       0.00186                       0.00183                      -0.00162
                       0.00190                       0.00221                      -0.00202
                       0.00196                       0.00267                      -0.00253
                       0.00204                       0.00322                      -0.00317
                       0.00213                       0.00388                      -0.00397
                       0.00220                       0.00464                      -0.00496
                       0.00224                       0.00552                      -0.00615
                       0.00223                       0.00632                      -0.00730
                       0.00219                       0.00701                      -0.00832
                       0.00210                       0.00773                      -0.00944
                       0.00204                       0.00810                      -0.01003
        </DataArray>
        <DataArray type="Float32" Name="TranslationalAcceleration" NumberOfComponents="3" format="ascii">
                      -0.05971                      -0.02384                      -0.06213
                      -0.01077                      -0.00543                      -0.02270
                      -0.02092                      -0.01129                      -0.05933
                      -0.02097                      -0.01156                      -0.08615
                      -0.01535                      -0.00628                      -0.11010
                      -0.01171                       0.00403                      -0.12852
                      -0.01718                       0.01495                      -0.14014
                      -0.03206                       0.02383                      -0.14662
                      -0.05315                       0.02812                      -0.14779
                      -0.07333                       0.02584                      -0.14240
                      -0.08215                       0.01557                      -0.12882
                      -0.06621                      -0.00353                      -0.10571
                      -0.00978                      -0.03179                      -0.07269
                       0.10468                      -0.06903                      -0.03099
                       0.29595                      -0.11438                       0.01581
                       0.52994                      -0.15755                       0.05408
                       0.77229                      -0.19452                       0.08042
                       1.07294                      -0.23235                       0.09906
                       1.24356                      -0.25233                       0.10380
        </DataArray>
        <DataArray type="Float32" Name="OrientationX" NumberOfComponents="3" format="ascii">
                       0.94935                       0.07904                      -0.30413
                       0.94935                       0.07909                      -0.30410
                       0.94937                       0.07925                      -0.30401
                       0.94939                       0.07948                      -0.30389
                       0.94942                       0.07985                      -0.30368
                       0.95861                       0.06437                      -0.27736
                       0.96464                       0.05332                      -0.25813
                       0.96949                       0.04372                      -0.24120
                       0.97419                       0.03350                      -0.22323
                       0.97856                       0.02291                      -0.20468
                       0.98226                       0.01288                      -0.18706
                       0.98552                       0.00287                      -0.16954
                       0.98811                      -0.00622                      -0.15361
                       0.98985                      -0.01309                      -0.14149
                       0.99137                      -0.01992                      -0.12957
                       0.99249                      -0.02570                      -0.11962
                       0.99323                      -0.03004                      -0.11225
                       0.99359                      -0.03238                      -0.10831
                       0.99359                      -0.03240                      -0.10833
        </DataArray>
        <DataArray type="Float32" Name="OrientationY" NumberOfComponents="3" format="ascii">
                       0.30190                      -0.49794                       0.81297
                       0.30188                      -0.49808                       0.81289
                       0.30185                      -0.49844                       0.81268
                       0.30181                      -0.49889                       0.81242
                       0.30175                      -0.49952                       0.81205
                       0.27125                      -0.50264                       0.82084
                       0.24907                      -0.50481                       0.82651
                       0.22960                      -0.50656                       0.83107
                       0.20894                      -0.50807                       0.83559
                       0.18760                      -0.50929                       0.83990
                       0.16735                      -0.51017                       0.84364
                       0.14720                      -0.51076                       0.84703
                       0.12889                      -0.51108                       0.84982
                       0.11498                      -0.51122                       0.85172
                       0.10127                      -0.51122                       0.85346
                       0.08980                      -0.51111                       0.85481
                       0.08126                      -0.51096                       0.85576
                       0.07669                      -0.51088                       0.85623
                       0.07669                      -0.51090                       0.85621
        </DataArray>
        <DataArray type="Float32" Name="OrientationZ" NumberOfComponents="3" format="ascii">
                      -0.08718                      -0.86360                      -0.49658
                      -0.08718                      -0.86352                      -0.49673
                      -0.08713                      -0.86330                      -0.49712
                      -0.08703                      -0.86301                      -0.49763
                      -0.08686                      -0.86261                      -0.49835
                      -0.08658                      -0.86209                      -0.49930
                      -0.08624                      -0.86158                      -0.50024
                      -0.08585                      -0.86110                      -0.50114
                      -0.08543                      -0.86067                      -0.50195
                      -0.08500                      -0.86029                      -0.50267
                      -0.08457                      -0.85998                      -0.50328
                      -0.08416                      -0.85972                      -0.50378
                      -0.08379                      -0.85951                      -0.50420
                      -0.08348                      -0.85935                      -0.50453
                      -0.08324                      -0.85922                      -0.50479
                      -0.08311                      -0.85913                      -0.50496
                      -0.08306                      -0.85908                      -0.50506
                      -0.08306                      -0.85904                      -0.50512
                      -0.08309                      -0.85903                      -0.50514
        </DataArray>
        <DataArray type="Float32" Name="Force" NumberOfComponents="3" format="ascii">
                       3.00537                     -20.07595                      34.38635
                       9.81161                     -21.94460                      36.44139
                      12.71314                     -23.12962                      37.99453
                       7.55712                     -16.46380                      27.30783
                      -5.47218                      -2.82091                       5.86082
                     -12.55271                      -1.47456                       4.74635
                      -9.86350                      -1.16041                       3.72389
                      -3.95211                      -0.49080                       1.53321
                       0.13885                      -0.29323                       0.48600
                      -0.28326                      -0.26984                       0.51722
                      -4.69986                      -0.10621                       0.97921
                      -6.56536                       0.03886                       1.03645
                      -3.68058                      -0.06427                       0.72756
                      -1.43725                      -0.13298                       0.47058
                       1.54061                      -0.25329                       0.18424
                       4.81083                      -0.39204                      -0.11641
                       8.12415                      -0.51381                      -0.45319
                       8.33181                      -0.43861                      -0.61823
                      11.87018                      -0.47314                      -1.14502
        </DataArray>
        <DataArray type="Float32" Name="Moment" NumberOfComponents="3" format="ascii">
                       0.00000                       0.00000                       0.00000
                       0.00000                       0.00000                       0.00000
                       0.00000                       0.00000                       0.00000
                       0.00000                       0.00000                       0.00000
                       2.10356                      20.95160                      12.04843
                       2.77669                      27.77170                      15.97141
                       2.56836                      25.81449                      14.84693
                       3.10225                      31.34985                      18.03200
                       3.43917                      34.95331                      20.10638
                       2.96412                      30.30009                      17.43119
                       2.54612                      26.17521                      15.05947
                       2.15441                      22.26717                      12.81206
                       1.32959                      13.80889                       7.94591
                       1.11822                      11.66153                       6.71067
                       0.94084                       9.84281                       5.66435
                       0.81212                       8.51123                       4.89818
                       0.67426                       7.07160                       4.06972
                       0.31781                       3.33325                       1.91829
                       0.32928                       3.45257                       1.98695
        </DataArray>
      </PointData>
      <Lines>
        <DataArray type="Int32" Name="connectivity" format="ascii">
      0      1
      1      2
      2      3
      3      4
      4      5
      5      6
      6      7
      7      8
      8      9
      9     10
     10     11
     11     12
     12     13
     13     14
     14     15
     15     16
     16     17
     17     18
        </DataArray>
        <DataArray type="Int32" Name="offsets" format="ascii">
      2
      4
      6
      8
     10
     12
     14
     16
     18
     20
     22
     24
     26
     28
     30
     32
     34
     36
        </DataArray>
      </Lines>
    </Piece>
  </PolyData>
</VTKFile>
