<?xml version="1.0"?>
<VTKFile type="PolyData" version="0.1" byte_order="LittleEndian">
  <PolyData>
    <Piece NumberOfPoints="     22" NumberOfVerts="  0" NumberOfLines="     21"
           NumberOfStrips="  0" NumberOfPolys="      0">
      <Points>
        <DataArray type="Float32" NumberOfComponents="3" format="ascii">
                       0.00000                      -0.00000                       2.19000
                       0.00002                      -0.00002                       6.57000
                       0.00006                      -0.00005                      10.95000
                       0.00012                      -0.00010                      15.33000
                       0.00018                      -0.00016                      19.71000
                       0.00026                      -0.00022                      24.09000
                       0.00032                      -0.00030                      28.47000
                       0.00038                      -0.00038                      32.85000
                       0.00041                      -0.00046                      37.23000
                       0.00041                      -0.00055                      41.61000
                       0.00038                      -0.00065                      45.99000
                       0.00029                      -0.00074                      50.37000
                       0.00015                      -0.00083                      54.75000
                      -0.00006                      -0.00091                      59.13000
                      -0.00034                      -0.00099                      63.51000
                      -0.00069                      -0.00106                      67.89000
                      -0.00111                      -0.00113                      72.27000
                      -0.00159                      -0.00118                      76.65000
                      -0.00212                      -0.00123                      81.03000
                      -0.00269                      -0.00127                      85.41000
                      -0.00298                      -0.00129                      87.60000
                       0.00000                       0.00000                       0.00000
        </DataArray>
      </Points>
      <PointData>
        <DataArray type="Float32" Name="TranslationalVelocity" NumberOfComponents="3" format="ascii">
                      -0.00000                       0.00000                       0.00000
                      -0.00003                       0.00002                       0.00000
                      -0.00007                       0.00006                       0.00000
                      -0.00014                       0.00011                       0.00000
                      -0.00022                       0.00018                       0.00000
                      -0.00031                       0.00026                       0.00000
                      -0.00040                       0.00037                       0.00000
                      -0.00049                       0.00049                       0.00000
                      -0.00056                       0.00063                       0.00000
                      -0.00061                       0.00080                       0.00000
                      -0.00062                       0.00100                       0.00000
                      -0.00060                       0.00122                       0.00000
                      -0.00052                       0.00148                       0.00000
                      -0.00039                       0.00177                       0.00000
                      -0.00019                       0.00209                       0.00000
                       0.00006                       0.00244                       0.00000
                       0.00038                       0.00282                       0.00000
                       0.00074                       0.00323                       0.00000
                       0.00116                       0.00366                       0.00000
                       0.00161                       0.00411                       0.00000
                       0.00184                       0.00434                       0.00000
                       0.00000                      -0.00000                       0.00000
        </DataArray>
        <DataArray type="Float32" Name="RotationalVelocity" NumberOfComponents="3" format="ascii">
                      -0.00000                      -0.00000                       0.00000
                      -0.00001                      -0.00001                       0.00000
                      -0.00001                      -0.00001                       0.00000
                      -0.00001                      -0.00002                       0.00000
                      -0.00002                      -0.00002                       0.00000
                      -0.00002                      -0.00002                       0.00000
                      -0.00003                      -0.00002                       0.00000
                      -0.00003                      -0.00002                       0.00000
                      -0.00004                      -0.00001                       0.00000
                      -0.00004                      -0.00001                       0.00000
                      -0.00005                       0.00000                       0.00000
                      -0.00005                       0.00001                       0.00000
                      -0.00006                       0.00002                       0.00000
                      -0.00007                       0.00004                       0.00000
                      -0.00008                       0.00005                       0.00000
                      -0.00008                       0.00006                       0.00000
                      -0.00009                       0.00008                       0.00000
                      -0.00010                       0.00009                       0.00000
                      -0.00010                       0.00010                       0.00000
                      -0.00010                       0.00011                       0.00000
                      -0.00011                       0.00011                       0.00000
                       0.00000                      -0.00000                       0.00000
        </DataArray>
        <DataArray type="Float32" Name="TranslationalAcceleration" NumberOfComponents="3" format="ascii">
                      -0.00005                      -0.00002                       0.00000
                      -0.00048                      -0.00020                       0.00000
                      -0.00136                      -0.00052                       0.00000
                      -0.00269                      -0.00098                       0.00000
                      -0.00444                      -0.00156                       0.00000
                      -0.00652                      -0.00225                       0.00000
                      -0.00888                      -0.00307                       0.00000
                      -0.01140                      -0.00401                       0.00000
                      -0.01401                      -0.00507                       0.00000
                      -0.01661                      -0.00626                       0.00000
                      -0.01913                      -0.00757                      -0.00000
                      -0.02149                      -0.00902                      -0.00000
                      -0.02363                      -0.01059                      -0.00000
                      -0.02550                      -0.01228                      -0.00000
                      -0.02707                      -0.01409                      -0.00000
                      -0.02831                      -0.01600                      -0.00000
                      -0.02920                      -0.01801                      -0.00000
                      -0.02974                      -0.02009                      -0.00000
                      -0.02990                      -0.02224                      -0.00000
                      -0.02968                      -0.02444                      -0.00000
                      -0.02942                      -0.02556                      -0.00000
                       0.00000                      -0.00000                       0.00000
        </DataArray>
        <DataArray type="Float32" Name="RotationalAcceleration" NumberOfComponents="3" format="ascii">
                       0.00002                      -0.00005                       0.00000
                       0.00006                      -0.00015                       0.00000
                       0.00009                      -0.00025                       0.00000
                       0.00012                      -0.00035                       0.00000
                       0.00015                      -0.00044                       0.00000
                       0.00017                      -0.00051                       0.00000
                       0.00020                      -0.00056                       0.00000
                       0.00023                      -0.00059                       0.00000
                       0.00026                      -0.00060                       0.00000
                       0.00029                      -0.00059                       0.00000
                       0.00032                      -0.00056                       0.00000
                       0.00034                      -0.00052                       0.00000
                       0.00037                      -0.00046                       0.00000
                       0.00040                      -0.00039                       0.00000
                       0.00043                      -0.00032                       0.00000
                       0.00045                      -0.00024                       0.00000
                       0.00047                      -0.00016                       0.00000
                       0.00048                      -0.00008                       0.00000
                       0.00050                       0.00001                       0.00000
                       0.00051                       0.00010                       0.00000
                       0.00051                       0.00014                       0.00000
                       0.00000                      -0.00000                       0.00000
        </DataArray>
        <DataArray type="Float32" Name="OrientationX" NumberOfComponents="3" format="ascii">
                       1.00000                       0.00000                      -0.00000
                       1.00000                       0.00000                      -0.00001
                       1.00000                       0.00000                      -0.00001
                       1.00000                       0.00000                      -0.00001
                       1.00000                       0.00000                      -0.00002
                       1.00000                       0.00000                      -0.00002
                       1.00000                       0.00000                      -0.00001
                       1.00000                       0.00000                      -0.00001
                       1.00000                       0.00000                      -0.00000
                       1.00000                      -0.00000                       0.00000
                       1.00000                      -0.00000                       0.00001
                       1.00000                      -0.00000                       0.00003
                       1.00000                      -0.00000                       0.00004
                       1.00000                      -0.00000                       0.00006
                       1.00000                      -0.00000                       0.00007
                       1.00000                      -0.00000                       0.00009
                       1.00000                      -0.00000                       0.00010
                       1.00000                      -0.00000                       0.00012
                       1.00000                      -0.00000                       0.00013
                       1.00000                      -0.00000                       0.00013
                       1.00000                      -0.00000                       0.00013
                       1.00000                      -0.00000                       0.00000
        </DataArray>
        <DataArray type="Float32" Name="OrientationY" NumberOfComponents="3" format="ascii">
                       0.00000                       1.00000                       0.00000
                       0.00000                       1.00000                       0.00001
                       0.00000                       1.00000                       0.00001
                       0.00000                       1.00000                       0.00001
                       0.00000                       1.00000                       0.00001
                       0.00000                       1.00000                       0.00002
                       0.00000                       1.00000                       0.00002
                       0.00000                       1.00000                       0.00002
                       0.00000                       1.00000                       0.00002
                      -0.00000                       1.00000                       0.00002
                      -0.00000                       1.00000                       0.00002
                      -0.00000                       1.00000                       0.00002
                      -0.00000                       1.00000                       0.00002
                      -0.00000                       1.00000                       0.00002
                      -0.00000                       1.00000                       0.00002
                      -0.00000                       1.00000                       0.00002
                      -0.00000                       1.00000                       0.00001
                      -0.00000                       1.00000                       0.00001
                      -0.00000                       1.00000                       0.00001
                      -0.00000                       1.00000                       0.00001
                      -0.00000                       1.00000                       0.00001
                      -0.00000                       1.00000                      -0.00000
        </DataArray>
        <DataArray type="Float32" Name="OrientationZ" NumberOfComponents="3" format="ascii">
                       0.00000                      -0.00000                       1.00000
                       0.00001                      -0.00001                       1.00000
                       0.00001                      -0.00001                       1.00000
                       0.00001                      -0.00001                       1.00000
                       0.00002                      -0.00001                       1.00000
                       0.00002                      -0.00002                       1.00000
                       0.00001                      -0.00002                       1.00000
                       0.00001                      -0.00002                       1.00000
                       0.00000                      -0.00002                       1.00000
                      -0.00000                      -0.00002                       1.00000
                      -0.00001                      -0.00002                       1.00000
                      -0.00003                      -0.00002                       1.00000
                      -0.00004                      -0.00002                       1.00000
                      -0.00006                      -0.00002                       1.00000
                      -0.00007                      -0.00002                       1.00000
                      -0.00009                      -0.00002                       1.00000
                      -0.00010                      -0.00001                       1.00000
                      -0.00012                      -0.00001                       1.00000
                      -0.00013                      -0.00001                       1.00000
                      -0.00013                      -0.00001                       1.00000
                      -0.00013                      -0.00001                       1.00000
                       0.00000                      -0.00000                       1.00000
        </DataArray>
      </PointData>
      <Lines>
        <DataArray type="Int32" Name="connectivity" format="ascii">
      0      1
      1      2
      2      3
      3      4
      4      5
      5      6
      6      7
      7      8
      8      9
      9     10
     10     11
     11     12
     12     13
     13     14
     14     15
     15     16
     16     17
     17     18
     18     19
     19     20
     21      0
        </DataArray>
        <DataArray type="Int32" Name="offsets" format="ascii">
      2
      4
      6
      8
     10
     12
     14
     16
     18
     20
     22
     24
     26
     28
     30
     32
     34
     36
     38
     40
     42
        </DataArray>
      </Lines>
    </Piece>
  </PolyData>
</VTKFile>
