<?xml version="1.0"?>
<VTKFile type="PolyData" version="0.1" byte_order="LittleEndian">
  <PolyData>
    <Piece NumberOfPoints="     19" NumberOfVerts="  0" NumberOfLines="     18"
           NumberOfStrips="  0" NumberOfPolys="      0">
      <Points>
        <DataArray type="Float32" NumberOfComponents="3" format="ascii">
                      -4.99910                      -1.21147                      90.90000
                      -4.98836                      -2.30585                      91.71858
                      -4.99581                      -4.55108                      93.28079
                      -5.01687                      -6.82356                      94.80671
                      -5.05115                      -9.68122                      96.69114
                      -5.02908                     -13.02847                      99.06032
                      -4.97333                     -16.30116                     101.52858
                      -4.91900                     -19.57465                     103.99590
                      -4.86362                     -22.84777                     106.46383
                      -4.80827                     -26.12137                     108.93127
                      -4.75473                     -29.39727                     111.39577
                      -4.70240                     -32.67427                     113.85894
                      -4.65217                     -35.95201                     116.32122
                      -4.60504                     -39.23024                     118.78298
                      -4.55959                     -42.50890                     121.24426
                      -4.52313                     -45.24143                     123.29505
                      -4.49456                     -47.42291                     124.94177
                      -4.46409                     -49.57196                     126.63240
                      -4.45270                     -50.67129                     127.44416
        </DataArray>
      </Points>
      <PointData>
        <DataArray type="Float32" Name="TranslationalVelocity" NumberOfComponents="3" format="ascii">
                      -0.00141                      -0.02240                      -0.03254
                      -0.00395                      -0.04533                      -0.06316
                      -0.00905                      -0.08905                      -0.12601
                      -0.01411                      -0.13174                      -0.18966
                      -0.02039                      -0.18450                      -0.26980
                      -0.02751                      -0.25109                      -0.36383
                      -0.03388                      -0.32071                      -0.45602
                      -0.03917                      -0.39054                      -0.54857
                      -0.04264                      -0.46070                      -0.64156
                      -0.04345                      -0.53123                      -0.73513
                      -0.04068                      -0.60211                      -0.82943
                      -0.03337                      -0.67346                      -0.92453
                      -0.02057                      -0.74532                      -1.02047
                      -0.00142                      -0.81771                      -1.11726
                       0.02484                      -0.89064                      -1.21490
                       0.05272                      -0.95178                      -1.29688
                       0.07892                      -1.00108                      -1.36265
                       0.10874                      -1.05183                      -1.42770
                       0.12495                      -1.07627                      -1.46102
        </DataArray>
        <DataArray type="Float32" Name="RotationalVelocity" NumberOfComponents="3" format="ascii">
                       0.02798                       0.00020                      -0.00244
                       0.02798                       0.00021                      -0.00244
                       0.02800                       0.00022                      -0.00242
                       0.02802                       0.00023                      -0.00239
                       0.02806                       0.00027                      -0.00235
                       0.02812                       0.00036                      -0.00228
                       0.02821                       0.00052                      -0.00215
                       0.02832                       0.00079                      -0.00193
                       0.02846                       0.00118                      -0.00159
                       0.02863                       0.00171                      -0.00109
                       0.02883                       0.00238                      -0.00038
                       0.02906                       0.00317                       0.00054
                       0.02930                       0.00407                       0.00169
                       0.02954                       0.00500                       0.00305
                       0.02977                       0.00592                       0.00458
                       0.02994                       0.00660                       0.00593
                       0.03004                       0.00704                       0.00702
                       0.03011                       0.00733                       0.00808
                       0.03013                       0.00741                       0.00858
        </DataArray>
        <DataArray type="Float32" Name="TranslationalAcceleration" NumberOfComponents="3" format="ascii">
                      -0.01125                       0.02566                       0.00066
                      -0.00427                       0.00933                       0.00067
                      -0.01041                       0.02361                       0.00183
                      -0.01449                       0.03302                       0.00267
                      -0.01795                       0.04009                       0.00316
                      -0.02012                       0.04401                       0.00247
                      -0.01855                       0.04491                      -0.00008
                      -0.00830                       0.04367                      -0.00542
                       0.01755                       0.04032                      -0.01476
                       0.06774                       0.03430                      -0.02942
                       0.15236                       0.02465                      -0.05071
                       0.28224                       0.01031                      -0.07977
                       0.46848                      -0.00967                      -0.11740
                       0.72181                      -0.03589                      -0.16390
                       1.05198                      -0.06824                      -0.21913
                       1.39317                      -0.09932                      -0.27136
                       1.70996                      -0.12605                      -0.31626
                       2.06631                      -0.15403                      -0.36288
                       2.25978                      -0.16763                      -0.38694
        </DataArray>
        <DataArray type="Float32" Name="OrientationX" NumberOfComponents="3" format="ascii">
                       0.95477                      -0.17207                      -0.24249
                       0.95477                      -0.17204                      -0.24252
                       0.95477                      -0.17193                      -0.24260
                       0.95477                      -0.17177                      -0.24273
                       0.95476                      -0.17153                      -0.24293
                       0.96375                      -0.15281                      -0.21874
                       0.96961                      -0.13915                      -0.20123
                       0.97431                      -0.12717                      -0.18586
                       0.97886                      -0.11453                      -0.16948
                       0.98307                      -0.10156                      -0.15249
                       0.98663                      -0.08932                      -0.13630
                       0.98975                      -0.07721                      -0.12013
                       0.99222                      -0.06629                      -0.10536
                       0.99387                      -0.05806                      -0.09407
                       0.99530                      -0.05002                      -0.08290
                       0.99635                      -0.04332                      -0.07351
                       0.99705                      -0.03835                      -0.06652
                       0.99739                      -0.03576                      -0.06273
                       0.99739                      -0.03584                      -0.06268
        </DataArray>
        <DataArray type="Float32" Name="OrientationY" NumberOfComponents="3" format="ascii">
                       0.29721                       0.57596                       0.76154
                       0.29721                       0.57584                       0.76163
                       0.29722                       0.57552                       0.76186
                       0.29723                       0.57512                       0.76216
                       0.29725                       0.57456                       0.76258
                       0.26668                       0.57901                       0.77048
                       0.24448                       0.58164                       0.77584
                       0.22501                       0.58363                       0.78022
                       0.20434                       0.58559                       0.78443
                       0.18297                       0.58741                       0.78833
                       0.16268                       0.58893                       0.79164
                       0.14248                       0.59027                       0.79453
                       0.12412                       0.59130                       0.79684
                       0.11016                       0.59194                       0.79842
                       0.09639                       0.59249                       0.79979
                       0.08486                       0.59291                       0.80078
                       0.07629                       0.59318                       0.80144
                       0.07170                       0.59330                       0.80178
                       0.07171                       0.59328                       0.80180
        </DataArray>
        <DataArray type="Float32" Name="OrientationZ" NumberOfComponents="3" format="ascii">
                       0.00863                      -0.79917                       0.60105
                       0.00862                      -0.79926                       0.60092
                       0.00864                      -0.79951                       0.60059
                       0.00868                      -0.79983                       0.60016
                       0.00877                      -0.80029                       0.59955
                       0.00892                      -0.80088                       0.59876
                       0.00908                      -0.80146                       0.59799
                       0.00925                      -0.80200                       0.59726
                       0.00940                      -0.80248                       0.59661
                       0.00951                      -0.80289                       0.59605
                       0.00957                      -0.80323                       0.59559
                       0.00956                      -0.80351                       0.59522
                       0.00948                      -0.80372                       0.59493
                       0.00933                      -0.80389                       0.59470
                       0.00911                      -0.80402                       0.59453
                       0.00890                      -0.80410                       0.59442
                       0.00872                      -0.80415                       0.59436
                       0.00854                      -0.80419                       0.59431
                       0.00845                      -0.80420                       0.59430
        </DataArray>
        <DataArray type="Float32" Name="Force" NumberOfComponents="3" format="ascii">
                      -3.87975                     -33.52104                     -44.51453
                      -0.61519                     -33.45460                     -44.47308
                      -0.62793                     -35.87391                     -47.68992
                      -0.44673                     -26.74760                     -35.55830
                      78.97524                     -20.35059                     -28.22932
                      74.01564                     -16.75988                     -23.40823
                      65.06954                     -13.71359                     -19.24773
                      68.50236                     -10.82207                     -15.48275
                      79.30699                      -7.95797                     -11.87339
                      73.06744                      -5.80985                      -8.93452
                      63.03298                      -4.31574                      -6.79175
                      48.99360                      -3.18395                      -5.05407
                      35.31261                      -2.26065                      -3.59398
                      -0.23592                      -0.77861                      -1.03157
                      -0.29895                      -0.68670                      -0.90837
                      -0.23098                      -0.61719                      -0.81709
                       0.09099                      -0.55799                      -0.74340
                       0.71101                      -0.40666                      -0.55152
                       0.24212                      -0.37785                      -0.50607
        </DataArray>
        <DataArray type="Float32" Name="Moment" NumberOfComponents="3" format="ascii">
                       0.00000                       0.00000                       0.00000
                       0.00000                       0.00000                       0.00000
                       0.00000                       0.00000                       0.00000
                       0.00000                       0.00000                       0.00000
                      -1.48626                     133.42912                    -100.34739
                      -1.40918                     123.56659                     -92.92727
                      -1.21374                     103.77832                     -78.04302
                      -1.37970                     115.14403                     -86.58734
                      -1.54908                     126.59353                     -95.19446
                      -1.37311                     110.43556                     -83.04227
                      -1.11556                      88.86703                     -66.82284
                      -0.80769                      64.19768                     -48.27277
                      -0.53529                      42.78224                     -32.16991
                       0.00126                      -0.10192                       0.07664
                       0.00229                      -0.18918                       0.14226
                       0.00157                      -0.13257                       0.09969
                      -0.00157                       0.13471                      -0.10130
                      -0.00490                       0.42997                      -0.32335
                      -0.00184                       0.16262                      -0.12230
        </DataArray>
      </PointData>
      <Lines>
        <DataArray type="Int32" Name="connectivity" format="ascii">
      0      1
      1      2
      2      3
      3      4
      4      5
      5      6
      6      7
      7      8
      8      9
      9     10
     10     11
     11     12
     12     13
     13     14
     14     15
     15     16
     16     17
     17     18
        </DataArray>
        <DataArray type="Int32" Name="offsets" format="ascii">
      2
      4
      6
      8
     10
     12
     14
     16
     18
     20
     22
     24
     26
     28
     30
     32
     34
     36
        </DataArray>
      </Lines>
    </Piece>
  </PolyData>
</VTKFile>
