<?xml version="1.0"?>
<VTKFile type="PolyData" version="0.1" byte_order="LittleEndian">
  <PolyData>
    <Piece NumberOfPoints="     19" NumberOfVerts="  0" NumberOfLines="     18"
           NumberOfStrips="  0" NumberOfPolys="      0">
      <Points>
        <DataArray type="Float32" NumberOfComponents="3" format="ascii">
                      -4.98613                      -1.08524                      91.03833
                      -4.96439                      -2.07249                      91.98317
                      -4.94917                      -4.11233                      93.80537
                      -4.94727                      -6.18366                      95.59495
                      -4.95265                      -8.79249                      97.81138
                      -4.89685                     -11.82779                     100.56850
                      -4.80826                     -14.77646                     103.41520
                      -4.72113                     -17.72578                     106.26135
                      -4.63302                     -20.67438                     109.10833
                      -4.54504                     -23.62329                     111.95511
                      -4.45894                     -26.57465                     114.79946
                      -4.37415                     -29.52711                     117.64278
                      -4.29161                     -32.48031                     120.48545
                      -4.21233                     -35.43399                     123.32776
                      -4.13489                     -38.38809                     126.16974
                      -4.07193                     -40.85015                     128.53786
                      -4.02232                     -42.81453                     130.43789
                      -3.97125                     -44.74132                     132.37760
                      -3.94932                     -45.73343                     133.31719
        </DataArray>
      </Points>
      <PointData>
        <DataArray type="Float32" Name="TranslationalVelocity" NumberOfComponents="3" format="ascii">
                      -0.00748                      -0.03657                      -0.03002
                      -0.00990                      -0.06325                      -0.05784
                      -0.01486                      -0.11467                      -0.11536
                      -0.02008                      -0.16517                      -0.17382
                      -0.02716                      -0.22776                      -0.24754
                      -0.03617                      -0.30589                      -0.33344
                      -0.04539                      -0.38686                      -0.41709
                      -0.05423                      -0.46812                      -0.50107
                      -0.06147                      -0.54981                      -0.58549
                      -0.06569                      -0.63200                      -0.67053
                      -0.06529                      -0.71473                      -0.75640
                      -0.05863                      -0.79812                      -0.84320
                      -0.04409                      -0.88224                      -0.93103
                      -0.02023                      -0.96712                      -1.01992
                       0.01416                      -1.05274                      -1.10987
                       0.05167                      -1.12461                      -1.18559
                       0.08742                      -1.18254                      -1.24643
                       0.12857                      -1.24186                      -1.30643
                       0.15087                      -1.27066                      -1.33736
        </DataArray>
        <DataArray type="Float32" Name="RotationalVelocity" NumberOfComponents="3" format="ascii">
                       0.02817                       0.00009                      -0.00245
                       0.02818                       0.00008                      -0.00246
                       0.02820                       0.00005                      -0.00251
                       0.02823                       0.00000                      -0.00259
                       0.02826                      -0.00006                      -0.00271
                       0.02832                      -0.00011                      -0.00283
                       0.02841                      -0.00007                      -0.00288
                       0.02853                       0.00013                      -0.00279
                       0.02869                       0.00056                      -0.00250
                       0.02889                       0.00127                      -0.00198
                       0.02914                       0.00230                      -0.00120
                       0.02942                       0.00368                      -0.00014
                       0.02972                       0.00537                       0.00117
                       0.03004                       0.00733                       0.00268
                       0.03033                       0.00944                       0.00431
                       0.03054                       0.01120                       0.00567
                       0.03066                       0.01251                       0.00669
                       0.03073                       0.01364                       0.00759
                       0.03074                       0.01411                       0.00796
        </DataArray>
        <DataArray type="Float32" Name="TranslationalAcceleration" NumberOfComponents="3" format="ascii">
                      -0.01231                      -0.00851                      -0.00003
                      -0.00439                      -0.00100                       0.00004
                      -0.01085                      -0.00162                       0.00012
                      -0.01406                      -0.00094                      -0.00001
                      -0.01391                       0.00091                      -0.00067
                      -0.00919                       0.00384                      -0.00246
                       0.00085                       0.00617                      -0.00589
                       0.01951                       0.00646                      -0.01186
                       0.05166                       0.00357                      -0.02140
                       0.10438                      -0.00349                      -0.03564
                       0.18713                      -0.01549                      -0.05573
                       0.31205                      -0.03306                      -0.08284
                       0.49424                      -0.05682                      -0.11816
                       0.75216                      -0.08746                      -0.16292
                       1.10811                      -0.12552                      -0.21840
                       1.50136                      -0.16354                      -0.27397
                       1.88762                      -0.19829                      -0.32466
                       2.33957                      -0.23765                      -0.38046
                       2.60544                      -0.25899                      -0.41159
        </DataArray>
        <DataArray type="Float32" Name="OrientationX" NumberOfComponents="3" format="ascii">
                       0.95668                      -0.19006                      -0.22054
                       0.95668                      -0.19003                      -0.22057
                       0.95668                      -0.18994                      -0.22066
                       0.95667                      -0.18981                      -0.22079
                       0.95666                      -0.18962                      -0.22101
                       0.96543                      -0.16804                      -0.19925
                       0.97114                      -0.15233                      -0.18351
                       0.97571                      -0.13857                      -0.16970
                       0.98010                      -0.12403                      -0.15497
                       0.98417                      -0.10909                      -0.13968
                       0.98759                      -0.09499                      -0.12510
                       0.99057                      -0.08103                      -0.11051
                       0.99291                      -0.06842                      -0.09718
                       0.99447                      -0.05892                      -0.08697
                       0.99581                      -0.04962                      -0.07685
                       0.99678                      -0.04185                      -0.06834
                       0.99742                      -0.03610                      -0.06198
                       0.99774                      -0.03308                      -0.05850
                       0.99774                      -0.03316                      -0.05843
        </DataArray>
        <DataArray type="Float32" Name="OrientationY" NumberOfComponents="3" format="ascii">
                       0.29066                       0.66686                       0.68616
                       0.29066                       0.66676                       0.68625
                       0.29067                       0.66651                       0.68650
                       0.29069                       0.66618                       0.68681
                       0.29071                       0.66572                       0.68724
                       0.26010                       0.67084                       0.69449
                       0.23788                       0.67394                       0.69944
                       0.21840                       0.67630                       0.70350
                       0.19773                       0.67859                       0.70741
                       0.17637                       0.68069                       0.71102
                       0.15609                       0.68243                       0.71409
                       0.13591                       0.68393                       0.71677
                       0.11757                       0.68507                       0.71892
                       0.10364                       0.68577                       0.72040
                       0.08989                       0.68637                       0.72168
                       0.07838                       0.68680                       0.72261
                       0.06980                       0.68707                       0.72323
                       0.06521                       0.68718                       0.72355
                       0.06521                       0.68717                       0.72357
        </DataArray>
        <DataArray type="Float32" Name="OrientationZ" NumberOfComponents="3" format="ascii">
                       0.01666                      -0.72054                       0.69322
                       0.01666                      -0.72064                       0.69311
                       0.01668                      -0.72090                       0.69284
                       0.01673                      -0.72123                       0.69249
                       0.01682                      -0.72170                       0.69200
                       0.01696                      -0.72231                       0.69136
                       0.01712                      -0.72291                       0.69073
                       0.01728                      -0.72347                       0.69014
                       0.01742                      -0.72397                       0.68961
                       0.01751                      -0.72440                       0.68916
                       0.01754                      -0.72475                       0.68879
                       0.01750                      -0.72503                       0.68849
                       0.01739                      -0.72525                       0.68826
                       0.01720                      -0.72543                       0.68808
                       0.01694                      -0.72556                       0.68795
                       0.01669                      -0.72564                       0.68787
                       0.01648                      -0.72569                       0.68782
                       0.01626                      -0.72573                       0.68779
                       0.01616                      -0.72574                       0.68778
        </DataArray>
        <DataArray type="Float32" Name="Force" NumberOfComponents="3" format="ascii">
                      -4.66309                     -51.56635                     -53.48674
                      -1.20914                     -51.46388                     -53.46328
                      -1.27006                     -55.39830                     -57.55155
                      -0.92735                     -41.46573                     -43.07832
                     103.12186                     -29.88527                     -33.58169
                      97.00205                     -24.47698                     -27.83920
                      85.67957                     -19.96355                     -22.89527
                      92.70648                     -15.66122                     -18.62719
                     110.15234                     -11.33712                     -14.60262
                      96.06284                      -8.46683                     -11.27660
                      82.40396                      -6.23320                      -8.61035
                      63.87313                      -4.51997                      -6.34897
                      45.69204                      -3.11770                      -4.41514
                      34.08471                      -2.17031                      -3.12329
                      -1.53618                      -1.11295                      -1.11839
                      -1.72798                      -1.00507                      -1.00201
                      -1.44528                      -0.90222                      -0.90250
                      -0.23373                      -0.61484                      -0.63344
                       0.41117                      -0.63776                      -0.67275
        </DataArray>
        <DataArray type="Float32" Name="Moment" NumberOfComponents="3" format="ascii">
                       0.00000                       0.00000                       0.00000
                       0.00000                       0.00000                       0.00000
                       0.00000                       0.00000                       0.00000
                       0.00000                       0.00000                       0.00000
                      -3.69267                     157.22777                    -151.26071
                      -3.47155                     146.09463                    -140.54658
                      -2.96512                     123.22648                    -118.54364
                      -3.45238                     141.76736                    -136.37634
                      -3.92735                     159.64044                    -153.56630
                      -3.24681                     131.01996                    -126.03274
                      -2.60580                     104.77944                    -100.79025
                      -1.87556                      75.47320                     -72.59989
                      -1.23376                      49.91402                     -48.01434
                      -0.83642                      34.17646                     -32.87647
                       0.03042                      -1.26042                       1.21252
                       0.03198                      -1.34395                       1.29291
                       0.02392                      -1.01743                       0.97882
                       0.00209                      -0.08994                       0.08653
                      -0.00555                       0.24066                      -0.23153
        </DataArray>
      </PointData>
      <Lines>
        <DataArray type="Int32" Name="connectivity" format="ascii">
      0      1
      1      2
      2      3
      3      4
      4      5
      5      6
      6      7
      7      8
      8      9
      9     10
     10     11
     11     12
     12     13
     13     14
     14     15
     15     16
     16     17
     17     18
        </DataArray>
        <DataArray type="Int32" Name="offsets" format="ascii">
      2
      4
      6
      8
     10
     12
     14
     16
     18
     20
     22
     24
     26
     28
     30
     32
     34
     36
        </DataArray>
      </Lines>
    </Piece>
  </PolyData>
</VTKFile>
