<?xml version="1.0"?>
<VTKFile type="PolyData" version="0.1" byte_order="LittleEndian">
  <PolyData>
    <Piece NumberOfPoints="     19" NumberOfVerts="  0" NumberOfLines="     18"
           NumberOfStrips="  0" NumberOfPolys="      0">
      <Points>
        <DataArray type="Float32" NumberOfComponents="3" format="ascii">
                      -5.06094                       1.47997                      90.18143
                      -5.10678                       2.83529                      90.35133
                      -5.21265                       5.53384                      90.78547
                      -5.32535                       8.22700                      91.26314
                      -5.47054                      11.59077                      91.88449
                      -5.60503                      15.64710                      92.47995
                      -5.72755                      19.72011                      92.93997
                      -5.85349                      23.79374                      93.39287
                      -5.98065                      27.86825                      93.83704
                      -6.10974                      31.94329                      94.27496
                      -6.24175                      36.01835                      94.71095
                      -6.37605                      40.09356                      95.14412
                      -6.51319                      44.16883                      95.57515
                      -6.65379                      48.24409                      96.00465
                      -6.79595                      52.31939                      96.43301
                      -6.91543                      55.71552                      96.78922
                      -7.01240                      58.43323                      97.06592
                      -7.11549                      61.15690                      97.28770
                      -7.16414                      62.51417                      97.43967
        </DataArray>
      </Points>
      <PointData>
        <DataArray type="Float32" Name="TranslationalVelocity" NumberOfComponents="3" format="ascii">
                       0.00237                      -0.01557                       0.04103
                       0.00554                      -0.02013                       0.07827
                       0.01193                      -0.03182                       0.15245
                       0.01828                      -0.04470                       0.22655
                       0.02599                      -0.06151                       0.31924
                       0.03495                      -0.07769                       0.43123
                       0.04382                      -0.09020                       0.54395
                       0.05313                      -0.10252                       0.65701
                       0.06367                      -0.11458                       0.77040
                       0.07641                      -0.12642                       0.88411
                       0.09248                      -0.13812                       0.99808
                       0.11307                      -0.14960                       1.11227
                       0.13938                      -0.16083                       1.22659
                       0.17260                      -0.17175                       1.34092
                       0.21381                      -0.18234                       1.45512
                       0.25511                      -0.19086                       1.55004
                       0.29278                      -0.19723                       1.62576
                       0.33479                      -0.20179                       1.70136
                       0.35750                      -0.20517                       1.73889
        </DataArray>
        <DataArray type="Float32" Name="RotationalVelocity" NumberOfComponents="3" format="ascii">
                       0.02746                       0.00003                      -0.00238
                       0.02747                       0.00004                      -0.00237
                       0.02749                       0.00003                      -0.00235
                       0.02752                       0.00003                      -0.00232
                       0.02757                       0.00003                      -0.00227
                       0.02763                       0.00004                      -0.00223
                       0.02770                       0.00007                      -0.00226
                       0.02777                       0.00012                      -0.00243
                       0.02784                       0.00021                      -0.00280
                       0.02791                       0.00033                      -0.00342
                       0.02796                       0.00049                      -0.00433
                       0.02799                       0.00069                      -0.00556
                       0.02800                       0.00092                      -0.00710
                       0.02797                       0.00118                      -0.00891
                       0.02791                       0.00144                      -0.01092
                       0.02783                       0.00165                      -0.01266
                       0.02774                       0.00180                      -0.01403
                       0.02762                       0.00191                      -0.01531
                       0.02756                       0.00195                      -0.01589
        </DataArray>
        <DataArray type="Float32" Name="TranslationalAcceleration" NumberOfComponents="3" format="ascii">
                       0.00779                       0.00359                       0.00786
                       0.00235                       0.00008                       0.00191
                       0.00644                      -0.00031                       0.00439
                       0.00922                      -0.00136                       0.00556
                       0.01055                      -0.00339                       0.00594
                       0.00910                      -0.00657                       0.00572
                       0.00643                      -0.01012                       0.00561
                       0.00632                      -0.01367                       0.00602
                       0.01339                      -0.01692                       0.00708
                       0.03315                      -0.01963                       0.00860
                       0.07175                      -0.02161                       0.01020
                       0.13583                      -0.02264                       0.01128
                       0.23222                      -0.02252                       0.01114
                       0.36774                      -0.02097                       0.00900
                       0.54898                      -0.01773                       0.00402
                       0.74038                      -0.01346                      -0.00294
                       0.92082                      -0.00890                      -0.01058
                       1.12720                      -0.00296                      -0.02020
                       1.24086                       0.00043                      -0.02589
        </DataArray>
        <DataArray type="Float32" Name="OrientationX" NumberOfComponents="3" format="ascii">
                       0.98883                       0.01483                       0.14828
                       0.98883                       0.01486                       0.14828
                       0.98883                       0.01496                       0.14830
                       0.98882                       0.01512                       0.14832
                       0.98882                       0.01536                       0.14835
                       0.99294                       0.01960                       0.11700
                       0.99528                       0.02270                       0.09434
                       0.99690                       0.02541                       0.07451
                       0.99817                       0.02820                       0.05352
                       0.99901                       0.03101                       0.03189
                       0.99937                       0.03363                       0.01142
                       0.99931                       0.03617                      -0.00889
                       0.99889                       0.03844                      -0.02730
                       0.99834                       0.04015                      -0.04125
                       0.99761                       0.04180                      -0.05497
                       0.99686                       0.04313                      -0.06644
                       0.99621                       0.04410                      -0.07497
                       0.99583                       0.04461                      -0.07953
                       0.99583                       0.04460                      -0.07953
        </DataArray>
        <DataArray type="Float32" Name="OrientationY" NumberOfComponents="3" format="ascii">
                       0.14528                       0.12553                      -0.98140
                       0.14529                       0.12534                      -0.98142
                       0.14530                       0.12484                      -0.98148
                       0.14533                       0.12421                      -0.98156
                       0.14536                       0.12332                      -0.98166
                       0.11379                       0.12162                      -0.98603
                       0.09097                       0.12001                      -0.98860
                       0.07100                       0.11847                      -0.99042
                       0.04987                       0.11695                      -0.99188
                       0.02811                       0.11548                      -0.99291
                       0.00751                       0.11412                      -0.99344
                      -0.01292                       0.11284                      -0.99353
                      -0.03144                       0.11168                      -0.99325
                      -0.04547                       0.11075                      -0.99281
                      -0.05928                       0.10989                      -0.99217
                      -0.07081                       0.10920                      -0.99149
                      -0.07938                       0.10870                      -0.99090
                      -0.08396                       0.10842                      -0.99055
                      -0.08396                       0.10839                      -0.99056
        </DataArray>
        <DataArray type="Float32" Name="OrientationZ" NumberOfComponents="3" format="ascii">
                      -0.03316                       0.99198                       0.12197
                      -0.03317                       0.99200                       0.12178
                      -0.03320                       0.99206                       0.12127
                      -0.03326                       0.99214                       0.12062
                      -0.03338                       0.99225                       0.11971
                      -0.03355                       0.99238                       0.11854
                      -0.03376                       0.99251                       0.11738
                      -0.03399                       0.99263                       0.11630
                      -0.03423                       0.99274                       0.11533
                      -0.03447                       0.99283                       0.11450
                      -0.03471                       0.99290                       0.11380
                      -0.03493                       0.99295                       0.11323
                      -0.03513                       0.99300                       0.11277
                      -0.03530                       0.99304                       0.11240
                      -0.03543                       0.99306                       0.11210
                      -0.03551                       0.99308                       0.11191
                      -0.03555                       0.99310                       0.11179
                      -0.03556                       0.99310                       0.11171
                      -0.03556                       0.99311                       0.11168
        </DataArray>
        <DataArray type="Float32" Name="Force" NumberOfComponents="3" format="ascii">
                       0.17889                      -0.24632                       2.05192
                      -0.62591                      -0.28511                       2.14863
                      -0.65921                      -0.28121                       2.10800
                      -0.48205                      -0.19209                       1.43128
                      -2.24041                      -0.06613                      -0.07163
                      -2.38357                      -0.07335                      -0.05334
                      -2.22170                      -0.07010                      -0.03759
                      -2.03419                      -0.06193                      -0.05499
                      -1.77128                      -0.05695                      -0.02553
                      -1.49228                      -0.05221                       0.01080
                      -1.21182                      -0.04666                       0.04173
                      -1.02517                      -0.04211                       0.05525
                      -0.88522                      -0.03908                       0.06871
                      -0.82686                      -0.03793                       0.07483
                      -0.82895                      -0.03951                       0.08634
                      -0.87101                      -0.04276                       0.10033
                      -0.89438                      -0.04483                       0.11031
                      -0.70276                      -0.03559                       0.08961
                       0.03980                       0.00185                      -0.00374
        </DataArray>
        <DataArray type="Float32" Name="Moment" NumberOfComponents="3" format="ascii">
                       0.00000                       0.00000                       0.00000
                       0.00000                       0.00000                       0.00000
                       0.00000                       0.00000                       0.00000
                       0.00000                       0.00000                       0.00000
                      -0.13778                       4.11941                       0.50652
                      -0.14561                       4.34367                       0.53413
                      -0.12865                       3.82513                       0.47040
                      -0.10432                       3.08938                       0.37996
                      -0.08104                       2.38894                       0.29384
                      -0.06206                       1.82027                       0.22392
                      -0.04828                       1.40879                       0.17333
                      -0.03628                       1.05336                       0.12961
                      -0.02800                       0.80936                       0.09960
                      -0.02251                       0.64806                       0.07976
                      -0.01922                       0.55160                       0.06789
                      -0.01756                       0.50300                       0.06191
                      -0.01563                       0.44725                       0.05505
                      -0.00806                       0.23071                       0.02840
                       0.00046                      -0.01324                      -0.00163
        </DataArray>
      </PointData>
      <Lines>
        <DataArray type="Int32" Name="connectivity" format="ascii">
      0      1
      1      2
      2      3
      3      4
      4      5
      5      6
      6      7
      7      8
      8      9
      9     10
     10     11
     11     12
     12     13
     13     14
     14     15
     15     16
     16     17
     17     18
        </DataArray>
        <DataArray type="Int32" Name="offsets" format="ascii">
      2
      4
      6
      8
     10
     12
     14
     16
     18
     20
     22
     24
     26
     28
     30
     32
     34
     36
        </DataArray>
      </Lines>
    </Piece>
  </PolyData>
</VTKFile>
