<?xml version="1.0"?>
<VTKFile type="PolyData" version="0.1" byte_order="LittleEndian">
  <PolyData>
    <Piece NumberOfPoints="     19" NumberOfVerts="  0" NumberOfLines="     18"
           NumberOfStrips="  0" NumberOfPolys="      0">
      <Points>
        <DataArray type="Float32" NumberOfComponents="3" format="ascii">
                      -5.14102                      -1.24735                      89.17656
                      -5.26740                      -2.38115                      88.42394
                      -5.54910                      -4.59474                      86.84199
                      -5.84430                      -6.78216                      85.22290
                      -6.22092                      -9.49984                      83.17558
                      -6.60881                     -12.84027                      80.82830
                      -6.96183                     -16.25167                      78.58225
                      -7.31498                     -19.66224                      76.33483
                      -7.66548                     -23.07325                      74.08750
                      -8.01406                     -26.48385                      71.83908
                      -8.36215                     -29.89224                      69.58712
                      -8.70882                     -33.29956                      67.33322
                      -9.05473                     -36.70607                      65.07792
                      -9.40066                     -40.11198                      62.82164
                      -9.74508                     -43.51744                      60.56441
                     -10.03105                     -46.35505                      58.68274
                     -10.25892                     -48.62933                      57.18358
                     -10.48350                     -50.93429                      55.72944
                     -10.59926                     -52.06316                      54.96795
        </DataArray>
      </Points>
      <PointData>
        <DataArray type="Float32" Name="TranslationalVelocity" NumberOfComponents="3" format="ascii">
                      -0.00192                       0.00820                      -0.01291
                      -0.00299                       0.01611                      -0.02464
                      -0.00571                       0.03274                      -0.04743
                      -0.00939                       0.04975                      -0.06973
                      -0.01575                       0.07118                      -0.09699
                      -0.02668                       0.09551                      -0.12975
                      -0.04205                       0.11848                      -0.16218
                      -0.06287                       0.14117                      -0.19331
                      -0.09017                       0.16353                      -0.22298
                      -0.12499                       0.18558                      -0.25102
                      -0.16839                       0.20736                      -0.27729
                      -0.22139                       0.22889                      -0.30170
                      -0.28494                       0.25023                      -0.32421
                      -0.35991                       0.27147                      -0.34479
                      -0.44708                       0.29267                      -0.36351
                      -0.52972                       0.31041                      -0.37770
                      -0.60227                       0.32464                      -0.38827
                      -0.68077                       0.33865                      -0.39839
                      -0.72223                       0.34602                      -0.40301
        </DataArray>
        <DataArray type="Float32" Name="RotationalVelocity" NumberOfComponents="3" format="ascii">
                       0.01036                       0.00000                      -0.00091
                       0.01035                       0.00005                      -0.00097
                       0.01029                       0.00019                      -0.00119
                       0.01021                       0.00041                      -0.00153
                       0.01006                       0.00075                      -0.00207
                       0.00983                       0.00127                      -0.00290
                       0.00954                       0.00189                      -0.00393
                       0.00922                       0.00262                      -0.00514
                       0.00886                       0.00348                      -0.00657
                       0.00847                       0.00449                      -0.00821
                       0.00807                       0.00565                      -0.01008
                       0.00765                       0.00699                      -0.01218
                       0.00724                       0.00849                      -0.01446
                       0.00684                       0.01011                      -0.01690
                       0.00648                       0.01182                      -0.01941
                       0.00622                       0.01326                      -0.02147
                       0.00605                       0.01436                      -0.02304
                       0.00592                       0.01537                      -0.02448
                       0.00587                       0.01583                      -0.02513
        </DataArray>
        <DataArray type="Float32" Name="TranslationalAcceleration" NumberOfComponents="3" format="ascii">
                      -0.02818                      -0.02848                      -0.00935
                      -0.00741                      -0.00768                      -0.00391
                      -0.01675                      -0.01807                      -0.01048
                      -0.02169                      -0.02311                      -0.01531
                      -0.02681                      -0.02441                      -0.01906
                      -0.03689                      -0.02182                      -0.02070
                      -0.05436                      -0.01751                      -0.02009
                      -0.08068                      -0.01318                      -0.01765
                      -0.11466                      -0.00974                      -0.01409
                      -0.15341                      -0.00738                      -0.01006
                      -0.19306                      -0.00580                      -0.00616
                      -0.22893                      -0.00434                      -0.00309
                      -0.25636                      -0.00223                      -0.00152
                      -0.27115                       0.00124                      -0.00214
                      -0.27020                       0.00670                      -0.00584
                      -0.25599                       0.01290                      -0.01192
                      -0.23554                       0.01880                      -0.01916
                      -0.20291                       0.02496                      -0.02938
                      -0.18849                       0.02831                      -0.03494
        </DataArray>
        <DataArray type="Float32" Name="OrientationX" NumberOfComponents="3" format="ascii">
                       0.94982                       0.09243                      -0.29883
                       0.94982                       0.09248                      -0.29880
                       0.94984                       0.09265                      -0.29869
                       0.94987                       0.09289                      -0.29854
                       0.94990                       0.09327                      -0.29830
                       0.95901                       0.07621                      -0.27294
                       0.96498                       0.06405                      -0.25438
                       0.96979                       0.05350                      -0.23801
                       0.97444                       0.04230                      -0.22064
                       0.97876                       0.03073                      -0.20268
                       0.98243                       0.01980                      -0.18559
                       0.98565                       0.00894                      -0.16857
                       0.98821                      -0.00087                      -0.15307
                       0.98994                      -0.00822                      -0.14122
                       0.99145                      -0.01550                      -0.12957
                       0.99256                      -0.02167                      -0.11984
                       0.99329                      -0.02630                      -0.11264
                       0.99365                      -0.02875                      -0.10876
                       0.99366                      -0.02871                      -0.10874
        </DataArray>
        <DataArray type="Float32" Name="OrientationY" NumberOfComponents="3" format="ascii">
                       0.29906                      -0.54840                       0.78091
                       0.29905                      -0.54852                       0.78083
                       0.29901                      -0.54885                       0.78061
                       0.29897                      -0.54927                       0.78034
                       0.29892                      -0.54985                       0.77994
                       0.26840                      -0.55330                       0.78855
                       0.24622                      -0.55567                       0.79411
                       0.22675                      -0.55755                       0.79858
                       0.20610                      -0.55920                       0.80301
                       0.18476                      -0.56054                       0.80725
                       0.16451                      -0.56153                       0.81094
                       0.14437                      -0.56221                       0.81430
                       0.12607                      -0.56260                       0.81706
                       0.11216                      -0.56279                       0.81896
                       0.09845                      -0.56283                       0.82069
                       0.08697                      -0.56275                       0.82204
                       0.07843                      -0.56262                       0.82299
                       0.07385                      -0.56255                       0.82346
                       0.07386                      -0.56257                       0.82345
        </DataArray>
        <DataArray type="Float32" Name="OrientationZ" NumberOfComponents="3" format="ascii">
                      -0.09170                      -0.83110                      -0.54852
                      -0.09169                      -0.83101                      -0.54865
                      -0.09162                      -0.83077                      -0.54902
                      -0.09149                      -0.83047                      -0.54950
                      -0.09127                      -0.83004                      -0.55019
                      -0.09092                      -0.82949                      -0.55108
                      -0.09049                      -0.82894                      -0.55198
                      -0.08998                      -0.82842                      -0.55283
                      -0.08941                      -0.82796                      -0.55362
                      -0.08880                      -0.82756                      -0.55432
                      -0.08815                      -0.82722                      -0.55492
                      -0.08749                      -0.82695                      -0.55543
                      -0.08683                      -0.82673                      -0.55585
                      -0.08621                      -0.82656                      -0.55621
                      -0.08564                      -0.82643                      -0.55649
                      -0.08525                      -0.82635                      -0.55667
                      -0.08501                      -0.82630                      -0.55678
                      -0.08485                      -0.82626                      -0.55686
                      -0.08481                      -0.82625                      -0.55688
        </DataArray>
        <DataArray type="Float32" Name="Force" NumberOfComponents="3" format="ascii">
                       3.55835                     -27.27728                      40.73469
                      12.06701                     -30.23735                      43.79760
                      14.43593                     -31.37387                      45.12562
                       8.72458                     -22.48206                      32.60857
                      -7.31577                      -4.18311                       7.55287
                     -18.76021                      -2.33103                       6.63305
                     -15.15339                      -1.84434                       5.28487
                      -6.63761                      -0.76196                       2.23816
                       0.08875                      -0.41784                       0.61843
                      -0.14483                      -0.39030                       0.61436
                      -5.18625                      -0.21535                       1.15393
                      -6.20457                      -0.09575                       1.12730
                       0.04665                      -0.32201                       0.48014
                       5.52299                      -0.48638                      -0.12447
                      15.01224                      -0.72308                      -1.22891
                      23.04275                      -0.82715                      -2.29702
                      25.89896                      -0.80495                      -2.75863
                      19.98664                      -0.54744                      -2.23445
                      16.08695                      -0.59388                      -1.56522
        </DataArray>
        <DataArray type="Float32" Name="Moment" NumberOfComponents="3" format="ascii">
                       0.00000                       0.00000                       0.00000
                       0.00000                       0.00000                       0.00000
                       0.00000                       0.00000                       0.00000
                       0.00000                       0.00000                       0.00000
                       2.73597                      24.95127                      16.46918
                       3.59550                      32.94464                      21.74672
                       3.35937                      30.95558                      20.43541
                       4.13624                      38.36018                      25.32591
                       4.64613                      43.39481                      28.65273
                       4.03303                      37.95481                      25.06348
                       3.49063                      33.11140                      21.86755
                       2.98118                      28.50820                      18.82960
                       1.86524                      17.97998                      11.87705
                       1.61238                      15.66138                      10.34652
                       1.38705                      13.56509                       8.96247
                       1.21034                      11.89378                       7.85874
                       1.01778                      10.03112                       6.62826
                       0.48519                       4.79133                       3.16605
                       0.45610                       4.50644                       2.97782
        </DataArray>
      </PointData>
      <Lines>
        <DataArray type="Int32" Name="connectivity" format="ascii">
      0      1
      1      2
      2      3
      3      4
      4      5
      5      6
      6      7
      7      8
      8      9
      9     10
     10     11
     11     12
     12     13
     13     14
     14     15
     15     16
     16     17
     17     18
        </DataArray>
        <DataArray type="Int32" Name="offsets" format="ascii">
      2
      4
      6
      8
     10
     12
     14
     16
     18
     20
     22
     24
     26
     28
     30
     32
     34
     36
        </DataArray>
      </Lines>
    </Piece>
  </PolyData>
</VTKFile>
