<?xml version="1.0"?>
<VTKFile type="PolyData" version="0.1" byte_order="LittleEndian">
  <PolyData>
    <Piece NumberOfPoints="     19" NumberOfVerts="  0" NumberOfLines="     18"
           NumberOfStrips="  0" NumberOfPolys="      0">
      <Points>
        <DataArray type="Float32" NumberOfComponents="3" format="ascii">
                      -4.95630                      -0.62946                      91.36555
                      -4.90839                      -1.19378                      92.60937
                      -4.83824                      -2.40872                      95.05897
                      -4.78010                      -3.66499                      97.49033
                      -4.71432                      -5.26073                     100.51825
                      -4.57673                      -7.04784                     104.20694
                      -4.40951                      -8.71887                     107.94691
                      -4.24344                     -10.38949                     111.68713
                      -4.07598                     -12.05795                     115.42832
                      -3.90805                     -13.72578                     119.16983
                      -3.74115                     -15.39604                     122.91030
                      -3.57457                     -17.06711                     126.65046
                      -3.40911                     -18.73875                     130.39043
                      -3.24561                     -20.41076                     134.13035
                      -3.08253                     -22.08314                     137.87014
                      -2.94702                     -23.47706                     140.98661
                      -2.83880                     -24.58516                     143.48296
                      -2.72989                     -25.64340                     146.00206
                      -2.67767                     -26.21050                     147.24433
        </DataArray>
      </Points>
      <PointData>
        <DataArray type="Float32" Name="TranslationalVelocity" NumberOfComponents="3" format="ascii">
                       0.00310                      -0.03017                      -0.01404
                       0.00217                      -0.06038                      -0.02771
                       0.00033                      -0.11986                      -0.05716
                      -0.00119                      -0.17899                      -0.08767
                      -0.00225                      -0.25281                      -0.12655
                      -0.00166                      -0.34318                      -0.17034
                       0.00115                      -0.43523                      -0.21159
                       0.00599                      -0.52761                      -0.25306
                       0.01276                      -0.62030                      -0.29469
                       0.02118                      -0.71316                      -0.33646
                       0.03086                      -0.80608                      -0.37836
                       0.04128                      -0.89896                      -0.42031
                       0.05184                      -0.99170                      -0.46221
                       0.06186                      -1.08425                      -0.50401
                       0.07059                      -1.17655                      -0.54565
                       0.07628                      -1.25328                      -0.58021
                       0.07952                      -1.31465                      -0.60759
                       0.08138                      -1.37652                      -0.63365
                       0.08165                      -1.40702                      -0.64759
        </DataArray>
        <DataArray type="Float32" Name="RotationalVelocity" NumberOfComponents="3" format="ascii">
                       0.02419                       0.00017                      -0.00211
                       0.02420                       0.00020                      -0.00210
                       0.02423                       0.00031                      -0.00205
                       0.02428                       0.00047                      -0.00197
                       0.02436                       0.00074                      -0.00183
                       0.02447                       0.00111                      -0.00160
                       0.02457                       0.00152                      -0.00134
                       0.02467                       0.00192                      -0.00106
                       0.02474                       0.00228                      -0.00077
                       0.02480                       0.00257                      -0.00051
                       0.02482                       0.00276                      -0.00029
                       0.02481                       0.00282                      -0.00014
                       0.02478                       0.00275                      -0.00007
                       0.02473                       0.00253                      -0.00008
                       0.02467                       0.00217                      -0.00019
                       0.02462                       0.00177                      -0.00033
                       0.02459                       0.00138                      -0.00048
                       0.02458                       0.00095                      -0.00065
                       0.02458                       0.00072                      -0.00074
        </DataArray>
        <DataArray type="Float32" Name="TranslationalAcceleration" NumberOfComponents="3" format="ascii">
                      -0.01493                       0.02481                      -0.00735
                      -0.00619                       0.00784                      -0.00281
                      -0.01504                       0.01924                      -0.00731
                      -0.02000                       0.02591                      -0.01065
                      -0.02236                       0.02972                      -0.01375
                      -0.02105                       0.03001                      -0.01657
                      -0.01600                       0.02820                      -0.01907
                      -0.00728                       0.02628                      -0.02160
                       0.00602                       0.02540                      -0.02432
                       0.02558                       0.02618                      -0.02724
                       0.05373                       0.02881                      -0.03026
                       0.09334                       0.03315                      -0.03328
                       0.14768                       0.03895                      -0.03619
                       0.22018                       0.04596                      -0.03896
                       0.31427                       0.05395                      -0.04175
                       0.41196                       0.06140                      -0.04433
                       0.50405                       0.06800                      -0.04681
                       0.61452                       0.07542                      -0.05022
                       0.67058                       0.07963                      -0.05185
        </DataArray>
        <DataArray type="Float32" Name="OrientationX" NumberOfComponents="3" format="ascii">
                       0.96369                      -0.22727                      -0.14019
                       0.96369                      -0.22726                      -0.14022
                       0.96368                      -0.22722                      -0.14032
                       0.96367                      -0.22717                      -0.14047
                       0.96366                      -0.22709                      -0.14070
                       0.97159                      -0.19872                      -0.12857
                       0.97668                      -0.17814                      -0.11984
                       0.98070                      -0.16009                      -0.11222
                       0.98453                      -0.14098                      -0.10408
                       0.98800                      -0.12127                      -0.09562
                       0.99086                      -0.10259                      -0.08756
                       0.99329                      -0.08404                      -0.07950
                       0.99513                      -0.06720                      -0.07213
                       0.99630                      -0.05442                      -0.06654
                       0.99726                      -0.04184                      -0.06096
                       0.99793                      -0.03132                      -0.05625
                       0.99833                      -0.02350                      -0.05272
                       0.99852                      -0.01933                      -0.05081
                       0.99852                      -0.01935                      -0.05080
        </DataArray>
        <DataArray type="Float32" Name="OrientationY" NumberOfComponents="3" format="ascii">
                       0.26463                       0.88306                       0.38752
                       0.26464                       0.88303                       0.38759
                       0.26465                       0.88295                       0.38777
                       0.26467                       0.88284                       0.38800
                       0.26471                       0.88269                       0.38832
                       0.23390                       0.88928                       0.39303
                       0.21158                       0.89341                       0.39630
                       0.19202                       0.89661                       0.39901
                       0.17128                       0.89963                       0.40166
                       0.14987                       0.90234                       0.40414
                       0.12956                       0.90452                       0.40628
                       0.10935                       0.90632                       0.40820
                       0.09100                       0.90763                       0.40979
                       0.07706                       0.90842                       0.41090
                       0.06332                       0.90903                       0.41190
                       0.05180                       0.90942                       0.41265
                       0.04323                       0.90963                       0.41316
                       0.03865                       0.90971                       0.41343
                       0.03866                       0.90971                       0.41344
        </DataArray>
        <DataArray type="Float32" Name="OrientationZ" NumberOfComponents="3" format="ascii">
                       0.03572                      -0.41055                       0.91114
                       0.03574                      -0.41062                       0.91111
                       0.03579                      -0.41082                       0.91101
                       0.03587                      -0.41108                       0.91089
                       0.03601                      -0.41145                       0.91072
                       0.03623                      -0.41193                       0.91049
                       0.03647                      -0.41241                       0.91027
                       0.03674                      -0.41286                       0.91005
                       0.03701                      -0.41327                       0.90986
                       0.03727                      -0.41362                       0.90969
                       0.03752                      -0.41391                       0.90954
                       0.03774                      -0.41416                       0.90942
                       0.03793                      -0.41435                       0.90933
                       0.03808                      -0.41451                       0.90925
                       0.03818                      -0.41463                       0.90919
                       0.03823                      -0.41471                       0.90915
                       0.03824                      -0.41475                       0.90913
                       0.03823                      -0.41479                       0.90912
                       0.03821                      -0.41480                       0.90911
        </DataArray>
        <DataArray type="Float32" Name="Force" NumberOfComponents="3" format="ascii">
                      -4.63468                    -118.35310                     -53.14637
                      -2.12717                    -118.34546                     -53.24129
                      -2.30578                    -128.56406                     -57.83881
                      -1.74333                     -97.11779                     -43.69181
                     172.01737                     -61.40491                     -34.47482
                     162.28468                     -49.13393                     -28.60240
                     143.77841                     -39.12660                     -23.39836
                     166.69274                     -29.73432                     -20.13711
                     184.50688                     -22.32519                     -17.57657
                     146.16058                     -16.78207                     -13.56136
                     121.30516                     -11.54923                     -10.21780
                      89.80456                      -7.42390                      -7.07988
                      60.51291                      -6.18576                      -5.31709
                      42.69963                      -5.19657                      -4.13407
                      27.57791                      -4.28223                      -3.09065
                      16.84818                      -3.57789                      -2.32259
                       9.61526                      -2.98472                      -1.75057
                      -0.90103                      -1.75415                      -0.75262
                       1.08610                      -1.79639                      -0.85538
        </DataArray>
        <DataArray type="Float32" Name="Moment" NumberOfComponents="3" format="ascii">
                       0.00000                       0.00000                       0.00000
                       0.00000                       0.00000                       0.00000
                       0.00000                       0.00000                       0.00000
                       0.00000                       0.00000                       0.00000
                     -13.08106                     148.97809                    -330.62260
                     -12.26908                     138.83749                    -308.11103
                     -10.44987                     117.39652                    -260.52220
                     -13.33669                     148.68399                    -329.94536
                     -13.87104                     153.45385                    -340.52090
                     -10.34436                     113.59071                    -252.05615
                      -8.06195                      87.91916                    -195.08652
                      -5.57685                      60.44616                    -134.12286
                      -3.49680                      37.70514                     -83.66165
                      -2.27654                      24.44780                     -54.24494
                      -1.34471                      14.40029                     -31.95113
                      -0.75701                       8.09578                     -17.96270
                      -0.39093                       4.17935                      -9.27302
                       0.02256                      -0.24122                       0.53522
                      -0.03166                       0.33875                      -0.75162
        </DataArray>
      </PointData>
      <Lines>
        <DataArray type="Int32" Name="connectivity" format="ascii">
      0      1
      1      2
      2      3
      3      4
      4      5
      5      6
      6      7
      7      8
      8      9
      9     10
     10     11
     11     12
     12     13
     13     14
     14     15
     15     16
     16     17
     17     18
        </DataArray>
        <DataArray type="Int32" Name="offsets" format="ascii">
      2
      4
      6
      8
     10
     12
     14
     16
     18
     20
     22
     24
     26
     28
     30
     32
     34
     36
        </DataArray>
      </Lines>
    </Piece>
  </PolyData>
</VTKFile>
