<?xml version="1.0"?>
<VTKFile type="PolyData" version="0.1" byte_order="LittleEndian">
  <PolyData>
    <Piece NumberOfPoints="     19" NumberOfVerts="  0" NumberOfLines="     18"
           NumberOfStrips="  0" NumberOfPolys="      0">
      <Points>
        <DataArray type="Float32" NumberOfComponents="3" format="ascii">
                      -4.98415                      -1.07162                      91.05039
                      -4.96146                      -2.04816                      92.00627
                      -4.94423                      -4.06737                      93.85129
                      -4.94022                      -6.11844                      95.66405
                      -4.94287                      -8.70218                      97.90969
                      -4.88373                     -11.70622                     100.70078
                      -4.79160                     -14.62260                     103.58046
                      -4.70047                     -17.53966                     106.45954
                      -4.60767                     -20.45605                     109.33937
                      -4.51404                     -23.37283                     112.21889
                      -4.42106                     -26.29218                     115.09587
                      -4.32788                     -29.21277                     117.97166
                      -4.23514                     -32.13424                     120.84662
                      -4.14362                     -35.05633                     123.72103
                      -4.05167                     -37.97900                     126.59489
                      -3.97473                     -40.41496                     128.98944
                      -3.91271                     -42.35845                     130.91048
                      -3.84814                     -44.26395                     132.87071
                      -3.81902                     -45.24577                     133.82085
        </DataArray>
      </Points>
      <PointData>
        <DataArray type="Float32" Name="TranslationalVelocity" NumberOfComponents="3" format="ascii">
                      -0.00026                      -0.03090                      -0.02983
                      -0.00270                      -0.05776                      -0.05721
                      -0.00817                      -0.10949                      -0.11378
                      -0.01456                      -0.16021                      -0.17116
                      -0.02429                      -0.22282                      -0.24324
                      -0.03882                      -0.30049                      -0.32660
                      -0.05718                      -0.38034                      -0.40695
                      -0.08009                      -0.45973                      -0.48673
                      -0.10777                      -0.53876                      -0.56592
                      -0.14022                      -0.61743                      -0.64460
                      -0.17713                      -0.69574                      -0.72291
                      -0.21798                      -0.77384                      -0.80093
                      -0.26191                      -0.85183                      -0.87878
                      -0.30782                      -0.92981                      -0.95662
                      -0.35429                      -1.00790                      -1.03457
                      -0.39216                      -1.07314                      -1.09974
                      -0.42108                      -1.12562                      -1.15190
                      -0.44807                      -1.17933                      -1.20324
                      -0.46063                      -1.20541                      -1.22980
        </DataArray>
        <DataArray type="Float32" Name="RotationalVelocity" NumberOfComponents="3" format="ascii">
                       0.02804                       0.00003                      -0.00244
                       0.02804                      -0.00002                      -0.00249
                       0.02801                      -0.00019                      -0.00266
                       0.02795                      -0.00045                      -0.00290
                       0.02785                      -0.00088                      -0.00330
                       0.02770                      -0.00155                      -0.00390
                       0.02753                      -0.00234                      -0.00458
                       0.02736                      -0.00321                      -0.00531
                       0.02720                      -0.00411                      -0.00604
                       0.02706                      -0.00501                      -0.00674
                       0.02695                      -0.00585                      -0.00736
                       0.02688                      -0.00658                      -0.00787
                       0.02685                      -0.00715                      -0.00822
                       0.02686                      -0.00750                      -0.00838
                       0.02692                      -0.00758                      -0.00829
                       0.02698                      -0.00741                      -0.00802
                       0.02704                      -0.00709                      -0.00764
                       0.02709                      -0.00660                      -0.00710
                       0.02712                      -0.00628                      -0.00677
        </DataArray>
        <DataArray type="Float32" Name="TranslationalAcceleration" NumberOfComponents="3" format="ascii">
                      -0.01544                      -0.01719                       0.00254
                      -0.00298                      -0.00483                      -0.00053
                      -0.00482                      -0.01143                      -0.00183
                       0.00097                      -0.01514                      -0.00380
                       0.02169                      -0.01784                      -0.00777
                       0.06654                      -0.02012                      -0.01538
                       0.12934                      -0.02300                      -0.02590
                       0.20376                      -0.02742                      -0.03870
                       0.28023                      -0.03336                      -0.05287
                       0.34759                      -0.04029                      -0.06725
                       0.39413                      -0.04737                      -0.08062
                       0.40829                      -0.05353                      -0.09180
                       0.37984                      -0.05781                      -0.09980
                       0.30081                      -0.05956                      -0.10402
                       0.16654                      -0.05853                      -0.10414
                       0.01109                      -0.05590                      -0.10123
                      -0.13951                      -0.05324                      -0.09737
                      -0.31767                      -0.05076                      -0.09223
                      -0.40808                      -0.04999                      -0.08991
        </DataArray>
        <DataArray type="Float32" Name="OrientationX" NumberOfComponents="3" format="ascii">
                       0.95687                      -0.19159                      -0.21839
                       0.95687                      -0.19156                      -0.21842
                       0.95686                      -0.19146                      -0.21853
                       0.95686                      -0.19132                      -0.21867
                       0.95685                      -0.19111                      -0.21891
                       0.96559                      -0.16924                      -0.19745
                       0.97128                      -0.15330                      -0.18195
                       0.97583                      -0.13928                      -0.16840
                       0.98021                      -0.12445                      -0.15398
                       0.98425                      -0.10916                      -0.13905
                       0.98765                      -0.09466                      -0.12487
                       0.99060                      -0.08025                      -0.11073
                       0.99293                      -0.06716                      -0.09789
                       0.99446                      -0.05718                      -0.08818
                       0.99578                      -0.04737                      -0.07857
                       0.99674                      -0.03919                      -0.07050
                       0.99737                      -0.03312                      -0.06447
                       0.99767                      -0.02986                      -0.06128
                       0.99767                      -0.02985                      -0.06132
        </DataArray>
        <DataArray type="Float32" Name="OrientationY" NumberOfComponents="3" format="ascii">
                       0.29000                       0.67481                       0.67862
                       0.29000                       0.67472                       0.67871
                       0.29001                       0.67447                       0.67896
                       0.29003                       0.67416                       0.67926
                       0.29006                       0.67371                       0.67969
                       0.25944                       0.67889                       0.68688
                       0.23724                       0.68202                       0.69179
                       0.21776                       0.68442                       0.69581
                       0.19710                       0.68673                       0.69968
                       0.17575                       0.68885                       0.70327
                       0.15549                       0.69060                       0.70633
                       0.13533                       0.69209                       0.70901
                       0.11700                       0.69322                       0.71117
                       0.10309                       0.69390                       0.71266
                       0.08937                       0.69446                       0.71396
                       0.07788                       0.69486                       0.71491
                       0.06933                       0.69511                       0.71555
                       0.06478                       0.69521                       0.71588
                       0.06480                       0.69520                       0.71589
        </DataArray>
        <DataArray type="Float32" Name="OrientationZ" NumberOfComponents="3" format="ascii">
                       0.01736                      -0.71268                       0.70127
                       0.01736                      -0.71278                       0.70117
                       0.01739                      -0.71304                       0.70090
                       0.01746                      -0.71338                       0.70056
                       0.01759                      -0.71386                       0.70007
                       0.01779                      -0.71447                       0.69944
                       0.01805                      -0.71509                       0.69880
                       0.01834                      -0.71566                       0.69820
                       0.01866                      -0.71618                       0.69766
                       0.01901                      -0.71664                       0.69719
                       0.01937                      -0.71702                       0.69678
                       0.01974                      -0.71734                       0.69645
                       0.02010                      -0.71759                       0.69617
                       0.02044                      -0.71780                       0.69595
                       0.02075                      -0.71797                       0.69577
                       0.02097                      -0.71807                       0.69565
                       0.02112                      -0.71814                       0.69558
                       0.02123                      -0.71818                       0.69553
                       0.02127                      -0.71820                       0.69551
        </DataArray>
        <DataArray type="Float32" Name="Force" NumberOfComponents="3" format="ascii">
                      -4.72652                     -53.46230                     -54.21541
                      -1.33060                     -53.35542                     -54.19090
                      -1.39771                     -57.45937                     -58.36028
                      -1.01602                     -43.02910                     -43.70491
                     105.41743                     -30.84079                     -34.00375
                      99.42250                     -25.29536                     -28.25427
                      88.21669                     -20.71624                     -23.35299
                      95.79304                     -16.34944                     -19.15965
                     113.57806                     -11.88845                     -15.15772
                     104.03334                      -8.71799                     -11.73454
                      92.74993                      -6.40171                      -9.12094
                      76.27770                      -4.73344                      -7.00397
                       7.46187                      -2.14543                      -2.39969
                      10.03243                      -2.04079                      -2.37381
                      14.16615                      -1.88600                      -2.34622
                      17.20153                      -1.61183                      -2.16503
                      16.01234                      -1.33236                      -1.84798
                      10.98436                      -0.85521                      -1.20973
                       0.48783                      -0.68200                      -0.70861
        </DataArray>
        <DataArray type="Float32" Name="Moment" NumberOfComponents="3" format="ascii">
                       0.00000                       0.00000                       0.00000
                       0.00000                       0.00000                       0.00000
                       0.00000                       0.00000                       0.00000
                       0.00000                       0.00000                       0.00000
                      -3.94723                     159.00063                    -156.44782
                      -3.73061                     148.10349                    -145.72095
                      -3.21444                     125.46176                    -123.43873
                      -3.77523                     144.62925                    -142.29107
                      -4.32088                     162.31223                    -159.68085
                      -3.80880                     140.22539                    -137.94546
                      -3.22892                     116.50774                    -114.60783
                      -2.51594                      89.01301                     -87.55718
                      -0.24055                       8.35235                      -8.21536
                      -0.29729                      10.14518                      -9.97833
                      -0.38383                      12.89895                     -12.68631
                      -0.43037                      14.30678                     -14.07052
                      -0.36324                      11.99070                     -11.79247
                      -0.17026                       5.59100                      -5.49849
                      -0.00850                       0.27846                      -0.27385
        </DataArray>
      </PointData>
      <Lines>
        <DataArray type="Int32" Name="connectivity" format="ascii">
      0      1
      1      2
      2      3
      3      4
      4      5
      5      6
      6      7
      7      8
      8      9
      9     10
     10     11
     11     12
     12     13
     13     14
     14     15
     15     16
     16     17
     17     18
        </DataArray>
        <DataArray type="Int32" Name="offsets" format="ascii">
      2
      4
      6
      8
     10
     12
     14
     16
     18
     20
     22
     24
     26
     28
     30
     32
     34
     36
        </DataArray>
      </Lines>
    </Piece>
  </PolyData>
</VTKFile>
