<?xml version="1.0"?>
<VTKFile type="PolyData" version="0.1" byte_order="LittleEndian">
  <PolyData>
    <Piece NumberOfPoints="     19" NumberOfVerts="  0" NumberOfLines="     18"
           NumberOfStrips="  0" NumberOfPolys="      0">
      <Points>
        <DataArray type="Float32" NumberOfComponents="3" format="ascii">
                      -4.98272                      -1.05790                      91.06652
                      -4.95868                      -2.02011                      92.03679
                      -4.93860                      -4.01167                      93.91159
                      -4.93154                      -6.03561                      95.75459
                      -4.93006                      -8.58577                      98.03830
                      -4.86553                     -11.54808                     100.87353
                      -4.76736                     -14.42147                     103.79592
                      -4.66921                     -17.29567                     106.71757
                      -4.56824                     -20.16932                     109.63978
                      -4.46512                     -23.04350                     112.56150
                      -4.36119                     -25.92045                     115.48051
                      -4.25547                     -28.79880                     118.39814
                      -4.14859                     -31.67821                     121.31474
                      -4.04130                     -34.55838                     124.23061
                      -3.93208                     -37.43923                     127.14579
                      -3.83967                     -39.84041                     129.57467
                      -3.76475                     -41.75602                     131.52306
                      -3.68694                     -43.63307                     133.51007
                      -3.65106                     -44.60109                     134.47404
        </DataArray>
      </Points>
      <PointData>
        <DataArray type="Float32" Name="TranslationalVelocity" NumberOfComponents="3" format="ascii">
                      -0.00474                      -0.02090                      -0.02993
                      -0.00730                      -0.04799                      -0.05672
                      -0.01244                      -0.10028                      -0.11221
                      -0.01771                      -0.15166                      -0.16863
                      -0.02469                      -0.21532                      -0.23972
                      -0.03337                      -0.29453                      -0.32231
                      -0.04205                      -0.37634                      -0.40248
                      -0.05006                      -0.45831                      -0.48286
                      -0.05613                      -0.54061                      -0.56358
                      -0.05869                      -0.62331                      -0.64485
                      -0.05595                      -0.70648                      -0.72691
                      -0.04597                      -0.79026                      -0.80993
                      -0.02680                      -0.87475                      -0.89405
                       0.00349                      -0.96001                      -0.97939
                       0.04671                      -1.04603                      -1.06602
                       0.09400                      -1.11828                      -1.13924
                       0.13940                      -1.17652                      -1.19825
                       0.19205                      -1.23612                      -1.25664
                       0.22103                      -1.26512                      -1.28685
        </DataArray>
        <DataArray type="Float32" Name="RotationalVelocity" NumberOfComponents="3" format="ascii">
                       0.02785                      -0.00012                      -0.00244
                       0.02786                      -0.00012                      -0.00245
                       0.02786                      -0.00014                      -0.00247
                       0.02787                      -0.00018                      -0.00251
                       0.02787                      -0.00023                      -0.00256
                       0.02789                      -0.00027                      -0.00261
                       0.02794                      -0.00022                      -0.00258
                       0.02802                      -0.00001                      -0.00240
                       0.02815                       0.00044                      -0.00200
                       0.02833                       0.00119                      -0.00133
                       0.02857                       0.00229                      -0.00035
                       0.02886                       0.00377                       0.00099
                       0.02918                       0.00562                       0.00268
                       0.02953                       0.00780                       0.00468
                       0.02987                       0.01020                       0.00691
                       0.03013                       0.01227                       0.00886
                       0.03030                       0.01389                       0.01041
                       0.03041                       0.01538                       0.01188
                       0.03044                       0.01606                       0.01256
        </DataArray>
        <DataArray type="Float32" Name="TranslationalAcceleration" NumberOfComponents="3" format="ascii">
                       0.01625                      -0.01582                       0.00168
                       0.00525                      -0.00434                      -0.00064
                       0.01180                      -0.01027                      -0.00210
                       0.01307                      -0.01306                      -0.00364
                       0.00723                      -0.01327                      -0.00530
                      -0.01107                      -0.01015                      -0.00618
                      -0.04299                      -0.00428                      -0.00499
                      -0.09080                       0.00411                      -0.00084
                      -0.15668                       0.01505                       0.00700
                      -0.24283                       0.02883                       0.01906
                      -0.35112                       0.04588                       0.03571
                      -0.48286                       0.06658                       0.05705
                      -0.63849                       0.09117                       0.08289
                      -0.81742                       0.11963                       0.11275
                      -1.01778                       0.15137                       0.14580
                      -1.19904                       0.17955                       0.17496
                      -1.35052                       0.20252                       0.19854
                      -1.50340                       0.22533                       0.22127
                      -1.58285                       0.23618                       0.23272
        </DataArray>
        <DataArray type="Float32" Name="OrientationX" NumberOfComponents="3" format="ascii">
                       0.95710                      -0.19357                      -0.21560
                       0.95710                      -0.19353                      -0.21564
                       0.95710                      -0.19341                      -0.21578
                       0.95709                      -0.19322                      -0.21597
                       0.95707                      -0.19294                      -0.21629
                       0.96579                      -0.17063                      -0.19528
                       0.97146                      -0.15430                      -0.18018
                       0.97598                      -0.13990                      -0.16702
                       0.98033                      -0.12464                      -0.15304
                       0.98435                      -0.10890                      -0.13858
                       0.98771                      -0.09393                      -0.12489
                       0.99064                      -0.07904                      -0.11126
                       0.99294                      -0.06547                      -0.09890
                       0.99445                      -0.05507                      -0.08962
                       0.99575                      -0.04486                      -0.08041
                       0.99670                      -0.03637                      -0.07261
                       0.99731                      -0.03010                      -0.06676
                       0.99761                      -0.02672                      -0.06366
                       0.99761                      -0.02669                      -0.06369
        </DataArray>
        <DataArray type="Float32" Name="OrientationY" NumberOfComponents="3" format="ascii">
                       0.28917                       0.68519                       0.66850
                       0.28917                       0.68510                       0.66859
                       0.28918                       0.68486                       0.66883
                       0.28920                       0.68456                       0.66914
                       0.28923                       0.68413                       0.66956
                       0.25861                       0.68937                       0.67667
                       0.23640                       0.69255                       0.68153
                       0.21693                       0.69498                       0.68553
                       0.19628                       0.69731                       0.68938
                       0.17494                       0.69944                       0.69295
                       0.15468                       0.70118                       0.69601
                       0.13453                       0.70265                       0.69870
                       0.11622                       0.70375                       0.70088
                       0.10231                       0.70440                       0.70239
                       0.08858                       0.70493                       0.70372
                       0.07708                       0.70530                       0.70470
                       0.06851                       0.70553                       0.70536
                       0.06393                       0.70562                       0.70570
                       0.06393                       0.70561                       0.70571
        </DataArray>
        <DataArray type="Float32" Name="OrientationZ" NumberOfComponents="3" format="ascii">
                       0.01833                      -0.70217                       0.71178
                       0.01834                      -0.70227                       0.71168
                       0.01842                      -0.70254                       0.71141
                       0.01855                      -0.70288                       0.71106
                       0.01879                      -0.70338                       0.71057
                       0.01916                      -0.70402                       0.70992
                       0.01963                      -0.70467                       0.70926
                       0.02017                      -0.70529                       0.70863
                       0.02079                      -0.70585                       0.70805
                       0.02147                      -0.70635                       0.70754
                       0.02219                      -0.70677                       0.70709
                       0.02295                      -0.70713                       0.70671
                       0.02371                      -0.70743                       0.70639
                       0.02445                      -0.70766                       0.70613
                       0.02511                      -0.70785                       0.70591
                       0.02558                      -0.70797                       0.70577
                       0.02587                      -0.70805                       0.70569
                       0.02606                      -0.70809                       0.70564
                       0.02611                      -0.70810                       0.70563
        </DataArray>
        <DataArray type="Float32" Name="Force" NumberOfComponents="3" format="ascii">
                      -4.81068                     -56.01630                     -55.13617
                      -1.36731                     -55.91178                     -55.12184
                      -1.44444                     -60.24273                     -59.39287
                      -1.06363                     -45.13481                     -44.49921
                     108.53461                     -32.12397                     -34.57309
                     102.08158                     -26.23074                     -28.65057
                      90.12745                     -21.31158                     -23.53990
                      98.25403                     -16.61946                     -19.22047
                     117.83871                     -11.89848                     -15.23541
                      99.07409                      -8.96571                     -11.88607
                      83.99706                      -6.49912                      -9.08010
                      63.88598                      -4.57682                      -6.61566
                      44.32200                      -2.97422                      -4.44056
                      31.55702                      -2.36046                      -3.43506
                      20.13106                      -1.96061                      -2.65977
                      11.58635                      -1.60348                      -2.00777
                       5.51115                      -1.26643                      -1.45473
                       1.12050                      -0.74415                      -0.77665
                       0.49899                      -0.71012                      -0.71989
        </DataArray>
        <DataArray type="Float32" Name="Moment" NumberOfComponents="3" format="ascii">
                       0.00000                       0.00000                       0.00000
                       0.00000                       0.00000                       0.00000
                       0.00000                       0.00000                       0.00000
                       0.00000                       0.00000                       0.00000
                      -4.33950                     161.30440                    -163.50066
                      -4.12302                     149.86569                    -151.89824
                      -3.56937                     126.35158                    -128.05708
                      -4.27609                     146.95320                    -148.92590
                      -5.01679                     166.98874                    -169.21664
                      -4.09331                     131.76034                    -133.50647
                      -3.34865                     104.15884                    -105.52934
                      -2.44909                      73.62100                     -74.58251
                      -1.62354                      47.21988                     -47.83199
                      -1.09523                      30.89226                     -31.28983
                      -0.65508                      17.98684                     -18.21681
                      -0.35400                       9.54207                      -9.66350
                      -0.15473                       4.12451                      -4.17685
                      -0.02236                       0.59165                      -0.59914
                      -0.01062                       0.28043                      -0.28398
        </DataArray>
      </PointData>
      <Lines>
        <DataArray type="Int32" Name="connectivity" format="ascii">
      0      1
      1      2
      2      3
      3      4
      4      5
      5      6
      6      7
      7      8
      8      9
      9     10
     10     11
     11     12
     12     13
     13     14
     14     15
     15     16
     16     17
     17     18
        </DataArray>
        <DataArray type="Int32" Name="offsets" format="ascii">
      2
      4
      6
      8
     10
     12
     14
     16
     18
     20
     22
     24
     26
     28
     30
     32
     34
     36
        </DataArray>
      </Lines>
    </Piece>
  </PolyData>
</VTKFile>
