<?xml version="1.0"?>
<VTKFile type="PolyData" version="0.1" byte_order="LittleEndian">
  <PolyData>
    <Piece NumberOfPoints="     19" NumberOfVerts="  0" NumberOfLines="     18"
           NumberOfStrips="  0" NumberOfPolys="      0">
      <Points>
        <DataArray type="Float32" NumberOfComponents="3" format="ascii">
                      -5.01189                       1.29537                      90.74805
                      -5.01274                       2.47755                      91.43384
                      -5.02970                       4.79436                      92.88775
                      -5.05397                       7.08933                      94.37985
                      -5.08886                       9.94602                      96.26658
                      -5.08927                      13.44924                      98.40035
                      -5.07618                      17.02000                     100.41639
                      -5.06642                      20.59395                     102.42667
                      -5.05780                      24.17189                     104.42976
                      -5.05108                      27.75262                     106.42773
                      -5.04733                      31.33401                     108.42433
                      -5.04594                      34.91657                     110.41869
                      -5.04752                      38.50002                     112.41134
                      -5.05271                      42.08409                     114.40278
                      -5.05964                      45.66862                     116.39332
                      -5.06658                      48.65607                     118.05154
                      -5.07353                      51.05003                     119.37089
                      -5.08611                      53.47114                     120.64215
                      -5.08997                      54.66130                     121.31381
        </DataArray>
      </Points>
      <PointData>
        <DataArray type="Float32" Name="TranslationalVelocity" NumberOfComponents="3" format="ascii">
                      -0.00040                      -0.01439                       0.03542
                       0.00243                      -0.03316                       0.06777
                       0.00810                      -0.07293                       0.13120
                       0.01396                      -0.11376                       0.19410
                       0.02170                      -0.16546                       0.27250
                       0.03203                      -0.22416                       0.36884
                       0.04369                      -0.27979                       0.46727
                       0.05682                      -0.33539                       0.56602
                       0.07168                      -0.39092                       0.66510
                       0.08847                      -0.44641                       0.76447
                       0.10739                      -0.50194                       0.86401
                       0.12856                      -0.55746                       0.96370
                       0.15203                      -0.61296                       1.06349
                       0.17777                      -0.66841                       1.16333
                       0.20565                      -0.72380                       1.26317
                       0.23037                      -0.76991                       1.34633
                       0.25093                      -0.80656                       1.41294
                       0.27208                      -0.84181                       1.48029
                       0.28278                      -0.86045                       1.51336
        </DataArray>
        <DataArray type="Float32" Name="RotationalVelocity" NumberOfComponents="3" format="ascii">
                       0.02736                      -0.00003                      -0.00240
                       0.02737                      -0.00002                      -0.00241
                       0.02739                       0.00002                      -0.00247
                       0.02742                       0.00007                      -0.00255
                       0.02746                       0.00015                      -0.00269
                       0.02752                       0.00029                      -0.00290
                       0.02759                       0.00047                      -0.00316
                       0.02765                       0.00068                      -0.00347
                       0.02771                       0.00093                      -0.00383
                       0.02776                       0.00122                      -0.00423
                       0.02780                       0.00152                      -0.00466
                       0.02783                       0.00185                      -0.00512
                       0.02784                       0.00218                      -0.00559
                       0.02784                       0.00251                      -0.00604
                       0.02783                       0.00280                      -0.00645
                       0.02782                       0.00300                      -0.00674
                       0.02781                       0.00311                      -0.00692
                       0.02780                       0.00318                      -0.00702
                       0.02779                       0.00318                      -0.00704
        </DataArray>
        <DataArray type="Float32" Name="TranslationalAcceleration" NumberOfComponents="3" format="ascii">
                      -0.02108                      -0.01399                      -0.00134
                      -0.00673                      -0.00486                      -0.00126
                      -0.01644                      -0.01219                      -0.00361
                      -0.02261                      -0.01697                      -0.00572
                      -0.02776                      -0.02053                      -0.00816
                      -0.03215                      -0.02280                      -0.01076
                      -0.03525                      -0.02426                      -0.01306
                      -0.03569                      -0.02579                      -0.01505
                      -0.03029                      -0.02793                      -0.01665
                      -0.01445                      -0.03088                      -0.01779
                       0.01751                      -0.03457                      -0.01848
                       0.07200                      -0.03871                      -0.01879
                       0.15582                      -0.04288                      -0.01893
                       0.27583                      -0.04658                      -0.01925
                       0.43862                      -0.04935                      -0.02036
                       0.61228                      -0.05065                      -0.02253
                       0.77685                      -0.05091                      -0.02547
                       0.96482                      -0.05031                      -0.02968
                       1.06937                      -0.04980                      -0.03265
        </DataArray>
        <DataArray type="Float32" Name="OrientationX" NumberOfComponents="3" format="ascii">
                       0.98772                      -0.07789                       0.13545
                       0.98772                      -0.07786                       0.13547
                       0.98772                      -0.07778                       0.13552
                       0.98772                      -0.07766                       0.13559
                       0.98772                      -0.07747                       0.13570
                       0.99220                      -0.06150                       0.10846
                       0.99480                      -0.04988                       0.08878
                       0.99664                      -0.03971                       0.07157
                       0.99816                      -0.02897                       0.05333
                       0.99924                      -0.01795                       0.03451
                       0.99983                      -0.00752                       0.01669
                       1.00000                       0.00280                      -0.00101
                       0.99978                       0.01216                      -0.01707
                       0.99939                       0.01928                      -0.02925
                       0.99880                       0.02625                      -0.04124
                       0.99817                       0.03204                      -0.05128
                       0.99761                       0.03633                      -0.05875
                       0.99728                       0.03862                      -0.06275
                       0.99728                       0.03863                      -0.06275
        </DataArray>
        <DataArray type="Float32" Name="OrientationY" NumberOfComponents="3" format="ascii">
                       0.15625                       0.49361                      -0.85553
                       0.15625                       0.49347                      -0.85562
                       0.15625                       0.49308                      -0.85584
                       0.15625                       0.49260                      -0.85611
                       0.15626                       0.49193                      -0.85650
                       0.12468                       0.49328                      -0.86089
                       0.10184                       0.49369                      -0.86365
                       0.08184                       0.49378                      -0.86572
                       0.06068                       0.49379                      -0.86746
                       0.03888                       0.49367                      -0.86878
                       0.01823                       0.49341                      -0.86961
                      -0.00226                       0.49302                      -0.87002
                      -0.02085                       0.49252                      -0.87005
                      -0.03495                       0.49201                      -0.86989
                      -0.04882                       0.49147                      -0.86953
                      -0.06041                       0.49098                      -0.86908
                      -0.06902                       0.49059                      -0.86865
                      -0.07363                       0.49035                      -0.86841
                      -0.07363                       0.49033                      -0.86842
        </DataArray>
        <DataArray type="Float32" Name="OrientationZ" NumberOfComponents="3" format="ascii">
                      -0.00022                       0.86619                       0.49972
                      -0.00023                       0.86627                       0.49957
                      -0.00025                       0.86650                       0.49918
                      -0.00031                       0.86678                       0.49869
                      -0.00040                       0.86718                       0.49799
                      -0.00056                       0.86770                       0.49709
                      -0.00075                       0.86820                       0.49621
                      -0.00097                       0.86868                       0.49538
                      -0.00120                       0.86910                       0.49464
                      -0.00144                       0.86946                       0.49400
                      -0.00169                       0.86977                       0.49346
                      -0.00194                       0.87002                       0.49302
                      -0.00217                       0.87022                       0.49267
                      -0.00238                       0.87038                       0.49238
                      -0.00256                       0.87050                       0.49216
                      -0.00267                       0.87058                       0.49201
                      -0.00274                       0.87063                       0.49192
                      -0.00277                       0.87067                       0.49186
                      -0.00278                       0.87068                       0.49184
        </DataArray>
        <DataArray type="Float32" Name="Force" NumberOfComponents="3" format="ascii">
                       2.89341                     -19.14549                      33.18726
                      -0.03004                     -19.12795                      33.15561
                      -0.07127                     -20.42358                      35.40143
                      -0.08451                     -15.16685                      26.28956
                      33.64881                      -4.84408                       8.41346
                      27.17808                      -3.36508                       5.85075
                      20.57936                      -2.42262                       4.21737
                      17.35884                      -1.52382                       2.66153
                      13.87651                      -1.10862                       1.94241
                       5.53611                      -0.81859                       1.42917
                       5.18651                      -0.62315                       1.09184
                      -8.38222                      -0.51778                       0.87470
                     -11.95251                      -0.48448                       0.80255
                     -14.00354                      -0.40196                       0.64799
                     -15.34232                      -0.40868                       0.65012
                     -16.02187                      -0.46389                       0.73990
                     -15.72785                      -0.46623                       0.74334
                     -11.18923                      -0.32565                       0.51771
                       0.15855                      -0.17787                       0.30888
        </DataArray>
        <DataArray type="Float32" Name="Moment" NumberOfComponents="3" format="ascii">
                       0.00000                       0.00000                       0.00000
                       0.00000                       0.00000                       0.00000
                       0.00000                       0.00000                       0.00000
                       0.00000                       0.00000                       0.00000
                       0.01754                     -60.24285                     -34.75519
                       0.01850                     -48.48363                     -27.97147
                       0.01803                     -35.21700                     -20.31800
                       0.02183                     -32.23983                     -18.60083
                       0.02111                     -24.21420                     -13.97084
                       0.00987                      -9.06364                      -5.22961
                       0.01042                      -7.89484                      -4.55538
                      -0.01840                      11.81430                       6.81719
                      -0.02790                      15.60594                       9.00539
                      -0.03362                      16.79695                       9.69297
                      -0.03661                      16.76388                       9.67415
                      -0.03702                      16.07469                       9.27660
                      -0.03369                      14.22607                       8.20985
                      -0.01653                       6.88246                       3.97188
                       0.00019                      -0.08105                      -0.04677
        </DataArray>
      </PointData>
      <Lines>
        <DataArray type="Int32" Name="connectivity" format="ascii">
      0      1
      1      2
      2      3
      3      4
      4      5
      5      6
      6      7
      7      8
      8      9
      9     10
     10     11
     11     12
     12     13
     13     14
     14     15
     15     16
     16     17
     17     18
        </DataArray>
        <DataArray type="Int32" Name="offsets" format="ascii">
      2
      4
      6
      8
     10
     12
     14
     16
     18
     20
     22
     24
     26
     28
     30
     32
     34
     36
        </DataArray>
      </Lines>
    </Piece>
  </PolyData>
</VTKFile>
