<?xml version="1.0"?>
<VTKFile type="PolyData" version="0.1" byte_order="LittleEndian">
  <PolyData>
    <Piece NumberOfPoints="     19" NumberOfVerts="  0" NumberOfLines="     18"
           NumberOfStrips="  0" NumberOfPolys="      0">
      <Points>
        <DataArray type="Float32" NumberOfComponents="3" format="ascii">
                      -5.04147                       1.42809                      90.43309
                      -5.06732                       2.73499                      90.83209
                      -5.13343                       5.32096                      91.72104
                      -5.20636                       7.89425                      92.65203
                      -5.30168                      11.10411                      93.83933
                      -5.37535                      15.00045                      95.11968
                      -5.43599                      18.93613                      96.26963
                      -5.49916                      22.87365                      97.41292
                      -5.56252                      26.81349                      98.54796
                      -5.62660                      30.75494                      99.67712
                      -5.69226                      34.69675                     100.80455
                      -5.75874                      38.63923                     101.92935
                      -5.82654                      42.58219                     103.05212
                      -5.89622                      46.52548                     104.17343
                      -5.96595                      50.46906                     105.29362
                      -6.02396                      53.75560                     106.22636
                      -6.07112                      56.38710                     106.96453
                      -6.12377                      59.03399                     107.64960
                      -6.14717                      60.34586                     108.03181
        </DataArray>
      </Points>
      <PointData>
        <DataArray type="Float32" Name="TranslationalVelocity" NumberOfComponents="3" format="ascii">
                      -0.00482                      -0.02186                       0.03990
                      -0.00164                      -0.03297                       0.07651
                       0.00483                      -0.05772                       0.14898
                       0.01163                      -0.08363                       0.22113
                       0.02087                      -0.11669                       0.31123
                       0.03348                      -0.15244                       0.42076
                       0.04806                      -0.18460                       0.53160
                       0.06474                      -0.21660                       0.64270
                       0.08364                      -0.24839                       0.75405
                       0.10474                      -0.28002                       0.86563
                       0.12788                      -0.31160                       0.97736
                       0.15276                      -0.34311                       1.08922
                       0.17895                      -0.37456                       1.20118
                       0.20584                      -0.40595                       1.31322
                       0.23266                      -0.43732                       1.42531
                       0.25427                      -0.46347                       1.51877
                       0.27063                      -0.48418                       1.59365
                       0.28582                      -0.50339                       1.66902
                       0.29280                      -0.51416                       1.70639
        </DataArray>
        <DataArray type="Float32" Name="RotationalVelocity" NumberOfComponents="3" format="ascii">
                       0.02801                      -0.00006                      -0.00243
                       0.02802                      -0.00005                      -0.00245
                       0.02803                      -0.00002                      -0.00255
                       0.02805                       0.00003                      -0.00270
                       0.02808                       0.00011                      -0.00295
                       0.02813                       0.00023                      -0.00334
                       0.02818                       0.00038                      -0.00379
                       0.02823                       0.00054                      -0.00429
                       0.02827                       0.00070                      -0.00480
                       0.02831                       0.00085                      -0.00529
                       0.02834                       0.00099                      -0.00574
                       0.02836                       0.00109                      -0.00610
                       0.02837                       0.00117                      -0.00635
                       0.02838                       0.00119                      -0.00645
                       0.02840                       0.00116                      -0.00637
                       0.02842                       0.00109                      -0.00614
                       0.02844                       0.00100                      -0.00582
                       0.02848                       0.00088                      -0.00539
                       0.02850                       0.00081                      -0.00513
        </DataArray>
        <DataArray type="Float32" Name="TranslationalAcceleration" NumberOfComponents="3" format="ascii">
                       0.02060                      -0.00418                      -0.00703
                       0.00468                      -0.00188                      -0.00383
                       0.00890                      -0.00484                      -0.01053
                       0.00443                      -0.00705                      -0.01620
                      -0.01587                      -0.00927                      -0.02264
                      -0.06299                      -0.01163                      -0.02979
                      -0.13417                      -0.01410                      -0.03677
                      -0.22604                      -0.01693                      -0.04359
                      -0.33189                      -0.02028                      -0.04987
                      -0.44260                      -0.02426                      -0.05507
                      -0.54691                      -0.02884                      -0.05865
                      -0.63172                      -0.03383                      -0.06021
                      -0.68255                      -0.03892                      -0.05961
                      -0.68380                      -0.04360                      -0.05716
                      -0.61918                      -0.04721                      -0.05374
                      -0.50136                      -0.04883                      -0.05136
                      -0.36042                      -0.04886                      -0.05071
                      -0.17233                      -0.04724                      -0.05205
                      -0.05890                      -0.04591                      -0.05396
        </DataArray>
        <DataArray type="Float32" Name="OrientationX" NumberOfComponents="3" format="ascii">
                       0.98876                      -0.02545                       0.14734
                       0.98876                      -0.02543                       0.14735
                       0.98876                      -0.02537                       0.14737
                       0.98875                      -0.02527                       0.14740
                       0.98875                      -0.02513                       0.14744
                       0.99298                      -0.01580                       0.11722
                       0.99540                      -0.00908                       0.09535
                       0.99709                      -0.00326                       0.07619
                       0.99843                       0.00282                       0.05589
                       0.99935                       0.00899                       0.03496
                       0.99978                       0.01475                       0.01511
                       0.99978                       0.02039                      -0.00459
                       0.99942                       0.02542                      -0.02247
                       0.99893                       0.02915                      -0.03605
                       0.99824                       0.03279                      -0.04940
                       0.99752                       0.03583                      -0.06056
                       0.99690                       0.03809                      -0.06884
                       0.99654                       0.03926                      -0.07328
                       0.99654                       0.03922                      -0.07328
        </DataArray>
        <DataArray type="Float32" Name="OrientationY" NumberOfComponents="3" format="ascii">
                       0.14837                       0.28915                      -0.94571
                       0.14837                       0.28898                      -0.94577
                       0.14838                       0.28851                      -0.94591
                       0.14839                       0.28792                      -0.94609
                       0.14841                       0.28709                      -0.94634
                       0.11681                       0.28668                      -0.95088
                       0.09396                       0.28591                      -0.95364
                       0.07396                       0.28505                      -0.95566
                       0.05279                       0.28416                      -0.95732
                       0.03098                       0.28327                      -0.95854
                       0.01034                       0.28238                      -0.95925
                      -0.01014                       0.28149                      -0.95951
                      -0.02870                       0.28063                      -0.95939
                      -0.04277                       0.27990                      -0.95907
                      -0.05661                       0.27920                      -0.95856
                      -0.06816                       0.27862                      -0.95798
                      -0.07674                       0.27819                      -0.95746
                      -0.08133                       0.27793                      -0.95715
                      -0.08133                       0.27791                      -0.95716
        </DataArray>
        <DataArray type="Float32" Name="OrientationZ" NumberOfComponents="3" format="ascii">
                      -0.01854                       0.95694                       0.28968
                      -0.01853                       0.95700                       0.28950
                      -0.01852                       0.95714                       0.28903
                      -0.01853                       0.95732                       0.28843
                      -0.01855                       0.95757                       0.28759
                      -0.01858                       0.95790                       0.28651
                      -0.01860                       0.95821                       0.28545
                      -0.01861                       0.95851                       0.28446
                      -0.01858                       0.95877                       0.28357
                      -0.01852                       0.95900                       0.28281
                      -0.01842                       0.95919                       0.28216
                      -0.01827                       0.95935                       0.28163
                      -0.01808                       0.95948                       0.28120
                      -0.01786                       0.95959                       0.28085
                      -0.01763                       0.95967                       0.28056
                      -0.01745                       0.95973                       0.28037
                      -0.01732                       0.95977                       0.28025
                      -0.01721                       0.95980                       0.28016
                      -0.01718                       0.95981                       0.28014
        </DataArray>
        <DataArray type="Float32" Name="Force" NumberOfComponents="3" format="ascii">
                       1.04734                      -3.61539                      12.01029
                      -0.78033                      -3.65463                      12.02312
                      -0.85667                      -3.81644                      12.55310
                      -0.65438                      -2.77024                       9.11006
                       5.37680                      -0.58550                       2.27522
                       2.52585                      -0.36809                       1.37567
                       0.46619                      -0.29554                       1.00574
                      -1.93668                      -0.16439                       0.42173
                      -5.20909                      -0.07435                      -0.07908
                      -6.78851                      -0.05337                      -0.24391
                      -8.38977                      -0.06316                      -0.30608
                      -8.94975                      -0.05981                      -0.34558
                      -7.68078                      -0.10702                      -0.10662
                      -6.34584                      -0.14259                       0.09633
                      -5.18977                      -0.16411                       0.24034
                      -4.35057                      -0.17303                       0.32172
                      -3.64445                      -0.16860                       0.34948
                      -2.30241                      -0.11758                       0.25823
                       0.02453                      -0.01498                       0.05092
        </DataArray>
        <DataArray type="Float32" Name="Moment" NumberOfComponents="3" format="ascii">
                       0.00000                       0.00000                       0.00000
                       0.00000                       0.00000                       0.00000
                       0.00000                       0.00000                       0.00000
                       0.00000                       0.00000                       0.00000
                       0.20953                     -10.91562                      -3.30414
                       0.09914                      -5.18272                      -1.56877
                       0.01992                      -1.04518                      -0.31636
                      -0.07304                       3.84960                       1.16519
                      -0.18792                       9.95941                       3.01441
                      -0.22802                      12.17017                       3.68340
                      -0.26110                      14.06052                       4.25532
                      -0.25603                      13.93836                       4.21811
                      -0.19614                      10.81622                       3.27305
                      -0.14136                       7.90768                       2.39273
                      -0.09931                       5.63918                       1.70619
                      -0.07243                       4.16280                       1.25942
                      -0.05231                       3.03204                       0.91728
                      -0.02160                       1.26028                       0.38126
                       0.00023                      -0.01366                      -0.00413
        </DataArray>
      </PointData>
      <Lines>
        <DataArray type="Int32" Name="connectivity" format="ascii">
      0      1
      1      2
      2      3
      3      4
      4      5
      5      6
      6      7
      7      8
      8      9
      9     10
     10     11
     11     12
     12     13
     13     14
     14     15
     15     16
     16     17
     17     18
        </DataArray>
        <DataArray type="Int32" Name="offsets" format="ascii">
      2
      4
      6
      8
     10
     12
     14
     16
     18
     20
     22
     24
     26
     28
     30
     32
     34
     36
        </DataArray>
      </Lines>
    </Piece>
  </PolyData>
</VTKFile>
