<?xml version="1.0"?>
<VTKFile type="PolyData" version="0.1" byte_order="LittleEndian">
  <PolyData>
    <Piece NumberOfPoints="     22" NumberOfVerts="  0" NumberOfLines="     21"
           NumberOfStrips="  0" NumberOfPolys="      0">
      <Points>
        <DataArray type="Float32" NumberOfComponents="3" format="ascii">
                       0.00000                      -0.00001                       2.19000
                       0.00001                      -0.00006                       6.57000
                       0.00001                      -0.00017                      10.95000
                       0.00001                      -0.00032                      15.33000
                      -0.00000                      -0.00051                      19.71000
                      -0.00003                      -0.00073                      24.09000
                      -0.00008                      -0.00099                      28.47000
                      -0.00017                      -0.00129                      32.85000
                      -0.00029                      -0.00162                      37.23000
                      -0.00047                      -0.00199                      41.61000
                      -0.00071                      -0.00239                      45.99000
                      -0.00102                      -0.00282                      50.37000
                      -0.00141                      -0.00328                      54.75000
                      -0.00189                      -0.00377                      59.13000
                      -0.00246                      -0.00429                      63.51000
                      -0.00313                      -0.00483                      67.89000
                      -0.00389                      -0.00538                      72.27000
                      -0.00473                      -0.00595                      76.65000
                      -0.00563                      -0.00653                      81.03000
                      -0.00656                      -0.00712                      85.41000
                      -0.00702                      -0.00742                      87.60000
                       0.00000                       0.00000                       0.00000
        </DataArray>
      </Points>
      <PointData>
        <DataArray type="Float32" Name="TranslationalVelocity" NumberOfComponents="3" format="ascii">
                       0.00000                       0.00001                       0.00000
                       0.00004                       0.00010                       0.00000
                       0.00012                       0.00028                       0.00000
                       0.00025                       0.00052                       0.00000
                       0.00042                       0.00083                       0.00000
                       0.00064                       0.00120                       0.00000
                       0.00090                       0.00163                       0.00000
                       0.00120                       0.00213                       0.00000
                       0.00155                       0.00269                       0.00000
                       0.00193                       0.00332                       0.00000
                       0.00235                       0.00402                       0.00000
                       0.00281                       0.00479                       0.00000
                       0.00331                       0.00562                       0.00000
                       0.00385                       0.00652                       0.00000
                       0.00444                       0.00748                       0.00000
                       0.00507                       0.00850                       0.00000
                       0.00573                       0.00956                       0.00000
                       0.00643                       0.01067                       0.00000
                       0.00713                       0.01181                       0.00000
                       0.00782                       0.01298                       0.00000
                       0.00815                       0.01357                       0.00000
                       0.00000                      -0.00000                       0.00000
        </DataArray>
        <DataArray type="Float32" Name="RotationalVelocity" NumberOfComponents="3" format="ascii">
                      -0.00001                       0.00000                       0.00000
                      -0.00003                       0.00001                       0.00000
                      -0.00005                       0.00002                       0.00000
                      -0.00006                       0.00003                       0.00000
                      -0.00008                       0.00004                       0.00000
                      -0.00009                       0.00006                       0.00000
                      -0.00011                       0.00006                       0.00000
                      -0.00012                       0.00007                       0.00000
                      -0.00014                       0.00008                       0.00000
                      -0.00015                       0.00009                       0.00000
                      -0.00017                       0.00010                       0.00000
                      -0.00018                       0.00011                       0.00000
                      -0.00020                       0.00012                       0.00000
                      -0.00021                       0.00013                       0.00000
                      -0.00023                       0.00014                       0.00000
                      -0.00024                       0.00015                       0.00000
                      -0.00025                       0.00016                       0.00000
                      -0.00026                       0.00016                       0.00000
                      -0.00026                       0.00016                       0.00000
                      -0.00027                       0.00015                       0.00000
                      -0.00027                       0.00015                       0.00000
                       0.00000                      -0.00000                       0.00000
        </DataArray>
        <DataArray type="Float32" Name="TranslationalAcceleration" NumberOfComponents="3" format="ascii">
                       0.00002                       0.00000                      -0.00000
                       0.00015                       0.00002                      -0.00000
                       0.00042                       0.00005                      -0.00000
                       0.00083                       0.00010                      -0.00000
                       0.00135                       0.00015                      -0.00000
                       0.00197                       0.00020                      -0.00000
                       0.00265                       0.00026                      -0.00000
                       0.00336                       0.00031                      -0.00000
                       0.00406                       0.00036                      -0.00000
                       0.00473                       0.00040                      -0.00000
                       0.00532                       0.00043                      -0.00000
                       0.00581                       0.00043                      -0.00000
                       0.00617                       0.00042                      -0.00000
                       0.00639                       0.00038                      -0.00000
                       0.00644                       0.00030                      -0.00000
                       0.00632                       0.00020                      -0.00000
                       0.00603                       0.00006                      -0.00000
                       0.00557                      -0.00011                      -0.00000
                       0.00495                      -0.00031                      -0.00000
                       0.00420                      -0.00053                      -0.00000
                       0.00377                      -0.00065                      -0.00000
                       0.00000                      -0.00000                       0.00000
        </DataArray>
        <DataArray type="Float32" Name="RotationalAcceleration" NumberOfComponents="3" format="ascii">
                      -0.00000                       0.00001                       0.00000
                      -0.00001                       0.00005                       0.00000
                      -0.00001                       0.00008                       0.00000
                      -0.00001                       0.00011                       0.00000
                      -0.00001                       0.00013                       0.00000
                      -0.00001                       0.00015                       0.00000
                      -0.00001                       0.00016                       0.00000
                      -0.00001                       0.00016                       0.00000
                      -0.00001                       0.00016                       0.00000
                      -0.00001                       0.00014                       0.00000
                      -0.00000                       0.00012                       0.00000
                       0.00000                       0.00010                       0.00000
                       0.00001                       0.00007                       0.00000
                       0.00001                       0.00003                       0.00000
                       0.00002                      -0.00001                       0.00000
                       0.00003                      -0.00005                       0.00000
                       0.00004                      -0.00009                       0.00000
                       0.00004                      -0.00012                       0.00000
                       0.00005                      -0.00016                       0.00000
                       0.00005                      -0.00019                       0.00000
                       0.00005                      -0.00020                       0.00000
                       0.00000                      -0.00000                       0.00000
        </DataArray>
        <DataArray type="Float32" Name="OrientationX" NumberOfComponents="3" format="ascii">
                       1.00000                       0.00000                      -0.00000
                       1.00000                       0.00000                      -0.00000
                       1.00000                       0.00000                      -0.00000
                       1.00000                      -0.00000                       0.00000
                       1.00000                      -0.00000                       0.00000
                       1.00000                      -0.00000                       0.00001
                       1.00000                      -0.00000                       0.00002
                       1.00000                      -0.00000                       0.00002
                       1.00000                      -0.00000                       0.00003
                       1.00000                      -0.00000                       0.00005
                       1.00000                      -0.00000                       0.00006
                       1.00000                      -0.00000                       0.00008
                       1.00000                      -0.00000                       0.00010
                       1.00000                      -0.00000                       0.00012
                       1.00000                      -0.00000                       0.00014
                       1.00000                      -0.00000                       0.00016
                       1.00000                      -0.00000                       0.00018
                       1.00000                      -0.00000                       0.00020
                       1.00000                      -0.00000                       0.00021
                       1.00000                      -0.00000                       0.00021
                       1.00000                      -0.00000                       0.00021
                       1.00000                      -0.00000                       0.00000
        </DataArray>
        <DataArray type="Float32" Name="OrientationY" NumberOfComponents="3" format="ascii">
                       0.00000                       1.00000                       0.00001
                       0.00000                       1.00000                       0.00002
                       0.00000                       1.00000                       0.00003
                      -0.00000                       1.00000                       0.00004
                      -0.00000                       1.00000                       0.00005
                      -0.00000                       1.00000                       0.00006
                      -0.00000                       1.00000                       0.00006
                      -0.00000                       1.00000                       0.00007
                      -0.00000                       1.00000                       0.00008
                      -0.00000                       1.00000                       0.00009
                      -0.00000                       1.00000                       0.00010
                      -0.00000                       1.00000                       0.00010
                      -0.00000                       1.00000                       0.00011
                      -0.00000                       1.00000                       0.00012
                      -0.00000                       1.00000                       0.00012
                      -0.00000                       1.00000                       0.00013
                      -0.00000                       1.00000                       0.00013
                      -0.00000                       1.00000                       0.00013
                      -0.00000                       1.00000                       0.00013
                      -0.00000                       1.00000                       0.00013
                      -0.00000                       1.00000                       0.00014
                      -0.00000                       1.00000                      -0.00000
        </DataArray>
        <DataArray type="Float32" Name="OrientationZ" NumberOfComponents="3" format="ascii">
                       0.00000                      -0.00001                       1.00000
                       0.00000                      -0.00002                       1.00000
                       0.00000                      -0.00003                       1.00000
                      -0.00000                      -0.00004                       1.00000
                      -0.00000                      -0.00005                       1.00000
                      -0.00001                      -0.00006                       1.00000
                      -0.00002                      -0.00006                       1.00000
                      -0.00002                      -0.00007                       1.00000
                      -0.00003                      -0.00008                       1.00000
                      -0.00005                      -0.00009                       1.00000
                      -0.00006                      -0.00010                       1.00000
                      -0.00008                      -0.00010                       1.00000
                      -0.00010                      -0.00011                       1.00000
                      -0.00012                      -0.00012                       1.00000
                      -0.00014                      -0.00012                       1.00000
                      -0.00016                      -0.00013                       1.00000
                      -0.00018                      -0.00013                       1.00000
                      -0.00020                      -0.00013                       1.00000
                      -0.00021                      -0.00013                       1.00000
                      -0.00021                      -0.00013                       1.00000
                      -0.00021                      -0.00014                       1.00000
                       0.00000                      -0.00000                       1.00000
        </DataArray>
      </PointData>
      <Lines>
        <DataArray type="Int32" Name="connectivity" format="ascii">
      0      1
      1      2
      2      3
      3      4
      4      5
      5      6
      6      7
      7      8
      8      9
      9     10
     10     11
     11     12
     12     13
     13     14
     14     15
     15     16
     16     17
     17     18
     18     19
     19     20
     21      0
        </DataArray>
        <DataArray type="Int32" Name="offsets" format="ascii">
      2
      4
      6
      8
     10
     12
     14
     16
     18
     20
     22
     24
     26
     28
     30
     32
     34
     36
     38
     40
     42
        </DataArray>
      </Lines>
    </Piece>
  </PolyData>
</VTKFile>
