<?xml version="1.0"?>
<VTKFile type="PolyData" version="0.1" byte_order="LittleEndian">
  <PolyData>
    <Piece NumberOfPoints="     22" NumberOfVerts="  0" NumberOfLines="     21"
           NumberOfStrips="  0" NumberOfPolys="      0">
      <Points>
        <DataArray type="Float32" NumberOfComponents="3" format="ascii">
                       0.00000                      -0.00001                       2.19000
                       0.00002                      -0.00006                       6.57000
                       0.00005                      -0.00017                      10.95000
                       0.00008                      -0.00032                      15.33000
                       0.00011                      -0.00050                      19.71000
                       0.00013                      -0.00072                      24.09000
                       0.00013                      -0.00098                      28.47000
                       0.00010                      -0.00127                      32.85000
                       0.00002                      -0.00160                      37.23000
                      -0.00011                      -0.00196                      41.61000
                      -0.00031                      -0.00236                      45.99000
                      -0.00060                      -0.00279                      50.37000
                      -0.00099                      -0.00324                      54.75000
                      -0.00148                      -0.00373                      59.13000
                      -0.00208                      -0.00424                      63.51000
                      -0.00280                      -0.00477                      67.89000
                      -0.00363                      -0.00532                      72.27000
                      -0.00456                      -0.00589                      76.65000
                      -0.00557                      -0.00646                      81.03000
                      -0.00661                      -0.00705                      85.41000
                      -0.00714                      -0.00734                      87.60000
                       0.00000                       0.00000                       0.00000
        </DataArray>
      </Points>
      <PointData>
        <DataArray type="Float32" Name="TranslationalVelocity" NumberOfComponents="3" format="ascii">
                       0.00000                       0.00001                       0.00000
                       0.00004                       0.00007                       0.00000
                       0.00011                       0.00019                       0.00000
                       0.00022                       0.00035                       0.00000
                       0.00037                       0.00056                       0.00000
                       0.00056                       0.00082                       0.00000
                       0.00078                       0.00112                       0.00000
                       0.00103                       0.00148                       0.00000
                       0.00131                       0.00189                       0.00000
                       0.00162                       0.00236                       0.00000
                       0.00194                       0.00288                       0.00000
                       0.00230                       0.00347                       0.00000
                       0.00267                       0.00413                       0.00000
                       0.00306                       0.00485                       0.00000
                       0.00348                       0.00563                       0.00000
                       0.00392                       0.00648                       0.00000
                       0.00437                       0.00738                       0.00000
                       0.00483                       0.00833                       0.00000
                       0.00529                       0.00932                       0.00000
                       0.00574                       0.01034                       0.00000
                       0.00595                       0.01087                       0.00000
                       0.00000                      -0.00000                       0.00000
        </DataArray>
        <DataArray type="Float32" Name="RotationalVelocity" NumberOfComponents="3" format="ascii">
                      -0.00001                       0.00000                       0.00000
                      -0.00002                       0.00001                       0.00000
                      -0.00003                       0.00002                       0.00000
                      -0.00004                       0.00003                       0.00000
                      -0.00005                       0.00004                       0.00000
                      -0.00006                       0.00005                       0.00000
                      -0.00008                       0.00005                       0.00000
                      -0.00009                       0.00006                       0.00000
                      -0.00010                       0.00007                       0.00000
                      -0.00011                       0.00007                       0.00000
                      -0.00013                       0.00008                       0.00000
                      -0.00014                       0.00008                       0.00000
                      -0.00016                       0.00009                       0.00000
                      -0.00017                       0.00009                       0.00000
                      -0.00019                       0.00010                       0.00000
                      -0.00020                       0.00010                       0.00000
                      -0.00021                       0.00010                       0.00000
                      -0.00022                       0.00011                       0.00000
                      -0.00023                       0.00010                       0.00000
                      -0.00024                       0.00010                       0.00000
                      -0.00024                       0.00009                       0.00000
                       0.00000                      -0.00000                       0.00000
        </DataArray>
        <DataArray type="Float32" Name="TranslationalAcceleration" NumberOfComponents="3" format="ascii">
                       0.00001                       0.00000                      -0.00000
                       0.00007                       0.00003                      -0.00000
                       0.00019                       0.00007                      -0.00000
                       0.00036                       0.00014                      -0.00000
                       0.00056                       0.00021                      -0.00000
                       0.00077                       0.00030                      -0.00000
                       0.00096                       0.00039                      -0.00000
                       0.00112                       0.00048                      -0.00000
                       0.00120                       0.00057                      -0.00000
                       0.00119                       0.00066                      -0.00000
                       0.00104                       0.00073                      -0.00000
                       0.00073                       0.00080                      -0.00000
                       0.00024                       0.00084                      -0.00000
                      -0.00046                       0.00086                      -0.00000
                      -0.00139                       0.00086                      -0.00000
                      -0.00254                       0.00082                      -0.00000
                      -0.00392                       0.00076                      -0.00000
                      -0.00550                       0.00066                      -0.00000
                      -0.00724                       0.00054                      -0.00000
                      -0.00909                       0.00039                      -0.00000
                      -0.01003                       0.00031                      -0.00000
                       0.00000                      -0.00000                       0.00000
        </DataArray>
        <DataArray type="Float32" Name="RotationalAcceleration" NumberOfComponents="3" format="ascii">
                      -0.00000                       0.00001                       0.00000
                      -0.00001                       0.00002                       0.00000
                      -0.00001                       0.00003                       0.00000
                      -0.00002                       0.00004                       0.00000
                      -0.00002                       0.00005                       0.00000
                      -0.00002                       0.00005                       0.00000
                      -0.00002                       0.00004                       0.00000
                      -0.00002                       0.00003                       0.00000
                      -0.00002                       0.00001                       0.00000
                      -0.00002                      -0.00002                       0.00000
                      -0.00002                      -0.00005                       0.00000
                      -0.00001                      -0.00009                       0.00000
                      -0.00001                      -0.00014                       0.00000
                      -0.00000                      -0.00019                       0.00000
                       0.00000                      -0.00024                       0.00000
                       0.00001                      -0.00029                       0.00000
                       0.00002                      -0.00034                       0.00000
                       0.00003                      -0.00038                       0.00000
                       0.00003                      -0.00041                       0.00000
                       0.00004                      -0.00043                       0.00000
                       0.00004                      -0.00043                       0.00000
                       0.00000                      -0.00000                       0.00000
        </DataArray>
        <DataArray type="Float32" Name="OrientationX" NumberOfComponents="3" format="ascii">
                       1.00000                       0.00000                      -0.00000
                       1.00000                       0.00000                      -0.00001
                       1.00000                       0.00000                      -0.00001
                       1.00000                       0.00000                      -0.00001
                       1.00000                       0.00000                      -0.00001
                       1.00000                       0.00000                      -0.00000
                       1.00000                      -0.00000                       0.00000
                       1.00000                      -0.00000                       0.00001
                       1.00000                      -0.00000                       0.00002
                       1.00000                      -0.00000                       0.00004
                       1.00000                      -0.00000                       0.00006
                       1.00000                      -0.00000                       0.00008
                       1.00000                      -0.00000                       0.00010
                       1.00000                      -0.00000                       0.00012
                       1.00000                      -0.00000                       0.00015
                       1.00000                      -0.00000                       0.00018
                       1.00000                      -0.00000                       0.00020
                       1.00000                      -0.00000                       0.00022
                       1.00000                      -0.00000                       0.00024
                       1.00000                      -0.00000                       0.00024
                       1.00000                      -0.00000                       0.00024
                       1.00000                      -0.00000                       0.00000
        </DataArray>
        <DataArray type="Float32" Name="OrientationY" NumberOfComponents="3" format="ascii">
                       0.00000                       1.00000                       0.00001
                       0.00000                       1.00000                       0.00002
                       0.00000                       1.00000                       0.00003
                       0.00000                       1.00000                       0.00004
                       0.00000                       1.00000                       0.00005
                       0.00000                       1.00000                       0.00005
                      -0.00000                       1.00000                       0.00006
                      -0.00000                       1.00000                       0.00007
                      -0.00000                       1.00000                       0.00008
                      -0.00000                       1.00000                       0.00009
                      -0.00000                       1.00000                       0.00009
                      -0.00000                       1.00000                       0.00010
                      -0.00000                       1.00000                       0.00011
                      -0.00000                       1.00000                       0.00011
                      -0.00000                       1.00000                       0.00012
                      -0.00000                       1.00000                       0.00012
                      -0.00000                       1.00000                       0.00013
                      -0.00000                       1.00000                       0.00013
                      -0.00000                       1.00000                       0.00013
                      -0.00000                       1.00000                       0.00013
                      -0.00000                       1.00000                       0.00013
                      -0.00000                       1.00000                      -0.00000
        </DataArray>
        <DataArray type="Float32" Name="OrientationZ" NumberOfComponents="3" format="ascii">
                       0.00000                      -0.00001                       1.00000
                       0.00001                      -0.00002                       1.00000
                       0.00001                      -0.00003                       1.00000
                       0.00001                      -0.00004                       1.00000
                       0.00001                      -0.00005                       1.00000
                       0.00000                      -0.00005                       1.00000
                      -0.00000                      -0.00006                       1.00000
                      -0.00001                      -0.00007                       1.00000
                      -0.00002                      -0.00008                       1.00000
                      -0.00004                      -0.00009                       1.00000
                      -0.00006                      -0.00009                       1.00000
                      -0.00008                      -0.00010                       1.00000
                      -0.00010                      -0.00011                       1.00000
                      -0.00012                      -0.00011                       1.00000
                      -0.00015                      -0.00012                       1.00000
                      -0.00018                      -0.00012                       1.00000
                      -0.00020                      -0.00013                       1.00000
                      -0.00022                      -0.00013                       1.00000
                      -0.00024                      -0.00013                       1.00000
                      -0.00024                      -0.00013                       1.00000
                      -0.00024                      -0.00013                       1.00000
                       0.00000                      -0.00000                       1.00000
        </DataArray>
      </PointData>
      <Lines>
        <DataArray type="Int32" Name="connectivity" format="ascii">
      0      1
      1      2
      2      3
      3      4
      4      5
      5      6
      6      7
      7      8
      8      9
      9     10
     10     11
     11     12
     12     13
     13     14
     14     15
     15     16
     16     17
     17     18
     18     19
     19     20
     21      0
        </DataArray>
        <DataArray type="Int32" Name="offsets" format="ascii">
      2
      4
      6
      8
     10
     12
     14
     16
     18
     20
     22
     24
     26
     28
     30
     32
     34
     36
     38
     40
     42
        </DataArray>
      </Lines>
    </Piece>
  </PolyData>
</VTKFile>
