<?xml version="1.0"?>
<VTKFile type="PolyData" version="0.1" byte_order="LittleEndian">
  <PolyData>
    <Piece NumberOfPoints="     22" NumberOfVerts="  0" NumberOfLines="     21"
           NumberOfStrips="  0" NumberOfPolys="      0">
      <Points>
        <DataArray type="Float32" NumberOfComponents="3" format="ascii">
                      -0.00000                      -0.00001                       2.19000
                      -0.00001                      -0.00007                       6.57000
                      -0.00004                      -0.00017                      10.95000
                      -0.00010                      -0.00032                      15.33000
                      -0.00019                      -0.00051                      19.71000
                      -0.00032                      -0.00073                      24.09000
                      -0.00050                      -0.00099                      28.47000
                      -0.00073                      -0.00129                      32.85000
                      -0.00103                      -0.00162                      37.23000
                      -0.00140                      -0.00198                      41.61000
                      -0.00187                      -0.00238                      45.99000
                      -0.00243                      -0.00281                      50.37000
                      -0.00311                      -0.00326                      54.75000
                      -0.00391                      -0.00375                      59.13000
                      -0.00484                      -0.00426                      63.51000
                      -0.00590                      -0.00478                      67.89000
                      -0.00709                      -0.00533                      72.27000
                      -0.00837                      -0.00589                      76.65000
                      -0.00974                      -0.00645                      81.03000
                      -0.01113                      -0.00702                      85.41000
                      -0.01182                      -0.00731                      87.60000
                       0.00000                       0.00000                       0.00000
        </DataArray>
      </Points>
      <PointData>
        <DataArray type="Float32" Name="TranslationalVelocity" NumberOfComponents="3" format="ascii">
                       0.00001                       0.00001                       0.00000
                       0.00008                       0.00006                       0.00000
                       0.00022                       0.00016                       0.00000
                       0.00044                       0.00030                       0.00000
                       0.00072                       0.00048                       0.00000
                       0.00106                       0.00070                       0.00000
                       0.00145                       0.00096                       0.00000
                       0.00187                       0.00125                       0.00000
                       0.00231                       0.00158                       0.00000
                       0.00275                       0.00196                       0.00000
                       0.00319                       0.00238                       0.00000
                       0.00361                       0.00284                       0.00000
                       0.00400                       0.00334                       0.00000
                       0.00436                       0.00389                       0.00000
                       0.00468                       0.00448                       0.00000
                       0.00496                       0.00510                       0.00000
                       0.00520                       0.00576                       0.00000
                       0.00538                       0.00644                       0.00000
                       0.00551                       0.00715                       0.00000
                       0.00558                       0.00788                       0.00000
                       0.00560                       0.00825                       0.00000
                       0.00000                      -0.00000                       0.00000
        </DataArray>
        <DataArray type="Float32" Name="RotationalVelocity" NumberOfComponents="3" format="ascii">
                      -0.00001                       0.00001                       0.00000
                      -0.00002                       0.00002                       0.00000
                      -0.00003                       0.00004                       0.00000
                      -0.00004                       0.00006                       0.00000
                      -0.00005                       0.00007                       0.00000
                      -0.00005                       0.00008                       0.00000
                      -0.00006                       0.00009                       0.00000
                      -0.00007                       0.00010                       0.00000
                      -0.00008                       0.00010                       0.00000
                      -0.00009                       0.00010                       0.00000
                      -0.00010                       0.00010                       0.00000
                      -0.00011                       0.00009                       0.00000
                      -0.00012                       0.00009                       0.00000
                      -0.00013                       0.00008                       0.00000
                      -0.00014                       0.00007                       0.00000
                      -0.00015                       0.00006                       0.00000
                      -0.00015                       0.00005                       0.00000
                      -0.00016                       0.00004                       0.00000
                      -0.00016                       0.00002                       0.00000
                      -0.00017                       0.00001                       0.00000
                      -0.00017                       0.00000                       0.00000
                       0.00000                      -0.00000                       0.00000
        </DataArray>
        <DataArray type="Float32" Name="TranslationalAcceleration" NumberOfComponents="3" format="ascii">
                      -0.00004                       0.00001                      -0.00000
                      -0.00033                       0.00010                      -0.00000
                      -0.00092                       0.00025                      -0.00000
                      -0.00178                       0.00046                      -0.00000
                      -0.00288                       0.00071                      -0.00000
                      -0.00415                       0.00099                      -0.00000
                      -0.00552                       0.00130                      -0.00000
                      -0.00690                       0.00161                      -0.00000
                      -0.00821                       0.00191                      -0.00000
                      -0.00936                       0.00220                      -0.00000
                      -0.01026                       0.00245                      -0.00000
                      -0.01085                       0.00265                      -0.00000
                      -0.01103                       0.00278                      -0.00000
                      -0.01077                       0.00284                      -0.00000
                      -0.01002                       0.00281                      -0.00000
                      -0.00877                       0.00267                      -0.00000
                      -0.00700                       0.00242                      -0.00000
                      -0.00476                       0.00208                       0.00000
                      -0.00209                       0.00163                       0.00000
                       0.00092                       0.00111                       0.00000
                       0.00251                       0.00083                       0.00000
                       0.00000                      -0.00000                       0.00000
        </DataArray>
        <DataArray type="Float32" Name="RotationalAcceleration" NumberOfComponents="3" format="ascii">
                      -0.00001                      -0.00003                       0.00000
                      -0.00003                      -0.00010                       0.00000
                      -0.00004                      -0.00017                       0.00000
                      -0.00005                      -0.00023                       0.00000
                      -0.00006                      -0.00027                       0.00000
                      -0.00007                      -0.00030                       0.00000
                      -0.00007                      -0.00032                       0.00000
                      -0.00007                      -0.00031                       0.00000
                      -0.00007                      -0.00028                       0.00000
                      -0.00006                      -0.00024                       0.00000
                      -0.00005                      -0.00017                       0.00000
                      -0.00004                      -0.00009                       0.00000
                      -0.00002                       0.00001                       0.00000
                      -0.00000                       0.00011                       0.00000
                       0.00002                       0.00023                       0.00000
                       0.00004                       0.00035                       0.00000
                       0.00007                       0.00046                       0.00000
                       0.00009                       0.00056                       0.00000
                       0.00011                       0.00065                       0.00000
                       0.00013                       0.00072                       0.00000
                       0.00013                       0.00074                       0.00000
                       0.00000                      -0.00000                       0.00000
        </DataArray>
        <DataArray type="Float32" Name="OrientationX" NumberOfComponents="3" format="ascii">
                       1.00000                      -0.00000                       0.00000
                       1.00000                      -0.00000                       0.00000
                       1.00000                      -0.00000                       0.00001
                       1.00000                      -0.00000                       0.00002
                       1.00000                      -0.00000                       0.00002
                       1.00000                      -0.00000                       0.00003
                       1.00000                      -0.00000                       0.00005
                       1.00000                      -0.00000                       0.00006
                       1.00000                      -0.00000                       0.00008
                       1.00000                      -0.00000                       0.00010
                       1.00000                      -0.00000                       0.00012
                       1.00000                      -0.00000                       0.00014
                       1.00000                      -0.00000                       0.00017
                       1.00000                      -0.00000                       0.00020
                       1.00000                      -0.00000                       0.00023
                       1.00000                      -0.00000                       0.00026
                       1.00000                      -0.00000                       0.00028
                       1.00000                      -0.00000                       0.00030
                       1.00000                      -0.00000                       0.00032
                       1.00000                      -0.00000                       0.00032
                       1.00000                      -0.00000                       0.00031
                       1.00000                      -0.00000                       0.00000
        </DataArray>
        <DataArray type="Float32" Name="OrientationY" NumberOfComponents="3" format="ascii">
                      -0.00000                       1.00000                       0.00001
                      -0.00000                       1.00000                       0.00002
                      -0.00000                       1.00000                       0.00003
                      -0.00000                       1.00000                       0.00004
                      -0.00000                       1.00000                       0.00005
                      -0.00000                       1.00000                       0.00006
                      -0.00000                       1.00000                       0.00006
                      -0.00000                       1.00000                       0.00007
                      -0.00000                       1.00000                       0.00008
                      -0.00000                       1.00000                       0.00009
                      -0.00000                       1.00000                       0.00009
                      -0.00000                       1.00000                       0.00010
                      -0.00000                       1.00000                       0.00011
                      -0.00000                       1.00000                       0.00011
                      -0.00000                       1.00000                       0.00012
                      -0.00000                       1.00000                       0.00012
                      -0.00000                       1.00000                       0.00013
                      -0.00000                       1.00000                       0.00013
                      -0.00000                       1.00000                       0.00013
                      -0.00000                       1.00000                       0.00013
                      -0.00000                       1.00000                       0.00013
                      -0.00000                       1.00000                      -0.00000
        </DataArray>
        <DataArray type="Float32" Name="OrientationZ" NumberOfComponents="3" format="ascii">
                      -0.00000                      -0.00001                       1.00000
                      -0.00000                      -0.00002                       1.00000
                      -0.00001                      -0.00003                       1.00000
                      -0.00002                      -0.00004                       1.00000
                      -0.00002                      -0.00005                       1.00000
                      -0.00003                      -0.00006                       1.00000
                      -0.00005                      -0.00006                       1.00000
                      -0.00006                      -0.00007                       1.00000
                      -0.00008                      -0.00008                       1.00000
                      -0.00010                      -0.00009                       1.00000
                      -0.00012                      -0.00009                       1.00000
                      -0.00014                      -0.00010                       1.00000
                      -0.00017                      -0.00011                       1.00000
                      -0.00020                      -0.00011                       1.00000
                      -0.00023                      -0.00012                       1.00000
                      -0.00026                      -0.00012                       1.00000
                      -0.00028                      -0.00013                       1.00000
                      -0.00030                      -0.00013                       1.00000
                      -0.00032                      -0.00013                       1.00000
                      -0.00032                      -0.00013                       1.00000
                      -0.00031                      -0.00013                       1.00000
                       0.00000                      -0.00000                       1.00000
        </DataArray>
      </PointData>
      <Lines>
        <DataArray type="Int32" Name="connectivity" format="ascii">
      0      1
      1      2
      2      3
      3      4
      4      5
      5      6
      6      7
      7      8
      8      9
      9     10
     10     11
     11     12
     12     13
     13     14
     14     15
     15     16
     16     17
     17     18
     18     19
     19     20
     21      0
        </DataArray>
        <DataArray type="Int32" Name="offsets" format="ascii">
      2
      4
      6
      8
     10
     12
     14
     16
     18
     20
     22
     24
     26
     28
     30
     32
     34
     36
     38
     40
     42
        </DataArray>
      </Lines>
    </Piece>
  </PolyData>
</VTKFile>
