<?xml version="1.0"?>
<VTKFile type="PolyData" version="0.1" byte_order="LittleEndian">
  <PolyData>
    <Piece NumberOfPoints="     19" NumberOfVerts="  0" NumberOfLines="     18"
           NumberOfStrips="  0" NumberOfPolys="      0">
      <Points>
        <DataArray type="Float32" NumberOfComponents="3" format="ascii">
                      -4.94845                      -0.27037                      91.47505
                      -4.89182                      -0.50795                      92.81973
                      -4.80221                      -1.07640                      95.49376
                      -4.72363                      -1.68925                      98.16048
                      -4.63166                      -2.48219                     101.48948
                      -4.46551                      -3.29398                     105.50615
                      -4.27229                      -3.97883                     109.54379
                      -4.08007                      -4.66209                     113.58176
                      -3.88626                      -5.34194                     117.62026
                      -3.69166                      -6.02018                     121.65902
                      -3.49757                      -6.70029                     125.69748
                      -3.30324                      -7.38067                     129.73588
                      -3.10934                      -8.06122                     133.77429
                      -2.91665                      -8.74185                     137.81274
                      -2.72353                      -9.42265                     141.85117
                      -2.56228                      -9.99009                     145.21655
                      -2.43320                     -10.43633                     147.91017
                      -2.30415                     -10.82847                     150.61336
                      -2.24086                     -11.06562                     151.95773
        </DataArray>
      </Points>
      <PointData>
        <DataArray type="Float32" Name="TranslationalVelocity" NumberOfComponents="3" format="ascii">
                       0.00704                      -0.01645                      -0.00389
                       0.00676                      -0.03840                      -0.00776
                       0.00602                      -0.08201                      -0.01701
                       0.00508                      -0.12550                      -0.02698
                       0.00365                      -0.17980                      -0.03988
                       0.00174                      -0.24540                      -0.05307
                      -0.00049                      -0.31139                      -0.06417
                      -0.00329                      -0.37738                      -0.07522
                      -0.00669                      -0.44338                      -0.08618
                      -0.01073                      -0.50938                      -0.09708
                      -0.01541                      -0.57537                      -0.10797
                      -0.02072                      -0.64135                      -0.11884
                      -0.02664                      -0.70732                      -0.12968
                      -0.03315                      -0.77329                      -0.14049
                      -0.04019                      -0.83927                      -0.15128
                      -0.04644                      -0.89426                      -0.16025
                      -0.05164                      -0.93828                      -0.16730
                      -0.05692                      -0.98247                      -0.17346
                      -0.05969                      -1.00446                      -0.17720
        </DataArray>
        <DataArray type="Float32" Name="RotationalVelocity" NumberOfComponents="3" format="ascii">
                       0.01626                       0.00006                      -0.00143
                       0.01626                       0.00005                      -0.00143
                       0.01626                       0.00001                      -0.00144
                       0.01627                      -0.00003                      -0.00145
                       0.01627                      -0.00011                      -0.00146
                       0.01627                      -0.00022                      -0.00148
                       0.01627                      -0.00035                      -0.00151
                       0.01627                      -0.00049                      -0.00154
                       0.01626                      -0.00063                      -0.00158
                       0.01626                      -0.00078                      -0.00163
                       0.01625                      -0.00093                      -0.00168
                       0.01625                      -0.00107                      -0.00175
                       0.01624                      -0.00121                      -0.00182
                       0.01624                      -0.00134                      -0.00190
                       0.01624                      -0.00146                      -0.00198
                       0.01624                      -0.00154                      -0.00204
                       0.01624                      -0.00160                      -0.00208
                       0.01624                      -0.00164                      -0.00212
                       0.01624                      -0.00166                      -0.00213
        </DataArray>
        <DataArray type="Float32" Name="TranslationalAcceleration" NumberOfComponents="3" format="ascii">
                       0.02472                       0.02006                       0.00381
                       0.00845                       0.00422                       0.00041
                       0.02091                       0.00914                       0.00049
                       0.02812                       0.01033                      -0.00025
                       0.03145                       0.00817                      -0.00193
                       0.02902                       0.00224                      -0.00424
                       0.02138                      -0.00520                      -0.00636
                       0.00957                      -0.01241                      -0.00820
                      -0.00585                      -0.01834                      -0.00957
                      -0.02471                      -0.02236                      -0.01037
                      -0.04710                      -0.02423                      -0.01057
                      -0.07321                      -0.02395                      -0.01018
                      -0.10319                      -0.02172                      -0.00928
                      -0.13694                      -0.01780                      -0.00795
                      -0.17405                      -0.01244                      -0.00626
                      -0.20692                      -0.00697                      -0.00464
                      -0.23380                      -0.00198                      -0.00324
                      -0.26058                       0.00364                      -0.00185
                      -0.27367                       0.00672                      -0.00105
        </DataArray>
        <DataArray type="Float32" Name="OrientationX" NumberOfComponents="3" format="ascii">
                       0.96875                      -0.23403                      -0.08212
                       0.96875                      -0.23403                      -0.08215
                       0.96875                      -0.23402                      -0.08224
                       0.96874                      -0.23401                      -0.08236
                       0.96872                      -0.23400                      -0.08257
                       0.97600                      -0.20336                      -0.07783
                       0.98063                      -0.18117                      -0.07449
                       0.98423                      -0.16172                      -0.07161
                       0.98762                      -0.14112                      -0.06852
                       0.99064                      -0.11987                      -0.06532
                       0.99306                      -0.09973                      -0.06229
                       0.99506                      -0.07971                      -0.05925
                       0.99650                      -0.06154                      -0.05651
                       0.99737                      -0.04774                      -0.05448
                       0.99804                      -0.03415                      -0.05244
                       0.99846                      -0.02277                      -0.05068
                       0.99868                      -0.01430                      -0.04934
                       0.99877                      -0.00978                      -0.04864
                       0.99877                      -0.00979                      -0.04867
        </DataArray>
        <DataArray type="Float32" Name="OrientationY" NumberOfComponents="3" format="ascii">
                       0.24443                       0.95702                       0.15612
                       0.24444                       0.95701                       0.15615
                       0.24444                       0.95699                       0.15623
                       0.24446                       0.95698                       0.15632
                       0.24449                       0.95695                       0.15645
                       0.21353                       0.96388                       0.15918
                       0.19112                       0.96826                       0.16110
                       0.17149                       0.97165                       0.16273
                       0.15070                       0.97482                       0.16436
                       0.12924                       0.97763                       0.16594
                       0.10890                       0.97986                       0.16736
                       0.08869                       0.98167                       0.16869
                       0.07033                       0.98296                       0.16984
                       0.05641                       0.98371                       0.17068
                       0.04268                       0.98426                       0.17147
                       0.03119                       0.98459                       0.17210
                       0.02263                       0.98474                       0.17255
                       0.01806                       0.98479                       0.17278
                       0.01808                       0.98479                       0.17279
        </DataArray>
        <DataArray type="Float32" Name="OrientationZ" NumberOfComponents="3" format="ascii">
                       0.04205                      -0.17132                       0.98432
                       0.04207                      -0.17135                       0.98431
                       0.04214                      -0.17145                       0.98429
                       0.04224                      -0.17157                       0.98427
                       0.04240                      -0.17175                       0.98423
                       0.04265                      -0.17198                       0.98418
                       0.04294                      -0.17222                       0.98412
                       0.04326                      -0.17244                       0.98407
                       0.04360                      -0.17265                       0.98402
                       0.04397                      -0.17283                       0.98397
                       0.04434                      -0.17298                       0.98393
                       0.04472                      -0.17311                       0.98389
                       0.04509                      -0.17322                       0.98385
                       0.04544                      -0.17331                       0.98382
                       0.04576                      -0.17337                       0.98379
                       0.04598                      -0.17341                       0.98378
                       0.04612                      -0.17344                       0.98376
                       0.04621                      -0.17345                       0.98376
                       0.04624                      -0.17345                       0.98376
        </DataArray>
        <DataArray type="Float32" Name="Force" NumberOfComponents="3" format="ascii">
                      -1.20499                    -149.92410                     -26.04253
                      -1.20655                    -150.23785                     -26.09709
                      -1.31481                    -164.11223                     -28.50736
                      -0.99553                    -124.65878                     -21.65427
                     199.45951                     -73.93979                     -21.46378
                     189.19315                     -58.63887                     -18.40664
                     168.83659                     -46.40065                     -15.44451
                     193.30637                     -36.11751                     -14.78632
                     214.73472                     -26.90632                     -14.20142
                     171.47046                     -20.04524                     -11.15352
                     143.71615                     -13.49197                      -8.82748
                     107.72519                      -9.17869                      -6.49587
                      73.91890                      -7.77504                      -4.74254
                      53.65014                      -6.63476                      -3.63408
                      36.11088                      -5.60054                      -2.65527
                      23.36083                      -4.81147                      -1.92996
                      14.51437                      -4.12114                      -1.39821
                       7.59761                      -2.72789                      -0.83199
                       7.72201                      -2.73063                      -0.83853
        </DataArray>
        <DataArray type="Float32" Name="Moment" NumberOfComponents="3" format="ascii">
                       0.00000                       0.00000                       0.00000
                       0.00000                       0.00000                       0.00000
                       0.00000                       0.00000                       0.00000
                       0.00000                       0.00000                       0.00000
                     -17.75362                      71.71580                    -412.03272
                     -16.73908                      67.22184                    -386.20479
                     -14.35302                      57.24912                    -328.90077
                     -18.13590                      71.79774                    -412.47195
                     -18.94243                      74.39305                    -427.36865
                     -14.25041                      55.50094                    -318.82810
                     -11.23759                      43.39560                    -249.28001
                      -7.89229                      30.21891                    -173.58252
                      -5.05242                      19.18571                    -110.20234
                      -3.39394                      12.78805                     -73.45204
                      -2.09582                       7.84237                     -45.04374
                      -1.25173                       4.66125                     -26.77205
                      -0.70370                       2.61261                     -15.00540
                      -0.25113                       0.93048                      -5.34414
                      -0.25537                       0.94563                      -5.43112
        </DataArray>
      </PointData>
      <Lines>
        <DataArray type="Int32" Name="connectivity" format="ascii">
      0      1
      1      2
      2      3
      3      4
      4      5
      5      6
      6      7
      7      8
      8      9
      9     10
     10     11
     11     12
     12     13
     13     14
     14     15
     15     16
     16     17
     17     18
        </DataArray>
        <DataArray type="Int32" Name="offsets" format="ascii">
      2
      4
      6
      8
     10
     12
     14
     16
     18
     20
     22
     24
     26
     28
     30
     32
     34
     36
        </DataArray>
      </Lines>
    </Piece>
  </PolyData>
</VTKFile>
