<?xml version="1.0"?>
<VTKFile type="PolyData" version="0.1" byte_order="LittleEndian">
  <PolyData>
    <Piece NumberOfPoints="     19" NumberOfVerts="  0" NumberOfLines="     18"
           NumberOfStrips="  0" NumberOfPolys="      0">
      <Points>
        <DataArray type="Float32" NumberOfComponents="3" format="ascii">
                      -5.16086                      -1.16877                      89.05206
                      -5.29691                      -2.21807                      88.18696
                      -5.59748                      -4.25485                      86.38609
                      -5.91139                      -6.26172                      84.55107
                      -6.31145                      -8.75149                      82.23583
                      -6.72863                     -11.83002                      79.55859
                      -7.11214                     -14.99007                      76.97510
                      -7.49642                     -18.14936                      74.39070
                      -7.87875                     -21.30934                      71.80670
                      -8.25997                     -24.46900                      69.22201
                      -8.64153                     -27.62625                      66.63434
                      -9.02257                     -30.78238                      64.04515
                      -9.40374                     -33.93767                      61.45488
                      -9.78582                     -37.09233                      58.86393
                     -10.16721                     -40.24649                      56.27225
                     -10.48457                     -42.87466                      54.11202
                     -10.73788                     -44.98200                      52.38960
                     -10.98842                     -47.12450                      50.70890
                     -11.11700                     -48.16872                      49.83673
        </DataArray>
      </Points>
      <PointData>
        <DataArray type="Float32" Name="TranslationalVelocity" NumberOfComponents="3" format="ascii">
                       0.00011                       0.01617                      -0.01858
                      -0.00135                       0.03022                      -0.03540
                      -0.00361                       0.05950                      -0.06813
                      -0.00505                       0.08936                      -0.10054
                      -0.00546                       0.12714                      -0.14112
                      -0.00332                       0.17101                      -0.19194
                       0.00305                       0.21365                      -0.24511
                       0.01555                       0.25670                      -0.29963
                       0.03600                       0.30014                      -0.35584
                       0.06618                       0.34401                      -0.41395
                       0.10766                       0.38831                      -0.47414
                       0.16158                       0.43296                      -0.53652
                       0.22849                       0.47787                      -0.60108
                       0.30816                       0.52291                      -0.66768
                       0.39946                       0.56797                      -0.73596
                       0.48294                       0.60541                      -0.79379
                       0.55286                       0.63511                      -0.84042
                       0.62400                       0.66384                      -0.88765
                       0.65982                       0.67868                      -0.91069
        </DataArray>
        <DataArray type="Float32" Name="RotationalVelocity" NumberOfComponents="3" format="ascii">
                       0.01601                      -0.00002                      -0.00140
                       0.01603                      -0.00006                      -0.00134
                       0.01606                      -0.00020                      -0.00119
                       0.01613                      -0.00041                      -0.00097
                       0.01625                      -0.00077                      -0.00057
                       0.01645                      -0.00140                       0.00009
                       0.01672                      -0.00227                       0.00101
                       0.01705                      -0.00344                       0.00219
                       0.01743                      -0.00492                       0.00364
                       0.01784                      -0.00673                       0.00537
                       0.01826                      -0.00884                       0.00731
                       0.01867                      -0.01118                       0.00942
                       0.01905                      -0.01365                       0.01156
                       0.01937                      -0.01607                       0.01360
                       0.01960                      -0.01821                       0.01531
                       0.01971                      -0.01958                       0.01632
                       0.01972                      -0.02023                       0.01671
                       0.01965                      -0.02033                       0.01660
                       0.01959                      -0.02013                       0.01633
        </DataArray>
        <DataArray type="Float32" Name="TranslationalAcceleration" NumberOfComponents="3" format="ascii">
                       0.01656                       0.02882                       0.00197
                       0.00495                       0.00923                       0.00036
                       0.01011                       0.02263                       0.00139
                       0.01291                       0.03061                       0.00219
                       0.01979                       0.03559                       0.00176
                       0.04069                       0.03744                      -0.00191
                       0.07983                       0.03771                      -0.00917
                       0.13758                       0.03818                      -0.01955
                       0.20995                       0.03972                      -0.03204
                       0.28961                       0.04253                      -0.04523
                       0.36624                       0.04631                      -0.05743
                       0.42716                       0.05056                      -0.06672
                       0.45760                       0.05469                      -0.07091
                       0.44108                       0.05819                      -0.06751
                       0.35949                       0.06126                      -0.05422
                       0.22581                       0.06401                      -0.03362
                       0.07210                       0.06682                      -0.01049
                      -0.11402                       0.07037                       0.01784
                      -0.24254                       0.07320                       0.03655
        </DataArray>
        <DataArray type="Float32" Name="OrientationX" NumberOfComponents="3" format="ascii">
                       0.95079                       0.11414                      -0.28804
                       0.95080                       0.11418                      -0.28801
                       0.95081                       0.11430                      -0.28791
                       0.95083                       0.11449                      -0.28777
                       0.95086                       0.11477                      -0.28755
                       0.95978                       0.09502                      -0.26417
                       0.96562                       0.08084                      -0.24706
                       0.97031                       0.06849                      -0.23197
                       0.97483                       0.05537                      -0.21596
                       0.97902                       0.04182                      -0.19941
                       0.98256                       0.02900                      -0.18367
                       0.98565                       0.01625                      -0.16800
                       0.98810                       0.00470                      -0.15373
                       0.98974                      -0.00401                      -0.14282
                       0.99116                      -0.01261                      -0.13210
                       0.99219                      -0.01985                      -0.12315
                       0.99287                      -0.02525                      -0.11651
                       0.99320                      -0.02812                      -0.11294
                       0.99321                      -0.02808                      -0.11293
        </DataArray>
        <DataArray type="Float32" Name="OrientationY" NumberOfComponents="3" format="ascii">
                       0.29366                      -0.62840                       0.72033
                       0.29365                      -0.62850                       0.72025
                       0.29362                      -0.62879                       0.72001
                       0.29358                      -0.62915                       0.71971
                       0.29352                      -0.62965                       0.71929
                       0.26298                      -0.63364                       0.72756
                       0.24078                      -0.63631                       0.73289
                       0.22130                      -0.63841                       0.73719
                       0.20063                      -0.64027                       0.74149
                       0.17929                      -0.64180                       0.74562
                       0.15903                      -0.64293                       0.74923
                       0.13888                      -0.64372                       0.75255
                       0.12057                      -0.64419                       0.75531
                       0.10666                      -0.64441                       0.75721
                       0.09295                      -0.64447                       0.75896
                       0.08148                      -0.64439                       0.76034
                       0.07295                      -0.64427                       0.76131
                       0.06839                      -0.64420                       0.76180
                       0.06840                      -0.64421                       0.76178
        </DataArray>
        <DataArray type="Float32" Name="OrientationZ" NumberOfComponents="3" format="ascii">
                      -0.09879                      -0.76947                      -0.63099
                      -0.09878                      -0.76938                      -0.63111
                      -0.09874                      -0.76913                      -0.63142
                      -0.09865                      -0.76881                      -0.63182
                      -0.09850                      -0.76835                      -0.63240
                      -0.09826                      -0.76777                      -0.63315
                      -0.09796                      -0.76719                      -0.63390
                      -0.09761                      -0.76664                      -0.63461
                      -0.09722                      -0.76615                      -0.63526
                      -0.09680                      -0.76573                      -0.63584
                      -0.09636                      -0.76538                      -0.63633
                      -0.09592                      -0.76509                      -0.63674
                      -0.09548                      -0.76486                      -0.63709
                      -0.09507                      -0.76467                      -0.63737
                      -0.09470                      -0.76453                      -0.63760
                      -0.09445                      -0.76444                      -0.63774
                      -0.09428                      -0.76438                      -0.63783
                      -0.09417                      -0.76434                      -0.63790
                      -0.09414                      -0.76433                      -0.63791
        </DataArray>
        <DataArray type="Float32" Name="Force" NumberOfComponents="3" format="ascii">
                       8.69049                     -42.35334                      50.28808
                      15.49079                     -47.38253                      55.35667
                      16.89972                     -47.93024                      55.80538
                      10.42735                     -34.39007                      40.30743
                     -28.80164                     -10.32606                      17.08208
                     -68.35105                      -4.82186                      16.50241
                     -64.14027                      -3.70339                      14.44637
                     -77.82683                      -1.32117                      13.60967
                     -34.08600                      -0.64733                       6.02020
                     -17.12670                      -0.50785                       3.23470
                       8.64843                      -0.61030                      -0.57024
                      17.85600                      -0.75994                      -1.77344
                      16.36512                      -0.81957                      -1.46328
                      16.43022                      -0.90397                      -1.35887
                      15.23343                      -0.95905                      -1.10318
                      13.71686                      -0.97522                      -0.85143
                      11.62563                      -0.92107                      -0.60334
                       5.83117                      -0.56307                      -0.17838
                       4.03266                      -0.47727                      -0.01607
        </DataArray>
        <DataArray type="Float32" Name="Moment" NumberOfComponents="3" format="ascii">
                       0.00000                       0.00000                       0.00000
                       0.00000                       0.00000                       0.00000
                       0.00000                       0.00000                       0.00000
                       0.00000                       0.00000                       0.00000
                       4.32236                      33.80612                      27.72351
                       3.82754                      30.02975                      24.62766
                       4.29430                      33.81758                      27.73548
                       4.73966                      37.48163                      30.74229
                       6.15058                      48.86105                      40.07810
                       5.72766                      45.72021                      37.50424
                       5.36205                      43.01384                      35.28652
                       4.72726                      38.11034                      31.26597
                       2.99048                      24.22592                      19.87637
                       2.53010                      20.59012                      16.89436
                       2.10072                      17.16557                      14.08524
                       1.77105                      14.51308                      11.90917
                       1.43714                      11.79777                       9.68126
                       0.65821                       5.41002                       4.43954
                       0.65072                       5.35046                       4.39068
        </DataArray>
      </PointData>
      <Lines>
        <DataArray type="Int32" Name="connectivity" format="ascii">
      0      1
      1      2
      2      3
      3      4
      4      5
      5      6
      6      7
      7      8
      8      9
      9     10
     10     11
     11     12
     12     13
     13     14
     14     15
     15     16
     16     17
     17     18
        </DataArray>
        <DataArray type="Int32" Name="offsets" format="ascii">
      2
      4
      6
      8
     10
     12
     14
     16
     18
     20
     22
     24
     26
     28
     30
     32
     34
     36
        </DataArray>
      </Lines>
    </Piece>
  </PolyData>
</VTKFile>
