<?xml version="1.0"?>
<VTKFile type="PolyData" version="0.1" byte_order="LittleEndian">
  <PolyData>
    <Piece NumberOfPoints="     19" NumberOfVerts="  0" NumberOfLines="     18"
           NumberOfStrips="  0" NumberOfPolys="      0">
      <Points>
        <DataArray type="Float32" NumberOfComponents="3" format="ascii">
                      -4.94475                      -0.09306                      91.49525
                      -4.88643                      -0.17061                      92.85848
                      -4.79249                      -0.42027                      95.58069
                      -4.70917                      -0.71479                      98.30090
                      -4.61110                      -1.10988                     101.70001
                      -4.43925                      -1.44159                     105.78426
                      -4.24194                      -1.64393                     109.87444
                      -4.04601                      -1.84409                     113.96480
                      -3.84898                      -2.04026                     118.05532
                      -3.65170                      -2.23430                     122.14595
                      -3.45552                      -2.42982                     126.23654
                      -3.25976                      -2.62528                     130.32715
                      -3.06511                      -2.82063                     134.41782
                      -2.87239                      -3.01587                     138.50858
                      -2.67992                      -3.21112                     142.59938
                      -2.51973                      -3.37382                     146.00844
                      -2.39186                      -3.49612                     148.73609
                      -2.26482                      -3.56350                     151.46684
                      -2.20216                      -3.63883                     152.82992
        </DataArray>
      </Points>
      <PointData>
        <DataArray type="Float32" Name="TranslationalVelocity" NumberOfComponents="3" format="ascii">
                       0.01118                      -0.00143                       0.00034
                       0.01142                      -0.01424                      -0.00040
                       0.01190                      -0.03983                      -0.00276
                       0.01246                      -0.06543                      -0.00555
                       0.01332                      -0.09750                      -0.00931
                       0.01485                      -0.13623                      -0.01252
                       0.01703                      -0.17522                      -0.01457
                       0.01994                      -0.21442                      -0.01663
                       0.02378                      -0.25384                      -0.01872
                       0.02876                      -0.29351                      -0.02085
                       0.03505                      -0.33340                      -0.02307
                       0.04286                      -0.37354                      -0.02537
                       0.05231                      -0.41389                      -0.02775
                       0.06352                      -0.45443                      -0.03022
                       0.07651                      -0.49514                      -0.03278
                       0.08872                      -0.52916                      -0.03498
                       0.09932                      -0.55642                      -0.03670
                       0.11064                      -0.58373                      -0.03791
                       0.11650                      -0.59737                      -0.03893
        </DataArray>
        <DataArray type="Float32" Name="RotationalVelocity" NumberOfComponents="3" format="ascii">
                       0.00936                       0.00022                      -0.00084
                       0.00936                       0.00023                      -0.00084
                       0.00938                       0.00026                      -0.00084
                       0.00939                       0.00031                      -0.00084
                       0.00942                       0.00038                      -0.00083
                       0.00946                       0.00050                      -0.00083
                       0.00951                       0.00065                      -0.00082
                       0.00956                       0.00085                      -0.00081
                       0.00962                       0.00109                      -0.00080
                       0.00968                       0.00138                      -0.00079
                       0.00973                       0.00172                      -0.00077
                       0.00979                       0.00210                      -0.00074
                       0.00984                       0.00252                      -0.00072
                       0.00988                       0.00297                      -0.00069
                       0.00992                       0.00340                      -0.00066
                       0.00994                       0.00374                      -0.00064
                       0.00995                       0.00397                      -0.00062
                       0.00995                       0.00415                      -0.00061
                       0.00995                       0.00421                      -0.00061
        </DataArray>
        <DataArray type="Float32" Name="TranslationalAcceleration" NumberOfComponents="3" format="ascii">
                      -0.01676                       0.01521                      -0.01039
                      -0.00769                       0.00422                      -0.00313
                      -0.02021                       0.01022                      -0.00768
                      -0.02892                       0.01362                      -0.01040
                      -0.03508                       0.01546                      -0.01204
                      -0.03601                       0.01567                      -0.01236
                      -0.03061                       0.01526                      -0.01209
                      -0.01936                       0.01542                      -0.01197
                      -0.00298                       0.01686                      -0.01237
                       0.01757                       0.01995                      -0.01336
                       0.04088                       0.02481                      -0.01479
                       0.06496                       0.03136                      -0.01638
                       0.08706                       0.03941                      -0.01777
                       0.10352                       0.04873                      -0.01862
                       0.10961                       0.05914                      -0.01865
                       0.10218                       0.06861                      -0.01793
                       0.08548                       0.07668                      -0.01691
                       0.05657                       0.08532                      -0.01571
                       0.03660                       0.08989                      -0.01490
        </DataArray>
        <DataArray type="Float32" Name="OrientationX" NumberOfComponents="3" format="ascii">
                       0.97114                      -0.23213                      -0.05473
                       0.97114                      -0.23213                      -0.05475
                       0.97114                      -0.23213                      -0.05481
                       0.97113                      -0.23214                      -0.05491
                       0.97112                      -0.23216                      -0.05505
                       0.97809                      -0.20111                      -0.05387
                       0.98249                      -0.17862                      -0.05306
                       0.98590                      -0.15894                      -0.05237
                       0.98907                      -0.13809                      -0.05161
                       0.99188                      -0.11658                      -0.05079
                       0.99411                      -0.09618                      -0.05000
                       0.99590                      -0.07591                      -0.04918
                       0.99717                      -0.05751                      -0.04843
                       0.99790                      -0.04353                      -0.04787
                       0.99844                      -0.02976                      -0.04729
                       0.99874                      -0.01822                      -0.04677
                       0.99888                      -0.00964                      -0.04636
                       0.99892                      -0.00505                      -0.04615
                       0.99892                      -0.00506                      -0.04617
        </DataArray>
        <DataArray type="Float32" Name="OrientationY" NumberOfComponents="3" format="ascii">
                       0.23454                       0.97117                       0.04260
                       0.23454                       0.97117                       0.04261
                       0.23455                       0.97117                       0.04264
                       0.23456                       0.97116                       0.04266
                       0.23459                       0.97116                       0.04270
                       0.20355                       0.97805                       0.04449
                       0.18108                       0.98240                       0.04577
                       0.16141                       0.98577                       0.04688
                       0.14057                       0.98890                       0.04803
                       0.11907                       0.99167                       0.04919
                       0.09869                       0.99385                       0.05026
                       0.07842                       0.99560                       0.05131
                       0.06002                       0.99683                       0.05224
                       0.04606                       0.99754                       0.05294
                       0.03229                       0.99804                       0.05361
                       0.02075                       0.99832                       0.05417
                       0.01217                       0.99844                       0.05458
                       0.00758                       0.99847                       0.05480
                       0.00759                       0.99847                       0.05480
        </DataArray>
        <DataArray type="Float32" Name="OrientationZ" NumberOfComponents="3" format="ascii">
                       0.04326                      -0.05421                       0.99759
                       0.04328                      -0.05422                       0.99759
                       0.04334                      -0.05426                       0.99759
                       0.04342                      -0.05431                       0.99758
                       0.04355                      -0.05438                       0.99757
                       0.04374                      -0.05448                       0.99756
                       0.04395                      -0.05458                       0.99754
                       0.04417                      -0.05467                       0.99753
                       0.04441                      -0.05476                       0.99751
                       0.04464                      -0.05483                       0.99750
                       0.04486                      -0.05490                       0.99748
                       0.04507                      -0.05495                       0.99747
                       0.04527                      -0.05500                       0.99746
                       0.04545                      -0.05503                       0.99745
                       0.04560                      -0.05506                       0.99744
                       0.04570                      -0.05507                       0.99744
                       0.04577                      -0.05508                       0.99743
                       0.04581                      -0.05509                       0.99743
                       0.04582                      -0.05509                       0.99743
        </DataArray>
        <DataArray type="Float32" Name="Force" NumberOfComponents="3" format="ascii">
                      -0.73643                    -156.50574                      -8.47293
                      -0.51899                    -157.10021                      -8.51467
                      -0.57712                    -172.19561                      -9.33248
                      -0.44733                    -131.24517                      -7.11278
                     204.89495                     -75.53632                     -13.04993
                     194.75391                     -59.55053                     -11.77546
                     174.15221                     -46.78527                     -10.21554
                     196.38231                     -37.04445                     -10.71006
                     216.94902                     -27.48423                     -11.15162
                     171.44038                     -20.15583                      -8.76711
                     141.12183                     -13.09945                      -7.05872
                     102.44676                     -10.01702                      -5.17382
                      66.49429                      -8.46001                      -3.47782
                      44.26592                      -7.15763                      -2.40606
                      24.90540                      -5.93380                      -1.46116
                      10.79613                      -4.96759                      -0.76470
                       1.46615                      -4.13578                      -0.29207
                      -2.29698                      -2.84364                      -0.04908
                       1.70791                      -2.84789                      -0.23325
        </DataArray>
        <DataArray type="Float32" Name="Moment" NumberOfComponents="3" format="ascii">
                       0.00000                       0.00000                       0.00000
                       0.00000                       0.00000                       0.00000
                       0.00000                       0.00000                       0.00000
                       0.00000                       0.00000                       0.00000
                     -18.67992                      23.25271                    -427.88318
                     -17.62636                      21.84670                    -402.00406
                     -15.11447                      18.64326                    -343.05077
                     -18.78598                      23.05408                    -424.20516
                     -19.46734                      23.76628                    -437.30104
                     -14.44594                      17.54521                    -322.82657
                     -11.15118                      13.47598                    -247.94906
                      -7.56048                       9.09347                    -167.31072
                      -4.56110                       5.46194                    -100.49257
                      -2.80023                       3.34020                     -61.45425
                      -1.44126                       1.71347                     -31.52465
                      -0.57654                       0.68390                     -12.58242
                      -0.07247                       0.08585                      -1.57942
                       0.07408                      -0.08767                       1.61302
                      -0.05629                       0.06660                      -1.22534
        </DataArray>
      </PointData>
      <Lines>
        <DataArray type="Int32" Name="connectivity" format="ascii">
      0      1
      1      2
      2      3
      3      4
      4      5
      5      6
      6      7
      7      8
      8      9
      9     10
     10     11
     11     12
     12     13
     13     14
     14     15
     15     16
     16     17
     17     18
        </DataArray>
        <DataArray type="Int32" Name="offsets" format="ascii">
      2
      4
      6
      8
     10
     12
     14
     16
     18
     20
     22
     24
     26
     28
     30
     32
     34
     36
        </DataArray>
      </Lines>
    </Piece>
  </PolyData>
</VTKFile>
