<?xml version="1.0"?>
<VTKFile type="PolyData" version="0.1" byte_order="LittleEndian">
  <PolyData>
    <Piece NumberOfPoints="     22" NumberOfVerts="  0" NumberOfLines="     21"
           NumberOfStrips="  0" NumberOfPolys="      0">
      <Points>
        <DataArray type="Float32" NumberOfComponents="3" format="ascii">
                      -0.00000                      -0.00001                       2.19000
                      -0.00002                      -0.00008                       6.57000
                      -0.00005                      -0.00022                      10.95000
                      -0.00012                      -0.00041                      15.33000
                      -0.00023                      -0.00066                      19.71000
                      -0.00038                      -0.00095                      24.09000
                      -0.00058                      -0.00129                      28.47000
                      -0.00083                      -0.00168                      32.85000
                      -0.00116                      -0.00211                      37.23000
                      -0.00156                      -0.00260                      41.61000
                      -0.00204                      -0.00313                      45.99000
                      -0.00263                      -0.00370                      50.37000
                      -0.00333                      -0.00432                      54.75000
                      -0.00415                      -0.00498                      59.13000
                      -0.00509                      -0.00568                      63.51000
                      -0.00616                      -0.00642                      67.89000
                      -0.00736                      -0.00718                      72.27000
                      -0.00865                      -0.00796                      76.65000
                      -0.01002                      -0.00877                      81.03000
                      -0.01141                      -0.00958                      85.41000
                      -0.01209                      -0.00999                      87.60000
                       0.00000                       0.00000                       0.00000
        </DataArray>
      </Points>
      <PointData>
        <DataArray type="Float32" Name="TranslationalVelocity" NumberOfComponents="3" format="ascii">
                      -0.00000                      -0.00001                      -0.00000
                      -0.00005                      -0.00010                      -0.00000
                      -0.00013                      -0.00026                      -0.00000
                      -0.00027                      -0.00048                      -0.00000
                      -0.00044                      -0.00077                      -0.00000
                      -0.00066                      -0.00111                      -0.00000
                      -0.00090                      -0.00151                      -0.00000
                      -0.00117                      -0.00198                      -0.00000
                      -0.00145                      -0.00250                      -0.00000
                      -0.00174                      -0.00308                      -0.00000
                      -0.00203                      -0.00373                      -0.00000
                      -0.00232                      -0.00444                      -0.00000
                      -0.00260                      -0.00521                      -0.00000
                      -0.00287                      -0.00604                      -0.00000
                      -0.00313                      -0.00693                      -0.00000
                      -0.00336                      -0.00787                      -0.00000
                      -0.00359                      -0.00885                      -0.00000
                      -0.00378                      -0.00987                      -0.00000
                      -0.00396                      -0.01092                      -0.00000
                      -0.00410                      -0.01200                      -0.00000
                      -0.00415                      -0.01255                      -0.00000
                       0.00000                      -0.00000                       0.00000
        </DataArray>
        <DataArray type="Float32" Name="RotationalVelocity" NumberOfComponents="3" format="ascii">
                       0.00001                      -0.00000                       0.00000
                       0.00003                      -0.00001                       0.00000
                       0.00004                      -0.00003                       0.00000
                       0.00006                      -0.00004                       0.00000
                       0.00007                      -0.00004                       0.00000
                       0.00009                      -0.00005                       0.00000
                       0.00010                      -0.00006                       0.00000
                       0.00011                      -0.00006                       0.00000
                       0.00013                      -0.00007                       0.00000
                       0.00014                      -0.00007                       0.00000
                       0.00015                      -0.00007                       0.00000
                       0.00017                      -0.00007                       0.00000
                       0.00018                      -0.00006                       0.00000
                       0.00020                      -0.00006                       0.00000
                       0.00021                      -0.00006                       0.00000
                       0.00022                      -0.00005                       0.00000
                       0.00023                      -0.00005                       0.00000
                       0.00024                      -0.00004                       0.00000
                       0.00024                      -0.00004                       0.00000
                       0.00025                      -0.00003                       0.00000
                       0.00025                      -0.00002                       0.00000
                       0.00000                      -0.00000                       0.00000
        </DataArray>
        <DataArray type="Float32" Name="TranslationalAcceleration" NumberOfComponents="3" format="ascii">
                       0.00002                       0.00001                       0.00000
                       0.00016                       0.00012                       0.00000
                       0.00047                       0.00032                       0.00000
                       0.00096                       0.00060                       0.00000
                       0.00161                       0.00095                       0.00000
                       0.00241                       0.00135                       0.00000
                       0.00334                       0.00182                       0.00000
                       0.00440                       0.00233                       0.00000
                       0.00554                       0.00290                       0.00000
                       0.00677                       0.00350                       0.00000
                       0.00807                       0.00414                       0.00000
                       0.00943                       0.00481                       0.00000
                       0.01083                       0.00550                       0.00000
                       0.01229                       0.00621                       0.00000
                       0.01379                       0.00692                       0.00000
                       0.01533                       0.00762                       0.00000
                       0.01689                       0.00831                       0.00000
                       0.01845                       0.00899                       0.00000
                       0.01997                       0.00965                       0.00000
                       0.02140                       0.01030                       0.00000
                       0.02206                       0.01062                       0.00000
                       0.00000                      -0.00000                       0.00000
        </DataArray>
        <DataArray type="Float32" Name="RotationalAcceleration" NumberOfComponents="3" format="ascii">
                      -0.00001                       0.00002                       0.00000
                      -0.00004                       0.00005                       0.00000
                      -0.00005                       0.00009                       0.00000
                      -0.00007                       0.00013                       0.00000
                      -0.00009                       0.00017                       0.00000
                      -0.00010                       0.00020                       0.00000
                      -0.00011                       0.00023                       0.00000
                      -0.00012                       0.00025                       0.00000
                      -0.00013                       0.00027                       0.00000
                      -0.00014                       0.00029                       0.00000
                      -0.00015                       0.00030                       0.00000
                      -0.00016                       0.00032                       0.00000
                      -0.00016                       0.00033                       0.00000
                      -0.00016                       0.00034                       0.00000
                      -0.00016                       0.00035                       0.00000
                      -0.00016                       0.00035                       0.00000
                      -0.00016                       0.00036                       0.00000
                      -0.00015                       0.00035                       0.00000
                      -0.00015                       0.00034                       0.00000
                      -0.00015                       0.00031                       0.00000
                      -0.00015                       0.00029                       0.00000
                       0.00000                      -0.00000                       0.00000
        </DataArray>
        <DataArray type="Float32" Name="OrientationX" NumberOfComponents="3" format="ascii">
                       1.00000                      -0.00000                       0.00000
                       1.00000                      -0.00000                       0.00001
                       1.00000                      -0.00000                       0.00001
                       1.00000                      -0.00000                       0.00002
                       1.00000                      -0.00000                       0.00003
                       1.00000                      -0.00000                       0.00004
                       1.00000                      -0.00000                       0.00005
                       1.00000                      -0.00000                       0.00007
                       1.00000                      -0.00000                       0.00008
                       1.00000                      -0.00000                       0.00010
                       1.00000                      -0.00000                       0.00012
                       1.00000                      -0.00000                       0.00015
                       1.00000                      -0.00000                       0.00017
                       1.00000                      -0.00000                       0.00020
                       1.00000                      -0.00000                       0.00023
                       1.00000                      -0.00000                       0.00026
                       1.00000                      -0.00000                       0.00028
                       1.00000                      -0.00000                       0.00031
                       1.00000                      -0.00000                       0.00032
                       1.00000                      -0.00000                       0.00032
                       1.00000                      -0.00000                       0.00031
                       1.00000                      -0.00000                       0.00000
        </DataArray>
        <DataArray type="Float32" Name="OrientationY" NumberOfComponents="3" format="ascii">
                      -0.00000                       1.00000                       0.00001
                      -0.00000                       1.00000                       0.00002
                      -0.00000                       1.00000                       0.00004
                      -0.00000                       1.00000                       0.00005
                      -0.00000                       1.00000                       0.00006
                      -0.00000                       1.00000                       0.00007
                      -0.00000                       1.00000                       0.00008
                      -0.00000                       1.00000                       0.00009
                      -0.00000                       1.00000                       0.00010
                      -0.00000                       1.00000                       0.00012
                      -0.00000                       1.00000                       0.00013
                      -0.00000                       1.00000                       0.00014
                      -0.00000                       1.00000                       0.00015
                      -0.00000                       1.00000                       0.00016
                      -0.00000                       1.00000                       0.00016
                      -0.00000                       1.00000                       0.00017
                      -0.00000                       1.00000                       0.00018
                      -0.00000                       1.00000                       0.00018
                      -0.00000                       1.00000                       0.00018
                      -0.00000                       1.00000                       0.00019
                      -0.00000                       1.00000                       0.00019
                      -0.00000                       1.00000                      -0.00000
        </DataArray>
        <DataArray type="Float32" Name="OrientationZ" NumberOfComponents="3" format="ascii">
                      -0.00000                      -0.00001                       1.00000
                      -0.00001                      -0.00002                       1.00000
                      -0.00001                      -0.00004                       1.00000
                      -0.00002                      -0.00005                       1.00000
                      -0.00003                      -0.00006                       1.00000
                      -0.00004                      -0.00007                       1.00000
                      -0.00005                      -0.00008                       1.00000
                      -0.00007                      -0.00009                       1.00000
                      -0.00008                      -0.00010                       1.00000
                      -0.00010                      -0.00012                       1.00000
                      -0.00012                      -0.00013                       1.00000
                      -0.00015                      -0.00014                       1.00000
                      -0.00017                      -0.00015                       1.00000
                      -0.00020                      -0.00016                       1.00000
                      -0.00023                      -0.00016                       1.00000
                      -0.00026                      -0.00017                       1.00000
                      -0.00028                      -0.00018                       1.00000
                      -0.00031                      -0.00018                       1.00000
                      -0.00032                      -0.00018                       1.00000
                      -0.00032                      -0.00019                       1.00000
                      -0.00031                      -0.00019                       1.00000
                       0.00000                      -0.00000                       1.00000
        </DataArray>
      </PointData>
      <Lines>
        <DataArray type="Int32" Name="connectivity" format="ascii">
      0      1
      1      2
      2      3
      3      4
      4      5
      5      6
      6      7
      7      8
      8      9
      9     10
     10     11
     11     12
     12     13
     13     14
     14     15
     15     16
     16     17
     17     18
     18     19
     19     20
     21      0
        </DataArray>
        <DataArray type="Int32" Name="offsets" format="ascii">
      2
      4
      6
      8
     10
     12
     14
     16
     18
     20
     22
     24
     26
     28
     30
     32
     34
     36
     38
     40
     42
        </DataArray>
      </Lines>
    </Piece>
  </PolyData>
</VTKFile>
