<?xml version="1.0"?>
<VTKFile type="PolyData" version="0.1" byte_order="LittleEndian">
  <PolyData>
    <Piece NumberOfPoints="     19" NumberOfVerts="  0" NumberOfLines="     18"
           NumberOfStrips="  0" NumberOfPolys="      0">
      <Points>
        <DataArray type="Float32" NumberOfComponents="3" format="ascii">
                      -4.95889                      -0.68158                      91.33603
                      -4.91336                      -1.30228                      92.55278
                      -4.84823                      -2.62809                      94.94434
                      -4.79519                      -3.99437                      97.31574
                      -4.73574                      -5.72716                     100.26750
                      -4.60496                      -7.68182                     103.87044
                      -4.44367                      -9.52321                     107.52978
                      -4.28290                     -11.36445                     111.18925
                      -4.11992                     -13.20383                     114.84962
                      -3.95540                     -15.04285                     118.51016
                      -3.79066                     -16.88448                     122.16939
                      -3.62477                     -18.72715                     125.82808
                      -3.45832                     -20.57057                     129.48639
                      -3.29203                     -22.41454                     133.14445
                      -3.12425                     -24.25902                     136.80222
                      -2.98330                     -25.79645                     139.85019
                      -2.86978                     -27.01956                     142.29201
                      -2.75455                     -28.19394                     144.75882
                      -2.69905                     -28.81828                     145.97319
        </DataArray>
      </Points>
      <PointData>
        <DataArray type="Float32" Name="TranslationalVelocity" NumberOfComponents="3" format="ascii">
                      -0.01031                      -0.04239                      -0.01764
                      -0.01181                      -0.07272                      -0.03306
                      -0.01492                      -0.13230                      -0.06600
                      -0.01792                      -0.19140                      -0.09998
                      -0.02125                      -0.26504                      -0.14314
                      -0.02415                      -0.35519                      -0.19193
                      -0.02576                      -0.44696                      -0.23803
                      -0.02632                      -0.53886                      -0.28423
                      -0.02592                      -0.63086                      -0.33046
                      -0.02477                      -0.72288                      -0.37673
                      -0.02318                      -0.81482                      -0.42306
                      -0.02151                      -0.90664                      -0.46936
                      -0.02016                      -0.99829                      -0.51559
                      -0.01961                      -1.08974                      -0.56170
                      -0.02035                      -1.18098                      -0.60766
                      -0.02237                      -1.25686                      -0.64583
                      -0.02505                      -1.31757                      -0.67612
                      -0.02874                      -1.37887                      -0.70512
                      -0.03118                      -1.40904                      -0.72052
        </DataArray>
        <DataArray type="Float32" Name="RotationalVelocity" NumberOfComponents="3" format="ascii">
                       0.02484                      -0.00016                      -0.00215
                       0.02484                      -0.00015                      -0.00214
                       0.02486                      -0.00010                      -0.00212
                       0.02488                      -0.00002                      -0.00207
                       0.02492                       0.00012                      -0.00200
                       0.02496                       0.00031                      -0.00187
                       0.02501                       0.00052                      -0.00174
                       0.02504                       0.00074                      -0.00161
                       0.02506                       0.00093                      -0.00151
                       0.02506                       0.00110                      -0.00148
                       0.02505                       0.00121                      -0.00153
                       0.02501                       0.00126                      -0.00166
                       0.02496                       0.00122                      -0.00188
                       0.02489                       0.00109                      -0.00217
                       0.02483                       0.00085                      -0.00250
                       0.02478                       0.00056                      -0.00275
                       0.02475                       0.00026                      -0.00291
                       0.02474                      -0.00011                      -0.00298
                       0.02475                      -0.00032                      -0.00298
        </DataArray>
        <DataArray type="Float32" Name="TranslationalAcceleration" NumberOfComponents="3" format="ascii">
                      -0.00212                      -0.01710                      -0.00325
                      -0.00130                      -0.00478                      -0.00174
                      -0.00191                      -0.01084                      -0.00437
                       0.00090                      -0.01351                      -0.00632
                       0.00948                      -0.01413                      -0.00841
                       0.02461                      -0.01268                      -0.01098
                       0.04086                      -0.01033                      -0.01372
                       0.05310                      -0.00766                      -0.01623
                       0.05454                      -0.00432                      -0.01782
                       0.03751                       0.00059                      -0.01759
                      -0.00626                       0.00831                      -0.01452
                      -0.08513                       0.02003                      -0.00767
                      -0.20720                       0.03668                       0.00367
                      -0.37992                       0.05856                       0.01985
                      -0.60962                       0.08491                       0.04077
                      -0.84929                       0.10892                       0.06141
                      -1.07211                       0.12803                       0.07925
                      -1.32339                       0.14565                       0.09734
                      -1.46036                       0.15324                       0.10659
        </DataArray>
        <DataArray type="Float32" Name="OrientationX" NumberOfComponents="3" format="ascii">
                       0.96278                      -0.22449                      -0.15051
                       0.96278                      -0.22447                      -0.15055
                       0.96277                      -0.22442                      -0.15067
                       0.96276                      -0.22434                      -0.15085
                       0.96275                      -0.22422                      -0.15114
                       0.97078                      -0.19643                      -0.13781
                       0.97596                      -0.17622                      -0.12828
                       0.98004                      -0.15848                      -0.12000
                       0.98393                      -0.13969                      -0.11120
                       0.98747                      -0.12029                      -0.10210
                       0.99039                      -0.10187                      -0.09350
                       0.99287                      -0.08356                      -0.08495
                       0.99477                      -0.06691                      -0.07722
                       0.99597                      -0.05422                      -0.07146
                       0.99696                      -0.04172                      -0.06575
                       0.99765                      -0.03128                      -0.06089
                       0.99808                      -0.02353                      -0.05725
                       0.99828                      -0.01937                      -0.05535
                       0.99828                      -0.01935                      -0.05542
        </DataArray>
        <DataArray type="Float32" Name="OrientationY" NumberOfComponents="3" format="ascii">
                       0.26813                       0.86339                       0.42739
                       0.26813                       0.86335                       0.42747
                       0.26815                       0.86325                       0.42766
                       0.26817                       0.86313                       0.42790
                       0.26821                       0.86294                       0.42824
                       0.23743                       0.86942                       0.43329
                       0.21513                       0.87347                       0.43678
                       0.19559                       0.87660                       0.43968
                       0.17488                       0.87955                       0.44250
                       0.15349                       0.88221                       0.44514
                       0.13321                       0.88435                       0.44743
                       0.11303                       0.88611                       0.44947
                       0.09471                       0.88740                       0.45116
                       0.08081                       0.88817                       0.45236
                       0.06709                       0.88876                       0.45343
                       0.05561                       0.88914                       0.45424
                       0.04705                       0.88935                       0.45479
                       0.04249                       0.88943                       0.45508
                       0.04250                       0.88943                       0.45509
        </DataArray>
        <DataArray type="Float32" Name="OrientationZ" NumberOfComponents="3" format="ascii">
                       0.03400                      -0.45184                       0.89145
                       0.03402                      -0.45192                       0.89141
                       0.03409                      -0.45214                       0.89129
                       0.03421                      -0.45242                       0.89115
                       0.03440                      -0.45283                       0.89093
                       0.03471                      -0.45335                       0.89066
                       0.03508                      -0.45388                       0.89037
                       0.03551                      -0.45438                       0.89010
                       0.03600                      -0.45483                       0.88985
                       0.03653                      -0.45524                       0.88962
                       0.03711                      -0.45558                       0.88942
                       0.03772                      -0.45587                       0.88925
                       0.03833                      -0.45611                       0.88910
                       0.03895                      -0.45631                       0.88897
                       0.03952                      -0.45646                       0.88887
                       0.03993                      -0.45656                       0.88880
                       0.04021                      -0.45662                       0.88875
                       0.04041                      -0.45665                       0.88873
                       0.04048                      -0.45666                       0.88872
        </DataArray>
        <DataArray type="Float32" Name="Force" NumberOfComponents="3" format="ascii">
                      -2.02357                    -110.60072                     -55.98239
                      -2.01222                    -110.48509                     -55.92429
                      -2.16628                    -119.92437                     -60.70314
                      -1.62545                     -90.51626                     -45.81809
                     165.62384                     -58.25126                     -35.92673
                     156.38559                     -46.83358                     -29.84062
                     138.69716                     -37.50407                     -24.48371
                     159.22015                     -28.65012                     -20.88691
                     181.21240                     -21.13037                     -18.05731
                     144.82586                     -16.02567                     -14.08496
                     121.73933                     -11.19109                     -10.76499
                      91.89370                      -7.41403                      -7.66598
                      63.78935                      -5.60184                      -5.59764
                      46.82634                      -4.74870                      -4.46460
                      32.34610                      -3.96930                      -3.45454
                      21.99532                      -3.37362                      -2.70170
                      14.78175                      -2.86118                      -2.12156
                       8.26091                      -1.87689                      -1.32853
                       8.29141                      -1.87225                      -1.32822
        </DataArray>
        <DataArray type="Float32" Name="Moment" NumberOfComponents="3" format="ascii">
                       0.00000                       0.00000                       0.00000
                       0.00000                       0.00000                       0.00000
                       0.00000                       0.00000                       0.00000
                       0.00000                       0.00000                       0.00000
                     -12.03966                     157.93222                    -311.57317
                     -11.33652                     147.30991                    -290.60787
                      -9.70572                     124.70565                    -246.00548
                     -12.27424                     155.70378                    -307.14156
                     -13.26077                     165.86552                    -327.17045
                     -10.05519                     123.87857                    -244.33780
                      -8.00908                      97.10847                    -191.52546
                      -5.70847                      68.08619                    -134.27717
                      -3.72645                      43.72072                     -86.21915
                      -2.55329                      29.48388                     -58.13997
                      -1.63139                      18.56497                     -36.60664
                      -1.03069                      11.60554                     -22.88300
                      -0.62963                       7.04084                     -13.88226
                      -0.24077                       2.67877                      -5.28156
                      -0.24206                       2.68851                      -5.30072
        </DataArray>
      </PointData>
      <Lines>
        <DataArray type="Int32" Name="connectivity" format="ascii">
      0      1
      1      2
      2      3
      3      4
      4      5
      5      6
      6      7
      7      8
      8      9
      9     10
     10     11
     11     12
     12     13
     13     14
     14     15
     15     16
     16     17
     17     18
        </DataArray>
        <DataArray type="Int32" Name="offsets" format="ascii">
      2
      4
      6
      8
     10
     12
     14
     16
     18
     20
     22
     24
     26
     28
     30
     32
     34
     36
        </DataArray>
      </Lines>
    </Piece>
  </PolyData>
</VTKFile>
