<?xml version="1.0"?>
<VTKFile type="PolyData" version="0.1" byte_order="LittleEndian">
  <PolyData>
    <Piece NumberOfPoints="     19" NumberOfVerts="  0" NumberOfLines="     18"
           NumberOfStrips="  0" NumberOfPolys="      0">
      <Points>
        <DataArray type="Float32" NumberOfComponents="3" format="ascii">
                      -5.18720                      -0.73078                      88.70027
                      -5.35126                      -1.39172                      87.51530
                      -5.70564                      -2.62985                      85.10211
                      -6.07241                      -3.82784                      82.66820
                      -6.53817                      -5.30057                      79.61302
                      -7.03835                      -7.19217                      76.00856
                      -7.50910                      -9.19599                      72.46282
                      -7.98215                     -11.20012                      68.91752
                      -8.45542                     -13.20638                      65.37336
                      -8.93025                     -15.21331                      61.82973
                      -9.40860                     -17.21796                      58.28523
                      -9.89018                     -19.22193                      54.74075
                     -10.37611                     -21.22544                      51.19657
                     -10.86755                     -23.22863                      47.65295
                     -11.36310                     -25.23152                      44.10973
                     -11.77937                     -26.90037                      41.15735
                     -12.11429                     -28.24213                      38.79950
                     -12.44969                     -29.63178                      36.46835
                     -12.62040                     -30.28992                      35.28289
        </DataArray>
      </Points>
      <PointData>
        <DataArray type="Float32" Name="TranslationalVelocity" NumberOfComponents="3" format="ascii">
                      -0.00918                       0.03345                      -0.01968
                      -0.01052                       0.06458                      -0.03686
                      -0.01290                       0.12798                      -0.06904
                      -0.01505                       0.19190                      -0.10018
                      -0.01746                       0.27206                      -0.13847
                      -0.02025                       0.36642                      -0.18764
                      -0.02275                       0.45910                      -0.23972
                      -0.02449                       0.55171                      -0.29187
                      -0.02521                       0.64427                      -0.34419
                      -0.02455                       0.73684                      -0.39672
                      -0.02207                       0.82948                      -0.44947
                      -0.01722                       0.92222                      -0.50257
                      -0.00938                       1.01506                      -0.55613
                       0.00224                       1.10800                      -0.61029
                       0.01850                       1.20103                      -0.66515
                       0.03647                       1.27859                      -0.71153
                       0.05402                       1.34054                      -0.74928
                       0.07451                       1.40176                      -0.78872
                       0.08638                       1.43288                      -0.80770
        </DataArray>
        <DataArray type="Float32" Name="RotationalVelocity" NumberOfComponents="3" format="ascii">
                       0.02596                      -0.00015                      -0.00227
                       0.02596                      -0.00015                      -0.00226
                       0.02594                      -0.00018                      -0.00225
                       0.02592                      -0.00023                      -0.00223
                       0.02590                      -0.00031                      -0.00222
                       0.02587                      -0.00044                      -0.00220
                       0.02585                      -0.00061                      -0.00218
                       0.02584                      -0.00084                      -0.00218
                       0.02584                      -0.00116                      -0.00219
                       0.02584                      -0.00160                      -0.00220
                       0.02586                      -0.00218                      -0.00221
                       0.02588                      -0.00293                      -0.00221
                       0.02591                      -0.00388                      -0.00220
                       0.02595                      -0.00503                      -0.00215
                       0.02598                      -0.00638                      -0.00205
                       0.02600                      -0.00764                      -0.00192
                       0.02601                      -0.00873                      -0.00177
                       0.02601                      -0.00987                      -0.00158
                       0.02601                      -0.01046                      -0.00147
        </DataArray>
        <DataArray type="Float32" Name="TranslationalAcceleration" NumberOfComponents="3" format="ascii">
                       0.00154                      -0.02534                       0.00325
                      -0.00077                      -0.00739                       0.00212
                       0.00226                      -0.01797                       0.00516
                       0.00591                      -0.02375                       0.00742
                       0.00538                      -0.02586                       0.01011
                      -0.00398                      -0.02240                       0.01304
                      -0.01442                      -0.01378                       0.01389
                      -0.00715                      -0.00028                       0.00959
                       0.04404                       0.01844                      -0.00403
                       0.17050                       0.04314                      -0.03173
                       0.40614                       0.07452                      -0.07851
                       0.78495                       0.11303                      -0.14914
                       1.33840                       0.15839                      -0.24788
                       2.09296                       0.20928                      -0.37810
                       3.06766                       0.26327                      -0.54132
                       4.05895                       0.30771                      -0.70303
                       4.96221                       0.34043                      -0.84757
                       5.96146                       0.36766                      -1.00573
                       6.49529                       0.37896                      -1.08823
        </DataArray>
        <DataArray type="Float32" Name="OrientationX" NumberOfComponents="3" format="ascii">
                       0.95558                       0.18048                      -0.23302
                       0.95558                       0.18050                      -0.23300
                       0.95559                       0.18053                      -0.23294
                       0.95560                       0.18059                      -0.23285
                       0.95561                       0.18068                      -0.23273
                       0.96373                       0.15339                      -0.21838
                       0.96897                       0.13364                      -0.20792
                       0.97312                       0.11630                      -0.19878
                       0.97706                       0.09788                      -0.18914
                       0.98064                       0.07883                      -0.17926
                       0.98357                       0.06071                      -0.16999
                       0.98605                       0.04265                      -0.16087
                       0.98792                       0.02618                      -0.15272
                       0.98908                       0.01359                      -0.14674
                       0.99003                       0.00115                      -0.14089
                       0.99067                      -0.00925                      -0.13597
                       0.99106                      -0.01698                      -0.13230
                       0.99122                      -0.02118                      -0.13048
                       0.99120                      -0.02125                      -0.13064
        </DataArray>
        <DataArray type="Float32" Name="OrientationY" NumberOfComponents="3" format="ascii">
                       0.26949                      -0.85518                       0.44276
                       0.26948                      -0.85522                       0.44269
                       0.26946                      -0.85534                       0.44248
                       0.26943                      -0.85548                       0.44223
                       0.26939                      -0.85568                       0.44187
                       0.23874                      -0.86126                       0.44860
                       0.21648                      -0.86481                       0.45303
                       0.19697                      -0.86755                       0.45668
                       0.17628                      -0.87004                       0.46039
                       0.15494                      -0.87215                       0.46406
                       0.13471                      -0.87374                       0.46737
                       0.11460                      -0.87492                       0.47051
                       0.09636                      -0.87566                       0.47322
                       0.08253                      -0.87601                       0.47517
                       0.06891                      -0.87618                       0.47704
                       0.05750                      -0.87617                       0.47856
                       0.04902                      -0.87609                       0.47966
                       0.04449                      -0.87602                       0.48022
                       0.04451                      -0.87603                       0.48019
        </DataArray>
        <DataArray type="Float32" Name="OrientationZ" NumberOfComponents="3" format="ascii">
                      -0.11936                      -0.48589                      -0.86583
                      -0.11937                      -0.48581                      -0.86587
                      -0.11936                      -0.48560                      -0.86600
                      -0.11934                      -0.48533                      -0.86615
                      -0.11931                      -0.48495                      -0.86637
                      -0.11927                      -0.48446                      -0.86664
                      -0.11927                      -0.48399                      -0.86691
                      -0.11934                      -0.48355                      -0.86714
                      -0.11949                      -0.48317                      -0.86733
                      -0.11976                      -0.48285                      -0.86747
                      -0.12015                      -0.48259                      -0.86756
                      -0.12068                      -0.48239                      -0.86760
                      -0.12133                      -0.48223                      -0.86760
                      -0.12209                      -0.48210                      -0.86757
                      -0.12289                      -0.48199                      -0.86752
                      -0.12356                      -0.48191                      -0.86746
                      -0.12405                      -0.48186                      -0.86742
                      -0.12447                      -0.48181                      -0.86739
                      -0.12465                      -0.48178                      -0.86738
        </DataArray>
        <DataArray type="Float32" Name="Force" NumberOfComponents="3" format="ascii">
                       5.59124                    -115.50864                      64.05095
                      18.76784                    -129.37816                      70.01782
                      21.12351                    -130.16202                      70.13326
                      14.77609                     -93.28480                      50.31365
                     -29.53436                     -21.81074                      16.30780
                     -86.34884                     -13.46564                      19.44452
                     -87.13014                     -11.43943                      18.41274
                     -49.19016                      -5.47605                       9.84639
                     -16.04817                      -2.29802                       3.50196
                      -5.28167                      -1.66505                       1.66411
                      -1.66381                      -1.31061                       0.96615
                      -9.59028                      -0.99363                       1.89279
                     -17.89508                      -0.55868                       2.81843
                      -7.97591                      -0.77903                       1.56072
                       9.77205                      -1.45101                      -0.57108
                      23.44809                      -1.89420                      -2.27974
                      31.79302                      -2.07892                      -3.38418
                      26.32534                      -1.54177                      -2.91603
                      38.74792                      -1.34507                      -4.81883
        </DataArray>
        <DataArray type="Float32" Name="Moment" NumberOfComponents="3" format="ascii">
                       0.00000                       0.00000                       0.00000
                       0.00000                       0.00000                       0.00000
                       0.00000                       0.00000                       0.00000
                       0.00000                       0.00000                       0.00000
                       8.78086                      35.77496                      63.74957
                      14.09411                      57.44965                     102.37362
                      12.80499                      52.20476                      93.02758
                      12.93830                      52.72934                      93.96195
                      15.15780                      61.70414                     109.95325
                      13.44779                      54.62703                      97.33975
                      11.97599                      48.49196                      86.40432
                      10.28575                      41.46749                      73.88405
                       6.29944                      25.26031                      45.00421
                       5.38751                      21.47051                      38.24933
                       4.66554                      18.47108                      32.90323
                       4.06563                      16.00886                      28.51526
                       3.37254                      13.22668                      23.55841
                       1.57346                       6.14989                      10.95327
                       1.63956                       6.39935                      11.39738
        </DataArray>
      </PointData>
      <Lines>
        <DataArray type="Int32" Name="connectivity" format="ascii">
      0      1
      1      2
      2      3
      3      4
      4      5
      5      6
      6      7
      7      8
      8      9
      9     10
     10     11
     11     12
     12     13
     13     14
     14     15
     15     16
     16     17
     17     18
        </DataArray>
        <DataArray type="Int32" Name="offsets" format="ascii">
      2
      4
      6
      8
     10
     12
     14
     16
     18
     20
     22
     24
     26
     28
     30
     32
     34
     36
        </DataArray>
      </Lines>
    </Piece>
  </PolyData>
</VTKFile>
